<?xml version="1.0" encoding="UTF-8" standalone="no"?>
<!-- Created with Inkscape (http://www.inkscape.org/) -->

<svg
   xmlns:dc="http://purl.org/dc/elements/1.1/"
   xmlns:cc="http://creativecommons.org/ns#"
   xmlns:rdf="http://www.w3.org/1999/02/22-rdf-syntax-ns#"
   xmlns:svg="http://www.w3.org/2000/svg"
   xmlns="http://www.w3.org/2000/svg"
   xmlns:xlink="http://www.w3.org/1999/xlink"
   xmlns:sodipodi="http://sodipodi.sourceforge.net/DTD/sodipodi-0.dtd"
   xmlns:inkscape="http://www.inkscape.org/namespaces/inkscape"
   version="1.0"
   width="96"
   height="96"
   id="svg2408"
   style="display:inline;enable-background:new"
   sodipodi:docname="user.svg"
   inkscape:version="0.92.2 2405546, 2018-03-11">
  <sodipodi:namedview
     pagecolor="#ffffff"
     bordercolor="#666666"
     borderopacity="1"
     objecttolerance="10"
     gridtolerance="10"
     guidetolerance="10"
     inkscape:pageopacity="0"
     inkscape:pageshadow="2"
     inkscape:window-width="1920"
     inkscape:window-height="1025"
     id="namedview236"
     showgrid="false"
     inkscape:zoom="2.4583333"
     inkscape:cx="48"
     inkscape:cy="48"
     inkscape:window-x="0"
     inkscape:window-y="27"
     inkscape:window-maximized="1"
     inkscape:current-layer="svg2408" />
  <defs
     id="defs2410">
    <linearGradient
       id="linearGradient4476">
      <stop
         id="stop4478"
         style="stop-color:#f1decd;stop-opacity:1"
         offset="0" />
      <stop
         id="stop4480"
         style="stop-color:#f6e8dd;stop-opacity:1"
         offset="0.41505799" />
      <stop
         id="stop4482"
         style="stop-color:#f0dcc9;stop-opacity:1"
         offset="0.625" />
      <stop
         id="stop4484"
         style="stop-color:#dab693;stop-opacity:1"
         offset="0.87263751" />
      <stop
         id="stop4488"
         style="stop-color:#bf9d7a;stop-opacity:1"
         offset="0.9425199" />
      <stop
         id="stop4486"
         style="stop-color:#8f765e;stop-opacity:1"
         offset="1" />
    </linearGradient>
    <linearGradient
       id="linearGradient4335">
      <stop
         id="stop4337"
         style="stop-color:#999999;stop-opacity:1"
         offset="0" />
      <stop
         id="stop4339"
         style="stop-color:#bbbbbb;stop-opacity:1"
         offset="1" />
    </linearGradient>
    <linearGradient
       id="linearGradient4317">
      <stop
         id="stop4319"
         style="stop-color:#ffffff;stop-opacity:1"
         offset="0" />
      <stop
         id="stop4321"
         style="stop-color:#ffffff;stop-opacity:0"
         offset="1" />
    </linearGradient>
    <linearGradient
       id="linearGradient4227">
      <stop
         id="stop4229"
         style="stop-color:#000000;stop-opacity:1"
         offset="0" />
      <stop
         id="stop4232"
         style="stop-color:#000000;stop-opacity:0"
         offset="1" />
    </linearGradient>
    <linearGradient
       id="linearGradient3687">
      <stop
         id="stop3689"
         style="stop-color:#ffffff;stop-opacity:1"
         offset="0" />
      <stop
         id="stop3691"
         style="stop-color:#ffffff;stop-opacity:0"
         offset="1" />
    </linearGradient>
    <linearGradient
       id="linearGradient3487">
      <stop
         id="stop3489"
         style="stop-color:#9cb7d2;stop-opacity:1"
         offset="0" />
      <stop
         id="stop3491"
         style="stop-color:#e7edf3;stop-opacity:0"
         offset="1" />
    </linearGradient>
    <linearGradient
       id="linearGradient3465">
      <stop
         id="stop3467"
         style="stop-color:#919191;stop-opacity:1"
         offset="0" />
      <stop
         id="stop3469"
         style="stop-color:#fdfdfd;stop-opacity:1"
         offset="1" />
    </linearGradient>
    <linearGradient
       id="linearGradient3187">
      <stop
         id="stop3189"
         style="stop-color:#b4b4b4;stop-opacity:1"
         offset="0" />
      <stop
         id="stop3191"
         style="stop-color:#e6e6e6;stop-opacity:1"
         offset="1" />
    </linearGradient>
    <linearGradient
       x1="45.447727"
       y1="92.539597"
       x2="45.447727"
       y2="7.0165396"
       id="ButtonShadow"
       gradientUnits="userSpaceOnUse"
       gradientTransform="scale(1.0058652,0.994169)">
      <stop
         id="stop3750"
         style="stop-color:#000000;stop-opacity:1"
         offset="0" />
      <stop
         id="stop3752"
         style="stop-color:#000000;stop-opacity:0.58823532"
         offset="1" />
    </linearGradient>
    <linearGradient
       id="linearGradient3737">
      <stop
         id="stop3739"
         style="stop-color:#ffffff;stop-opacity:1"
         offset="0" />
      <stop
         id="stop3741"
         style="stop-color:#ffffff;stop-opacity:0"
         offset="1" />
    </linearGradient>
    <filter
       color-interpolation-filters="sRGB"
       id="filter3174">
      <feGaussianBlur
         id="feGaussianBlur3176"
         stdDeviation="1.71" />
    </filter>
    <linearGradient
       x1="36.357143"
       y1="6"
       x2="36.357143"
       y2="63.893143"
       id="linearGradient3188"
       xlink:href="#linearGradient3737"
       gradientUnits="userSpaceOnUse" />
    <linearGradient
       x1="43.17857"
       y1="13"
       x2="43.17857"
       y2="83.294571"
       id="linearGradient3436"
       xlink:href="#linearGradient3465"
       gradientUnits="userSpaceOnUse"
       gradientTransform="matrix(1.0294118,0,0,1.0294118,-1.4117647,-1.4117647)" />
    <linearGradient
       x1="48"
       y1="90"
       x2="48"
       y2="5.9877172"
       id="linearGradient3466"
       xlink:href="#linearGradient3187"
       gradientUnits="userSpaceOnUse" />
    <linearGradient
       x1="76.45089"
       y1="8.0625"
       x2="76.45089"
       y2="72.765785"
       id="linearGradient3693"
       xlink:href="#linearGradient3687"
       gradientUnits="userSpaceOnUse" />
    <linearGradient
       x1="65.15625"
       y1="16.125"
       x2="65.15625"
       y2="69.687508"
       id="linearGradient3701"
       xlink:href="#linearGradient3487"
       gradientUnits="userSpaceOnUse" />
    <linearGradient
       x1="65.15625"
       y1="16.125"
       x2="65.15625"
       y2="69.687508"
       id="linearGradient2675"
       xlink:href="#linearGradient3737"
       gradientUnits="userSpaceOnUse" />
    <linearGradient
       id="linearGradient3737-1">
      <stop
         id="stop3739-7"
         style="stop-color:#ffffff;stop-opacity:1"
         offset="0" />
      <stop
         id="stop3741-2"
         style="stop-color:#ffffff;stop-opacity:0"
         offset="1" />
    </linearGradient>
    <radialGradient
       cx="48"
       cy="90.171875"
       r="42"
       fx="48"
       fy="90.171875"
       id="radialGradient2893"
       xlink:href="#linearGradient3737-1"
       gradientUnits="userSpaceOnUse"
       gradientTransform="matrix(1.1573129,0,0,0.99590774,-7.551021,0.1971319)" />
    <linearGradient
       x1="32.251034"
       y1="6.1317081"
       x2="32.251034"
       y2="90.238609"
       id="linearGradient3721"
       xlink:href="#ButtonShadow-0"
       gradientUnits="userSpaceOnUse"
       gradientTransform="translate(0,-97)" />
    <linearGradient
       x1="45.447727"
       y1="92.539597"
       x2="45.447727"
       y2="7.0165396"
       id="ButtonShadow-0"
       gradientUnits="userSpaceOnUse"
       gradientTransform="matrix(1.0058652,0,0,0.994169,100,0)">
      <stop
         id="stop3750-8"
         style="stop-color:#000000;stop-opacity:1"
         offset="0" />
      <stop
         id="stop3752-5"
         style="stop-color:#000000;stop-opacity:0.58823532"
         offset="1" />
    </linearGradient>
    <linearGradient
       x1="32.251034"
       y1="6.1317081"
       x2="32.251034"
       y2="90.238609"
       id="linearGradient3725"
       xlink:href="#ButtonShadow-0"
       gradientUnits="userSpaceOnUse"
       gradientTransform="matrix(1.0238095,0,0,1.0119048,-1.1428571,-98.071429)" />
    <linearGradient
       x1="32.251034"
       y1="6.1317081"
       x2="32.251034"
       y2="90.238609"
       id="linearGradient3772"
       xlink:href="#ButtonShadow-0"
       gradientUnits="userSpaceOnUse"
       gradientTransform="matrix(1.0238095,0,0,1.0119048,-1.1428571,-98.071429)" />
    <linearGradient
       x1="32.251034"
       y1="6.1317081"
       x2="32.251034"
       y2="90.238609"
       id="linearGradient3780"
       xlink:href="#ButtonShadow-0"
       gradientUnits="userSpaceOnUse"
       gradientTransform="matrix(1.0238095,0,0,1.0119048,-1.1428571,-98.071429)" />
    <linearGradient
       x1="32.251034"
       y1="6.1317081"
       x2="32.251034"
       y2="90.238609"
       id="linearGradient2969"
       xlink:href="#ButtonShadow-0"
       gradientUnits="userSpaceOnUse"
       gradientTransform="matrix(1.0238095,0,0,1.0119048,-1.1428571,-98.071429)" />
    <linearGradient
       id="linearGradient3175-1">
      <stop
         id="stop3177-6"
         style="stop-color:#4490e6;stop-opacity:1"
         offset="0" />
      <stop
         id="stop3179-3"
         style="stop-color:#103d8f;stop-opacity:1"
         offset="1" />
    </linearGradient>
    <radialGradient
       cx="56.065952"
       cy="-15.871236"
       r="35.9375"
       fx="56.065952"
       fy="-15.871236"
       id="radialGradient4510"
       xlink:href="#linearGradient3175-1"
       gradientUnits="userSpaceOnUse"
       gradientTransform="matrix(0.00225966,0.925477,-1.3844339,0,25.901984,-30.21143)" />
    <linearGradient
       x1="65.15625"
       y1="16.125"
       x2="65.15625"
       y2="69.687508"
       id="linearGradient4147"
       xlink:href="#linearGradient3487"
       gradientUnits="userSpaceOnUse"
       gradientTransform="translate(60)" />
    <linearGradient
       x1="65.15625"
       y1="16.125"
       x2="65.15625"
       y2="69.687508"
       id="linearGradient4149"
       xlink:href="#linearGradient3737"
       gradientUnits="userSpaceOnUse"
       gradientTransform="translate(60)" />
    <linearGradient
       x1="50"
       y1="46"
       x2="66"
       y2="30"
       id="linearGradient4162-2"
       xlink:href="#linearGradient4476"
       gradientUnits="userSpaceOnUse" />
    <linearGradient
       x1="69"
       y1="53"
       x2="61.890766"
       y2="-1"
       id="linearGradient4235"
       xlink:href="#linearGradient4227"
       gradientUnits="userSpaceOnUse" />
    <linearGradient
       x1="70"
       y1="52"
       x2="56.066643"
       y2="0"
       id="linearGradient4244"
       xlink:href="#linearGradient4227"
       gradientUnits="userSpaceOnUse" />
    <linearGradient
       x1="69"
       y1="53"
       x2="61.890766"
       y2="-1"
       id="linearGradient4252"
       xlink:href="#linearGradient4227"
       gradientUnits="userSpaceOnUse" />
    <linearGradient
       x1="49"
       y1="46"
       x2="49"
       y2="20"
       id="linearGradient4323"
       xlink:href="#linearGradient4317"
       gradientUnits="userSpaceOnUse" />
    <linearGradient
       x1="64"
       y1="46.893559"
       x2="52"
       y2="45.313728"
       id="linearGradient4331"
       xlink:href="#linearGradient4227"
       gradientUnits="userSpaceOnUse" />
    <linearGradient
       x1="72"
       y1="32"
       x2="77"
       y2="16"
       id="linearGradient4341"
       xlink:href="#linearGradient4335"
       gradientUnits="userSpaceOnUse" />
    <linearGradient
       x1="25"
       y1="76"
       x2="25"
       y2="80"
       id="linearGradient4359-1"
       xlink:href="#linearGradient4353-5"
       gradientUnits="userSpaceOnUse" />
    <linearGradient
       id="linearGradient4353-5">
      <stop
         id="stop4355-0"
         style="stop-color:#ffffff;stop-opacity:1"
         offset="0" />
      <stop
         id="stop4369-4"
         style="stop-color:#ffffff;stop-opacity:0.49803922"
         offset="0.2" />
      <stop
         id="stop4357-8"
         style="stop-color:#ffffff;stop-opacity:0"
         offset="1" />
    </linearGradient>
    <linearGradient
       x1="25"
       y1="76"
       x2="25"
       y2="80"
       id="linearGradient4363-7"
       xlink:href="#linearGradient4353-5"
       gradientUnits="userSpaceOnUse"
       gradientTransform="translate(12)" />
    <linearGradient
       x1="25"
       y1="76"
       x2="25"
       y2="80"
       id="linearGradient4367-9"
       xlink:href="#linearGradient4353-5"
       gradientUnits="userSpaceOnUse"
       gradientTransform="translate(24)" />
    <linearGradient
       x1="6.9332814"
       y1="3"
       x2="6.9349904"
       y2="6.4254756"
       id="linearGradient4266-5"
       xlink:href="#linearGradient3348-0"
       gradientUnits="userSpaceOnUse"
       gradientTransform="translate(0,-2)" />
    <linearGradient
       id="linearGradient3348-0">
      <stop
         id="stop3350-9"
         style="stop-color:#e0c693;stop-opacity:1"
         offset="0" />
      <stop
         id="stop3356-6"
         style="stop-color:#c0984f;stop-opacity:1"
         offset="0.71691591" />
      <stop
         id="stop3352-3"
         style="stop-color:#a67315;stop-opacity:1"
         offset="1" />
    </linearGradient>
    <linearGradient
       x1="48.035713"
       y1="25.910715"
       x2="48.035713"
       y2="85.821426"
       id="linearGradient4268-8"
       xlink:href="#linearGradient3317-5"
       gradientUnits="userSpaceOnUse"
       gradientTransform="matrix(0.2195263,0,0,0.2195263,0.3370719,1.1776143)" />
    <linearGradient
       x1="11.794092"
       y1="3.2126782"
       x2="11.794092"
       y2="20.137329"
       id="linearGradient3317-5"
       gradientUnits="userSpaceOnUse"
       gradientTransform="scale(1.0598527,0.9435274)">
      <stop
         id="stop3319-6"
         style="stop-color:#c6953a;stop-opacity:1"
         offset="0" />
      <stop
         id="stop3321-1"
         style="stop-color:#ab7a1f;stop-opacity:1"
         offset="1" />
    </linearGradient>
    <filter
       x="-0.29411685"
       y="-0.58931339"
       width="1.5882337"
       height="2.1786268"
       color-interpolation-filters="sRGB"
       id="filter3342">
      <feGaussianBlur
         stdDeviation="2.2029067"
         id="feGaussianBlur3344" />
    </filter>
    <linearGradient
       x1="10.871767"
       y1="24.123091"
       x2="10.871767"
       y2="8.1216478"
       id="linearGradient4270-1"
       xlink:href="#linearGradient4229-5"
       gradientUnits="userSpaceOnUse"
       gradientTransform="translate(-1.7400389,-3.1230297)" />
    <linearGradient
       id="linearGradient4229-5">
      <stop
         id="stop4231-9"
         style="stop-color:#cca050;stop-opacity:1"
         offset="0" />
      <stop
         id="stop4233-8"
         style="stop-color:#dec18c;stop-opacity:1"
         offset="1" />
    </linearGradient>
    <linearGradient
       x1="11.375"
       y1="22"
       x2="11.375"
       y2="-9.817296"
       id="linearGradient10458-4"
       xlink:href="#linearGradient3327-8"
       gradientUnits="userSpaceOnUse" />
    <linearGradient
       id="linearGradient3327-8">
      <stop
         id="stop3330-1"
         style="stop-color:#000000;stop-opacity:1"
         offset="0" />
      <stop
         id="stop3333-0"
         style="stop-color:#000000;stop-opacity:0"
         offset="1" />
    </linearGradient>
    <radialGradient
       cx="65.547707"
       cy="32.811893"
       r="51.413425"
       fx="65.547707"
       fy="32.811893"
       id="radialGradient10522-3"
       xlink:href="#linearGradient7105-0"
       gradientUnits="userSpaceOnUse"
       gradientTransform="matrix(0.1465701,0,0,0.08025129,1.4499666,4.3830053)" />
    <linearGradient
       id="linearGradient7105-0">
      <stop
         id="stop7107-4"
         style="stop-color:#515151;stop-opacity:1"
         offset="0" />
      <stop
         id="stop7113-4"
         style="stop-color:#1b1b1b;stop-opacity:1"
         offset="1" />
    </linearGradient>
    <linearGradient
       x1="-3.0607977"
       y1="27.258198"
       x2="-3.0607977"
       y2="7.2536583"
       id="linearGradient10519-4"
       xlink:href="#linearGradient11084-4"
       gradientUnits="userSpaceOnUse"
       gradientTransform="rotate(90,8.569413,19.688785)" />
    <linearGradient
       id="linearGradient11084-4">
      <stop
         id="stop11086-7"
         style="stop-color:#a0a0a0;stop-opacity:1"
         offset="0" />
      <stop
         id="stop11088-6"
         style="stop-color:#dcdcdc;stop-opacity:1"
         offset="0.1362071" />
      <stop
         id="stop11090-3"
         style="stop-color:#f5f5f5;stop-opacity:1"
         offset="0.3023597" />
      <stop
         id="stop11092-1"
         style="stop-color:#dcdcdc;stop-opacity:1"
         offset="0.61225069" />
      <stop
         id="stop11094-7"
         style="stop-color:#b4b4b4;stop-opacity:1"
         offset="1" />
    </linearGradient>
    <linearGradient
       x1="26.98472"
       y1="5"
       x2="26.98472"
       y2="110.74494"
       id="linearGradient10464-5"
       xlink:href="#linearGradient7155-9"
       gradientUnits="userSpaceOnUse"
       gradientTransform="matrix(0.1689854,0,0,0.1689854,-9.1486043,0.1550765)" />
    <linearGradient
       id="linearGradient7155-9">
      <stop
         id="stop7157-6"
         style="stop-color:#ffffff;stop-opacity:1"
         offset="0" />
      <stop
         id="stop7159-2"
         style="stop-color:#ffffff;stop-opacity:0"
         offset="1" />
    </linearGradient>
    <linearGradient
       x1="26.98472"
       y1="54.295403"
       x2="26.98472"
       y2="96.039551"
       id="linearGradient10466-1"
       xlink:href="#linearGradient7155-9"
       gradientUnits="userSpaceOnUse"
       gradientTransform="matrix(0.06836166,0,0,-0.1689854,-12.165668,21.785214)"
       spreadMethod="reflect" />
    <linearGradient
       x1="26.98472"
       y1="5"
       x2="26.98472"
       y2="68.695473"
       id="linearGradient10468-7"
       xlink:href="#linearGradient7155-9"
       gradientUnits="userSpaceOnUse"
       gradientTransform="matrix(0.08408413,0,0,-0.1689854,-18.299613,21.785214)" />
    <linearGradient
       x1="26.98472"
       y1="5"
       x2="26.98472"
       y2="70.167"
       id="linearGradient10470-5"
       xlink:href="#linearGradient7175-7"
       gradientUnits="userSpaceOnUse"
       gradientTransform="matrix(0.2287308,0,0,-0.1689854,-19.269799,21.785214)" />
    <linearGradient
       id="linearGradient7175-7">
      <stop
         id="stop7177-4"
         style="stop-color:#000000;stop-opacity:1"
         offset="0" />
      <stop
         id="stop7179-1"
         style="stop-color:#000000;stop-opacity:0"
         offset="1" />
    </linearGradient>
    <linearGradient
       x1="26.98472"
       y1="5"
       x2="26.98472"
       y2="120.63893"
       id="linearGradient10472-8"
       xlink:href="#linearGradient7175-7"
       gradientUnits="userSpaceOnUse"
       gradientTransform="matrix(0.1847079,0,0,-0.1689854,-12.946607,21.844927)" />
    <linearGradient
       x1="26.98472"
       y1="5"
       x2="26.98472"
       y2="68.695473"
       id="linearGradient10474-5"
       xlink:href="#linearGradient7155-9"
       gradientUnits="userSpaceOnUse"
       gradientTransform="matrix(0.03377223,0,0,0.1689854,-2.2527661,0.1550765)" />
    <linearGradient
       x1="26.98472"
       y1="5"
       x2="26.98472"
       y2="176.64893"
       id="linearGradient10476-9"
       xlink:href="#linearGradient7175-7"
       gradientUnits="userSpaceOnUse"
       gradientTransform="matrix(0.0668628,0,0,0.1689854,-4.1694296,0.2147903)" />
    <linearGradient
       x1="26.98472"
       y1="5"
       x2="26.98472"
       y2="110.67213"
       id="linearGradient10478-7"
       xlink:href="#linearGradient7155-9"
       gradientUnits="userSpaceOnUse"
       gradientTransform="matrix(0.02119426,0,0,0.1689854,-18.016531,0.1550765)" />
    <linearGradient
       x1="48.22263"
       y1="13.313221"
       x2="48.22263"
       y2="47.795158"
       id="linearGradient10482-5"
       xlink:href="#linearGradient7097-3"
       gradientUnits="userSpaceOnUse" />
    <linearGradient
       id="linearGradient7097-3">
      <stop
         id="stop7099-8"
         style="stop-color:#919191;stop-opacity:1"
         offset="0" />
      <stop
         id="stop7101-8"
         style="stop-color:#ffffff;stop-opacity:1"
         offset="1" />
    </linearGradient>
    <linearGradient
       x1="87.228699"
       y1="103.55167"
       x2="69.920662"
       y2="103.55167"
       id="linearGradient10484-3"
       xlink:href="#linearGradient4360-1"
       gradientUnits="userSpaceOnUse" />
    <linearGradient
       id="linearGradient4360-1">
      <stop
         id="stop4362-8"
         style="stop-color:#6e6e6e;stop-opacity:1"
         offset="0" />
      <stop
         id="stop4364-9"
         style="stop-color:#8c8c8c;stop-opacity:1"
         offset="1" />
    </linearGradient>
    <linearGradient
       x1="82.855774"
       y1="87.433334"
       x2="86.748848"
       y2="97.972473"
       id="linearGradient10486-6"
       xlink:href="#linearGradient4368-4"
       gradientUnits="userSpaceOnUse" />
    <linearGradient
       id="linearGradient4368-4">
      <stop
         id="stop4370-3"
         style="stop-color:#828282;stop-opacity:1"
         offset="0" />
      <stop
         id="stop4372-3"
         style="stop-color:#5a5a5a;stop-opacity:1"
         offset="1" />
    </linearGradient>
    <linearGradient
       x1="52.105541"
       y1="76.541229"
       x2="61.130371"
       y2="68.295815"
       id="linearGradient10488-3"
       xlink:href="#linearGradient4368-4"
       gradientUnits="userSpaceOnUse" />
    <linearGradient
       x1="66.740204"
       y1="63.588692"
       x2="75.281227"
       y2="80.814972"
       id="linearGradient10490-8"
       xlink:href="#linearGradient4360-1"
       gradientUnits="userSpaceOnUse" />
    <linearGradient
       x1="43.245415"
       y1="104.21532"
       x2="48.193569"
       y2="93.471298"
       id="linearGradient10492-6"
       xlink:href="#linearGradient4360-1"
       gradientUnits="userSpaceOnUse" />
    <linearGradient
       x1="60.413662"
       y1="106.16137"
       x2="46.921165"
       y2="110.65887"
       id="linearGradient10494-8"
       xlink:href="#linearGradient4368-4"
       gradientUnits="userSpaceOnUse" />
  </defs>
  <metadata
     id="metadata2413">
    <rdf:RDF>
      <cc:Work
         rdf:about="">
        <dc:format>image/svg+xml</dc:format>
        <dc:type
           rdf:resource="http://purl.org/dc/dcmitype/StillImage" />
        <dc:title />
      </cc:Work>
    </rdf:RDF>
  </metadata>
  <g
     id="layer2"
     style="display:none">
    <rect
       width="86"
       height="85"
       rx="6"
       ry="6"
       x="5"
       y="7"
       id="rect3745"
       style="opacity:0.9;fill:url(#ButtonShadow);fill-opacity:1;fill-rule:nonzero;stroke:none;filter:url(#filter3174)" />
  </g>
  <g
     id="g1129"
     transform="matrix(1.421994,0,0,1.37686,-20.024348,-17.275722)">
    <g
       style="display:inline"
       id="layer3">
      <path
         style="display:inline;fill:url(#radialGradient4510);fill-opacity:1;fill-rule:nonzero;stroke:none"
         id="path3215-5"
         transform="matrix(-1.0008688,0,0,-1.3339699,96.010447,99.965928)"
         d="m 12.0625,12.0625 v 53.875 h 71.875 v -53.875 z"
         inkscape:connector-curvature="0" />
      <g
         id="g3449">
        <rect
           style="display:inline;opacity:0.4;fill:#c3d9f5;fill-opacity:1;fill-rule:nonzero;stroke:none"
           id="rect4345-7"
           y="12"
           x="11.785715"
           ry="2.3829787"
           rx="3.0290828"
           height="10"
           width="72.535713" />
        <path
           style="color:#000000;display:inline;overflow:visible;visibility:visible;opacity:0.5;fill:#ffffff;fill-opacity:1;fill-rule:nonzero;stroke:none;stroke-width:2;marker:none;enable-background:accumulate"
           id="path4371-1"
           transform="translate(-1,-1)"
           d="m 25,19 a 2,2 0 1 1 -4,0 2,2 0 1 1 4,0 z"
           inkscape:connector-curvature="0" />
        <g
           style="font-style:normal;font-variant:normal;font-weight:bold;font-stretch:normal;font-size:3px;line-height:125%;font-family:Ubuntu;-inkscape-font-specification:'Ubuntu Bold';text-align:start;letter-spacing:0px;word-spacing:0px;writing-mode:lr-tb;text-anchor:start;display:inline;opacity:0.5;fill:#ffffff;fill-opacity:1;stroke:none"
           id="text4373-0"
           transform="translate(0.115134,0.909771)">
          <path
             style="fill:#ffffff"
             id="path4378-6"
             inkscape:connector-curvature="0"
             d="m 27.486866,18.535229 c -0.022,-0.072 -0.047,-0.146 -0.075,-0.222 -0.026,-0.076 -0.052,-0.152 -0.078,-0.228 h -0.81 c -0.026,0.076 -0.053,0.152 -0.081,0.228 -0.026,0.076 -0.05,0.15 -0.072,0.222 h -0.486 c 0.078,-0.224 0.152,-0.431 0.222,-0.621 0.07,-0.189999 0.138,-0.368999 0.204,-0.537 0.068,-0.167999 0.133999,-0.326999 0.198,-0.477 0.066,-0.151998 0.133999,-0.299998 0.204,-0.444 h 0.447 c 0.068,0.144002 0.134999,0.292002 0.201,0.444 0.066,0.150001 0.131998,0.309001 0.198,0.477 0.068,0.168001 0.136998,0.347001 0.207,0.537 0.07,0.19 0.143998,0.397 0.222,0.621 h -0.501 m -0.561,-1.608 c -0.01,0.03 -0.025,0.071 -0.045,0.123 -0.02,0.052 -0.043,0.112001 -0.069,0.18 -0.026,0.068 -0.055,0.143001 -0.087,0.225 -0.03,0.082 -0.061,0.168001 -0.093,0.258 h 0.591 c -0.032,-0.09 -0.063,-0.175999 -0.093,-0.258 -0.03,-0.082 -0.059,-0.156999 -0.087,-0.225 -0.026,-0.068 -0.049,-0.127999 -0.069,-0.18 -0.02,-0.052 -0.036,-0.093 -0.048,-0.123" />
          <path
             style="fill:#ffffff"
             id="path4380-1"
             inkscape:connector-curvature="0"
             d="m 29.237975,17.758229 c -10e-7,-0.137999 -0.031,-0.247999 -0.093,-0.33 -0.062,-0.084 -0.154001,-0.125999 -0.276,-0.126 -0.04,1e-6 -0.077,0.002 -0.111,0.006 -0.034,0.002 -0.062,0.005 -0.084,0.009 v 0.807 c 0.028,0.018 0.064,0.033 0.108,0.045 0.046,0.012 0.092,0.018 0.138,0.018 0.211999,0 0.317999,-0.143 0.318,-0.429 m 0.456,-0.012 c -10e-7,0.122 -0.015,0.233 -0.045,0.333 -0.03,0.1 -0.074,0.186 -0.132,0.258 -0.058,0.072 -0.130001,0.128 -0.216,0.168 -0.086,0.04 -0.185001,0.06 -0.297,0.06 -0.062,0 -0.12,-0.006 -0.174,-0.018 -0.054,-0.012 -0.106,-0.029 -0.156,-0.051 v 0.594 h -0.447 v -2.079 c 0.04,-0.012 0.086,-0.023 0.138,-0.033 0.052,-0.012 0.106,-0.022 0.162,-0.03 0.058,-0.008 0.116,-0.014 0.174,-0.018 0.06,-0.006 0.117,-0.009 0.171,-0.009 0.129999,1e-6 0.245999,0.02 0.348,0.06 0.101999,0.038 0.187999,0.093 0.258,0.165 0.07,0.07 0.122999,0.156001 0.159,0.258 0.038,0.102001 0.057,0.216001 0.057,0.342" />
          <path
             style="fill:#ffffff"
             id="path4382-5"
             inkscape:connector-curvature="0"
             d="m 31.048522,17.758229 c -10e-7,-0.137999 -0.031,-0.247999 -0.093,-0.33 -0.062,-0.084 -0.154001,-0.125999 -0.276,-0.126 -0.04,1e-6 -0.077,0.002 -0.111,0.006 -0.034,0.002 -0.062,0.005 -0.084,0.009 v 0.807 c 0.028,0.018 0.064,0.033 0.108,0.045 0.046,0.012 0.092,0.018 0.138,0.018 0.211999,0 0.317999,-0.143 0.318,-0.429 m 0.456,-0.012 c -1e-6,0.122 -0.015,0.233 -0.045,0.333 -0.03,0.1 -0.074,0.186 -0.132,0.258 -0.058,0.072 -0.130001,0.128 -0.216,0.168 -0.086,0.04 -0.185001,0.06 -0.297,0.06 -0.062,0 -0.120001,-0.006 -0.174,-0.018 -0.054,-0.012 -0.106,-0.029 -0.156,-0.051 v 0.594 h -0.447 v -2.079 c 0.04,-0.012 0.086,-0.023 0.138,-0.033 0.052,-0.012 0.106,-0.022 0.162,-0.03 0.058,-0.008 0.116,-0.014 0.174,-0.018 0.06,-0.006 0.116999,-0.009 0.171,-0.009 0.129999,1e-6 0.245999,0.02 0.348,0.06 0.101999,0.038 0.187999,0.093 0.258,0.165 0.07,0.07 0.122999,0.156001 0.159,0.258 0.038,0.102001 0.057,0.216001 0.057,0.342" />
          <path
             style="fill:#ffffff"
             id="path4384-9"
             inkscape:connector-curvature="0"
             d="m 32.478069,18.565229 c -0.130001,-0.002 -0.236,-0.016 -0.318,-0.042 -0.08,-0.026 -0.144,-0.062 -0.192,-0.108 -0.046,-0.048 -0.078,-0.105 -0.096,-0.171 -0.016,-0.068 -0.024,-0.144 -0.024,-0.228 v -1.737 l 0.447,-0.072 v 1.719 c -10e-7,0.04 0.003,0.076 0.009,0.108 0.006,0.032 0.017,0.059 0.033,0.081 0.018,0.022 0.043,0.04 0.075,0.054 0.032,0.014 0.075,0.023 0.129,0.027 l -0.063,0.369" />
          <path
             style="fill:#ffffff"
             id="path4386-4"
             inkscape:connector-curvature="0"
             d="m 33.244288,18.535229 h -0.447 v -1.578 h 0.447 v 1.578 m 0.042,-2.034 c -10e-7,0.082 -0.027,0.147002 -0.081,0.195 -0.052,0.046 -0.114001,0.069 -0.186,0.069 -0.072,10e-7 -0.135,-0.023 -0.189,-0.069 -0.052,-0.048 -0.078,-0.112998 -0.078,-0.195 0,-0.082 0.026,-0.145998 0.078,-0.192 0.054,-0.048 0.117,-0.072 0.189,-0.072 0.072,2e-6 0.133999,0.024 0.186,0.072 0.054,0.046 0.081,0.110002 0.081,0.192" />
          <path
             style="fill:#ffffff"
             id="path4388-9"
             inkscape:connector-curvature="0"
             d="m 33.589475,17.746229 c 0,-0.113999 0.018,-0.220999 0.054,-0.321 0.038,-0.101999 0.092,-0.189999 0.162,-0.264 0.07,-0.076 0.155,-0.135999 0.255,-0.18 0.1,-0.044 0.214,-0.066 0.342,-0.066 0.084,1e-6 0.160999,0.008 0.231,0.024 0.07,0.014 0.137999,0.035 0.204,0.063 l -0.093,0.357 c -0.042,-0.016 -0.088,-0.03 -0.138,-0.042 -0.05,-0.012 -0.106001,-0.018 -0.168,-0.018 -0.132,1e-6 -0.231,0.041 -0.297,0.123 -0.064,0.082 -0.096,0.190001 -0.096,0.324 0,0.142 0.03,0.252 0.09,0.33 0.062,0.078 0.169,0.117 0.321,0.117 0.054,0 0.111999,-0.005 0.174,-0.015 0.062,-0.01 0.118999,-0.026 0.171,-0.048 l 0.063,0.366 c -0.052,0.022 -0.117001,0.041 -0.195,0.057 -0.078,0.016 -0.164001,0.024 -0.258,0.024 -0.144,0 -0.268,-0.021 -0.372,-0.063 -0.104,-0.044 -0.19,-0.103 -0.258,-0.177 -0.066,-0.074 -0.115,-0.161 -0.147,-0.261 -0.03,-0.102 -0.045,-0.212 -0.045,-0.33" />
          <path
             style="fill:#ffffff"
             id="path4390-0"
             inkscape:connector-curvature="0"
             d="m 35.691304,18.223229 c 0.044,0 0.086,-0.001 0.126,-0.003 0.04,-0.002 0.072,-0.005 0.096,-0.009 v -0.339 c -0.018,-0.004 -0.045,-0.008 -0.081,-0.012 -0.036,-0.004 -0.069,-0.006 -0.099,-0.006 -0.042,0 -0.082,0.003 -0.12,0.009 -0.036,0.004 -0.068,0.013 -0.096,0.027 -0.028,0.014 -0.05,0.033 -0.066,0.057 -0.016,0.024 -0.024,0.054 -0.024,0.09 -10e-7,0.07 0.023,0.119 0.069,0.147 0.048,0.026 0.112999,0.039 0.195,0.039 m -0.036,-1.308 c 0.131999,1e-6 0.241999,0.015 0.33,0.045 0.088,0.03 0.157998,0.073 0.21,0.129 0.054,0.056 0.092,0.124001 0.114,0.204 0.022,0.08 0.033,0.169001 0.033,0.267 v 0.93 c -0.064,0.014 -0.153002,0.03 -0.267,0.048 -0.114002,0.02 -0.252001,0.03 -0.414,0.03 -0.102001,0 -0.195001,-0.009 -0.279,-0.027 -0.082,-0.018 -0.153001,-0.047 -0.213,-0.087 -0.06,-0.042 -0.106001,-0.096 -0.138,-0.162 -0.032,-0.066 -0.048,-0.147 -0.048,-0.243 -10e-7,-0.092 0.018,-0.17 0.054,-0.234 0.038,-0.064 0.088,-0.114999 0.15,-0.153 0.062,-0.038 0.132999,-0.065 0.213,-0.081 0.08,-0.018 0.162999,-0.027 0.249,-0.027 0.058,1e-6 0.108999,0.003 0.153,0.009 0.046,0.004 0.083,0.01 0.111,0.018 v -0.042 c -2e-6,-0.076 -0.023,-0.136999 -0.069,-0.183 -0.046,-0.046 -0.126001,-0.069 -0.24,-0.069 -0.076,1e-6 -0.151001,0.006 -0.225,0.018 -0.074,0.01 -0.138001,0.025 -0.192,0.045 l -0.057,-0.36 c 0.026,-0.008 0.058,-0.016 0.096,-0.024 0.04,-0.01 0.083,-0.018 0.129,-0.024 0.046,-0.008 0.094,-0.014 0.144,-0.018 0.052,-0.006 0.103999,-0.009 0.156,-0.009" />
          <path
             style="fill:#ffffff"
             id="path4392-9"
             inkscape:connector-curvature="0"
             d="m 36.731507,16.564229 0.447,-0.072 v 0.465 h 0.537 v 0.372 h -0.537 v 0.555 c -1e-6,0.094 0.016,0.169 0.048,0.225 0.034,0.056 0.100999,0.084 0.201,0.084 0.048,0 0.097,-0.004 0.147,-0.012 0.052,-0.01 0.099,-0.023 0.141,-0.039 l 0.063,0.348 c -0.054,0.022 -0.114001,0.041 -0.18,0.057 -0.066,0.016 -0.147001,0.024 -0.243,0.024 -0.122001,0 -0.223001,-0.016 -0.303,-0.048 -0.08,-0.034 -0.144001,-0.08 -0.192,-0.138 -0.048,-0.06 -0.082,-0.132 -0.102,-0.216 -0.018,-0.084 -0.027,-0.177 -0.027,-0.279 v -1.326" />
          <path
             style="fill:#ffffff"
             id="path4394-1"
             inkscape:connector-curvature="0"
             d="m 38.523585,18.535229 h -0.447 v -1.578 h 0.447 v 1.578 m 0.042,-2.034 c -10e-7,0.082 -0.027,0.147002 -0.081,0.195 -0.052,0.046 -0.114001,0.069 -0.186,0.069 -0.072,10e-7 -0.135001,-0.023 -0.189,-0.069 -0.052,-0.048 -0.078,-0.112998 -0.078,-0.195 0,-0.082 0.026,-0.145998 0.078,-0.192 0.054,-0.048 0.116999,-0.072 0.189,-0.072 0.072,2e-6 0.133999,0.024 0.186,0.072 0.054,0.046 0.081,0.110002 0.081,0.192" />
          <path
             style="fill:#ffffff"
             id="path4396-7"
             inkscape:connector-curvature="0"
             d="m 40.419772,17.743229 c -1e-6,0.124 -0.018,0.238 -0.054,0.342 -0.036,0.102 -0.088,0.19 -0.156,0.264 -0.068,0.072 -0.150001,0.128 -0.246,0.168 -0.094,0.04 -0.200001,0.06 -0.318,0.06 -0.116001,0 -0.222,-0.02 -0.318,-0.06 -0.094,-0.04 -0.175,-0.096 -0.243,-0.168 -0.068,-0.074 -0.121,-0.162 -0.159,-0.264 -0.038,-0.104 -0.057,-0.218 -0.057,-0.342 0,-0.123999 0.019,-0.236999 0.057,-0.339 0.04,-0.101999 0.094,-0.188999 0.162,-0.261 0.07,-0.072 0.152,-0.127999 0.246,-0.168 0.096,-0.04 0.199999,-0.06 0.312,-0.06 0.113999,1e-6 0.217999,0.02 0.312,0.06 0.096,0.04 0.177999,0.096 0.246,0.168 0.068,0.072 0.120999,0.159001 0.159,0.261 0.038,0.102001 0.057,0.215001 0.057,0.339 m -0.456,0 c -10e-7,-0.137999 -0.028,-0.245999 -0.084,-0.324 -0.054,-0.08 -0.132001,-0.119999 -0.234,-0.12 -0.102001,1e-6 -0.181,0.04 -0.237,0.12 -0.056,0.078 -0.084,0.186001 -0.084,0.324 0,0.138 0.028,0.248 0.084,0.33 0.056,0.08 0.134999,0.12 0.237,0.12 0.101999,0 0.179999,-0.04 0.234,-0.12 0.056,-0.082 0.084,-0.192 0.084,-0.33" />
          <path
             style="fill:#ffffff"
             id="path4398-7"
             inkscape:connector-curvature="0"
             d="m 40.766038,17.011229 c 0.076,-0.022 0.174,-0.042 0.294,-0.06 0.119999,-0.02 0.245999,-0.03 0.378,-0.03 0.133999,1e-6 0.244999,0.018 0.333,0.054 0.09,0.034 0.160999,0.083 0.213,0.147 0.052,0.064 0.089,0.140001 0.111,0.228 0.022,0.088 0.033,0.186001 0.033,0.294 v 0.891 h -0.447 v -0.837 c -10e-7,-0.143999 -0.019,-0.245999 -0.057,-0.306 -0.038,-0.06 -0.109001,-0.09 -0.213,-0.09 -0.032,1e-6 -0.066,0.002 -0.102,0.006 -0.036,0.002 -0.068,0.005 -0.096,0.009 v 1.218 h -0.447 v -1.524" />
          <path
             style="fill:#ffffff"
             id="path4400-1"
             inkscape:connector-curvature="0"
             d="m 42.988569,18.214229 c 0.082,0 0.139999,-0.008 0.174,-0.024 0.034,-0.016 0.051,-0.047 0.051,-0.093 -10e-7,-0.036 -0.022,-0.067 -0.066,-0.093 -0.044,-0.028 -0.111001,-0.059 -0.201,-0.093 -0.07,-0.026 -0.134,-0.053 -0.192,-0.081 -0.056,-0.028 -0.104,-0.061 -0.144,-0.099 -0.04,-0.04 -0.071,-0.087 -0.093,-0.141 -0.022,-0.054 -0.033,-0.118999 -0.033,-0.195 0,-0.147999 0.055,-0.264999 0.165,-0.351 0.11,-0.086 0.261,-0.128999 0.453,-0.129 0.096,1e-6 0.187999,0.009 0.276,0.027 0.088,0.016 0.157999,0.034 0.21,0.054 l -0.078,0.348 c -0.052,-0.018 -0.109001,-0.034 -0.171,-0.048 -0.06,-0.014 -0.128001,-0.021 -0.204,-0.021 -0.140001,1e-6 -0.21,0.039 -0.21,0.117 0,0.018 0.003,0.034 0.009,0.048 0.006,0.014 0.018,0.028 0.036,0.042 0.018,0.012 0.042,0.026 0.072,0.042 0.032,0.014 0.072,0.03 0.12,0.048 0.098,0.036 0.178999,0.072 0.243,0.108 0.064,0.034 0.113999,0.072 0.15,0.114 0.038,0.04 0.064,0.085 0.078,0.135 0.016,0.05 0.024,0.108 0.024,0.174 -1e-6,0.156 -0.059,0.274 -0.177,0.354 -0.116001,0.08 -0.281001,0.12 -0.495,0.12 -0.14,0 -0.257,-0.012 -0.351,-0.036 -0.092,-0.024 -0.156,-0.044 -0.192,-0.06 l 0.075,-0.363 c 0.076,0.03 0.154,0.054 0.234,0.072 0.08,0.016 0.159,0.024 0.237,0.024" />
        </g>
      </g>
      <path
         style="fill:url(#linearGradient4341);fill-opacity:1;stroke:none"
         id="path4333"
         inkscape:connector-curvature="0"
         d="M 47,14 82,48 V 14 Z" />
      <rect
         style="display:inline;opacity:0.4;fill:#c3d9f5;fill-opacity:1;fill-rule:nonzero;stroke:none"
         id="rect4832"
         y="74"
         x="11.785715"
         ry="2.3829787"
         rx="3.0290828"
         height="10"
         width="72.535713" />
      <path
         style="color:#000000;font-style:normal;font-variant:normal;font-weight:normal;font-stretch:normal;font-size:medium;line-height:normal;font-family:'Abandoned Bitplane';-inkscape-font-specification:'Abandoned Bitplane';text-indent:0;text-align:start;text-decoration:none;text-decoration-line:none;letter-spacing:normal;word-spacing:normal;text-transform:none;writing-mode:lr-tb;direction:ltr;text-anchor:start;display:inline;overflow:visible;visibility:visible;opacity:0.07999998;fill:#000000;fill-opacity:1;stroke:none;stroke-width:4;marker:none;enable-background:accumulate"
         id="rect3222"
         inkscape:connector-curvature="0"
         d="m 19,13 c -3.289406,0 -6,2.710594 -6,6 v 58 c 0,3.289406 2.710594,6 6,6 h 58 c 3.289406,0 6,-2.710594 6,-6 V 19 c 0,-3.289406 -2.710594,-6 -6,-6 z m 0,4 h 58 c 1.142594,0 2,0.857406 2,2 v 58 c 0,1.142594 -0.857406,2 -2,2 H 19 c -1.142594,0 -2,-0.857406 -2,-2 V 19 c 0,-1.142594 0.857406,-2 2,-2 z" />
      <path
         style="color:#000000;display:inline;overflow:visible;visibility:visible;opacity:0.1;fill:#000000;fill-opacity:1;fill-rule:nonzero;stroke:none;stroke-width:1;marker:none;enable-background:accumulate"
         id="rect3981"
         inkscape:connector-curvature="0"
         d="m 17,14 c -1.662,0 -3,1.338 -3,3 v 62 c 0,1.662 1.338,3 3,3 h 62 c 1.662,0 3,-1.338 3,-3 V 17 c 0,-1.662 -1.338,-3 -3,-3 z m 0,1.9375 h 62 c 0.618163,0 1.0625,0.444337 1.0625,1.0625 v 62 c 0,0.618163 -0.444337,1.0625 -1.0625,1.0625 H 17 c -0.618163,0 -1.0625,-0.444337 -1.0625,-1.0625 V 17 c 0,-0.618163 0.444337,-1.0625 1.0625,-1.0625 z" />
      <path
         style="color:#000000;display:inline;overflow:visible;visibility:visible;opacity:0.25;fill:#000000;fill-opacity:1;fill-rule:nonzero;stroke:none;stroke-width:1;marker:none;enable-background:accumulate"
         id="rect3977"
         inkscape:connector-curvature="0"
         d="m 17,14 c -1.662,0 -3,1.338 -3,3 v 62 c 0,1.662 1.338,3 3,3 h 62 c 1.662,0 3,-1.338 3,-3 V 17 c 0,-1.662 -1.338,-3 -3,-3 z m 0,0.96875 h 62 c 1.140081,0 2.03125,0.891169 2.03125,2.03125 v 62 c 0,1.140081 -0.891169,2.03125 -2.03125,2.03125 H 17 c -1.140081,0 -2.03125,-0.891169 -2.03125,-2.03125 V 17 c 0,-1.140081 0.891169,-2.03125 2.03125,-2.03125 z" />
      <rect
         style="color:#000000;display:inline;overflow:visible;visibility:visible;opacity:0.5;fill:url(#linearGradient4359-1);fill-opacity:1;fill-rule:nonzero;stroke:none;stroke-width:2;marker:none;enable-background:accumulate"
         id="rect4347-2"
         y="76"
         x="20"
         ry="1"
         rx="1"
         height="4"
         width="10" />
      <rect
         style="color:#000000;display:inline;overflow:visible;visibility:visible;opacity:0.5;fill:url(#linearGradient4363-7);fill-opacity:1;fill-rule:nonzero;stroke:none;stroke-width:2;marker:none;enable-background:accumulate"
         id="rect4361-2"
         y="76"
         x="32"
         ry="1"
         rx="1"
         height="4"
         width="10" />
      <rect
         style="color:#000000;display:inline;overflow:visible;visibility:visible;opacity:0.5;fill:url(#linearGradient4367-9);fill-opacity:1;fill-rule:nonzero;stroke:none;stroke-width:2;marker:none;enable-background:accumulate"
         id="rect4365-6"
         y="76"
         x="44"
         ry="1"
         rx="1"
         height="4"
         width="10" />
      <path
         style="display:inline;opacity:0.07999998;fill:#000000;fill-opacity:1;stroke:none"
         id="path3573"
         inkscape:connector-curvature="0"
         d="m 21.53125,26.03125 c -1.373774,-0.02826 -2.631191,1.208064 -2.5625,2.59375 -0.675829,0.549922 -1.029062,1.408355 -0.9375,2.271734 0.01819,1.529132 -0.03825,3.061943 0.03183,4.588536 0.180873,1.320765 1.400205,2.363537 2.718175,2.42098 -1.57431,0.05001 -2.9137,1.533477 -2.75,3.11124 0.0096,2.1134 -0.01945,4.228036 0.01511,6.340638 0.124135,1.565193 1.661577,2.776398 3.207888,2.610622 2.03448,-0.0096 4.070203,0.01955 6.103884,-0.01511 1.567073,-0.124187 2.777863,-1.664534 2.610622,-3.212132 -0.0089,-2.090076 0.01801,-4.181273 -0.01394,-6.270628 -0.11313,-1.355131 -1.34017,-2.444279 -2.67356,-2.533384 0.763269,-0.03489 1.315995,-0.550068 1.880124,-1.014778 0.77369,-0.668938 0.8508,-1.71349 0.807376,-2.662691 -0.01583,-1.387095 0.03337,-2.777279 -0.02788,-4.162228 -0.09327,-1.13974 -1.250702,-1.614294 -1.690869,-2.535303 -0.627042,-0.542514 -1.061423,-0.747895 -1.941744,-0.78125 -0.519419,0 -1.038837,0 -1.558256,0 -0.56401,-0.703527 -1.49231,-0.798909 -2.329475,-0.75 -0.296425,0 -0.59285,0 -0.889275,0 z" />
      <path
         style="display:inline;opacity:0.15;fill:#000000;fill-opacity:1;stroke:none"
         id="path3569"
         transform="translate(0,2)"
         d="m 21.53125,25.09375 c -0.78187,0 -1.5,0.627756 -1.5,1.46875 v 0.375 0.09375 c -0.515623,0.329683 -0.9375,0.796932 -0.9375,1.4375 v 4.59375 c 0,0.992917 0.850833,1.84375 1.84375,1.84375 h 6.125 c 0.216405,0 0.412155,-0.06783 0.5625,-0.125 0.0099,-0.0038 0.02192,-0.02749 0.03125,-0.03125 0.008,-0.0029 0.0233,0.0031 0.03125,0 0.659244,-0.254093 1.21875,-0.891481 1.21875,-1.6875 v -4.59375 c 0,-0.779794 -0.546623,-1.39157 -1.1875,-1.65625 C 27.635608,26.648626 27.609486,26.421982 27.5,26.3125 27.354334,26.166834 27.20985,26.075293 27.03125,26 26.98781,25.98169 26.802632,25.84375 26.46875,25.84375 H 24.25 C 24.20675,25.76626 24.20344,25.725456 24.125,25.625 23.937744,25.385203 23.488338,25.09375 23.0625,25.09375 Z m -0.59375,11.8125 c -0.992917,0 -1.84375,0.850833 -1.84375,1.84375 v 6.3125 c 0,0.992917 0.850833,1.84375 1.84375,1.84375 h 0.15625 5.8125 0.15625 c 0.992917,0 1.84375,-0.850833 1.84375,-1.84375 V 38.75 c 0,-0.992917 -0.850833,-1.84375 -1.84375,-1.84375 z"
         inkscape:connector-curvature="0" />
      <g
         style="display:inline"
         id="g11096"
         transform="matrix(0.3809524,0,0,0.3809524,19.809524,39.619047)">
        <g
           style="display:inline"
           id="g11165">
          <rect
             style="display:inline;opacity:0.3;fill:url(#linearGradient10458-4);fill-opacity:1;stroke:none"
             id="rect11167"
             y="0.5"
             x="0.5"
             ry="2.5"
             rx="2.5"
             height="21.5"
             width="21" />
          <rect
             style="display:inline;opacity:0.5;fill:#000000;fill-opacity:1;stroke:none"
             id="rect11169"
             y="2"
             x="1"
             ry="2.3255813"
             rx="2.3809524"
             height="20"
             width="20" />
        </g>
        <rect
           style="display:inline;fill:url(#radialGradient10522-3);fill-opacity:1;fill-rule:evenodd;stroke:none"
           id="rect3344"
           y="1.689316"
           x="2.249861"
           height="12.137208"
           width="17.614883" />
        <path
           style="display:inline;fill:url(#linearGradient10519-4);fill-opacity:1;fill-rule:evenodd;stroke:none"
           id="path11172"
           inkscape:connector-curvature="0"
           d="M 3,1 C 1.892,1 1,1.892 1,3 v 16 c 0,1.108 0.892,2 2,2 h 16 c 1.108,0 2,-0.892 2,-2 V 3 C 21,1.892 20.108,1 19,1 Z m 8,1.5 c 4.14,0 7.5,1.346438 7.5,3 -1e-6,1.6535618 -3.359999,3 -7.5,3 -4.1400008,10e-8 -7.5,-1.346438 -7.5,-3 10e-8,-1.6535622 3.3599994,-3 7.5,-3 z" />
        <g
           style="display:inline"
           id="g4359"
           transform="translate(20)">
          <path
             style="opacity:0.6;fill:url(#linearGradient10464-5);fill-opacity:1;fill-rule:evenodd;stroke:none"
             id="rect7153"
             inkscape:connector-curvature="0"
             d="m -6.1875,1 v 1.75 c 1.2912865,0.210493 2.4042168,0.5572383 3.21875,1 V 1 Z m 3.21875,6.375 c -0.3332555,0.2441167 -0.7522506,0.4609324 -1.21875,0.65625 -0.5832201,0.2441869 -1.2533275,0.4415388 -2,0.59375 v 12.3125 h 3.21875 z" />
          <path
             style="opacity:0.3;fill:url(#linearGradient10466-1);fill-opacity:1;fill-rule:evenodd;stroke:none"
             id="rect7163"
             inkscape:connector-curvature="0"
             d="m -10.96875,1 v 1.625 c 0.426402,-0.046882 0.859381,-0.077656 1.3125,-0.09375 V 1 Z m 0,7.875 v 12.0625 h 1.3125 v -12 c -0.444082,-0.0059 -0.891275,-0.02527 -1.3125,-0.0625 z" />
          <path
             style="opacity:0.4;fill:url(#linearGradient10468-7);fill-opacity:1;fill-rule:evenodd;stroke:none"
             id="rect7167"
             inkscape:connector-curvature="0"
             d="m -16.8125,1 v 4.375 c 0.08904,-0.3066068 0.262806,-0.6087707 0.53125,-0.875 0.271395,-0.2691566 0.609534,-0.5284564 1.03125,-0.75 V 1 Z m 0,5.15625 V 20.9375 H -15.25 V 7.75 c -0.421711,-0.2216276 -0.75984,-0.4499853 -1.03125,-0.71875 -0.268459,-0.2658419 -0.442216,-0.5700177 -0.53125,-0.875 z" />
          <path
             style="opacity:0.15;fill:url(#linearGradient10470-5);fill-opacity:1;fill-rule:evenodd;stroke:none"
             id="rect7171"
             inkscape:connector-curvature="0"
             d="m -15.28125,1 v 2.875 c 0.993486,-0.6073915 2.546169,-1.0557156 4.34375,-1.25 V 1 Z m 0,6.125 v 13.8125 h 4.34375 V 8.375 c -1.807035,-0.1953062 -3.350725,-0.6378032 -4.34375,-1.25 z" />
          <path
             style="opacity:0.1;fill:url(#linearGradient10472-8);fill-opacity:1;fill-rule:evenodd;stroke:none"
             id="rect7185"
             inkscape:connector-curvature="0"
             d="M -9.71875,1.0625 V 2.53125 C -9.4769144,2.521841 -9.2479875,2.5 -9,2.5 c 0.9882971,0 1.9169502,0.079814 2.78125,0.21875 V 1.0625 Z m 3.5,7.21875 C -7.0830498,8.4201865 -8.0117029,8.5 -9,8.5 -9.2479875,8.5 -9.4769144,8.478159 -9.71875,8.46875 V 21 h 3.5 z" />
          <rect
             style="opacity:0.4;fill:url(#linearGradient10474-5);fill-opacity:1;fill-rule:evenodd;stroke:none"
             id="rect7189"
             y="1.0000038"
             x="-1.6620901"
             height="19.940283"
             width="0.64131582" />
          <path
             style="opacity:0.1;fill:url(#linearGradient10476-9);fill-opacity:1;fill-rule:evenodd;stroke:none"
             id="rect7193"
             inkscape:connector-curvature="0"
             d="m -3,1.0625 v 2.65625 c 0.5986128,0.3200586 1.0407103,0.6931375 1.28125,1.09375 v -3.75 z m 1.28125,5.125 C -1.957117,6.5888261 -2.402445,6.960419 -3,7.28125 V 21 h 1.28125 z" />
          <rect
             style="opacity:0.4;fill:url(#linearGradient10478-7);fill-opacity:1;fill-rule:evenodd;stroke:none"
             id="rect7197"
             y="1.0000038"
             x="-17.645844"
             height="19.940283"
             width="0.4024671" />
        </g>
        <path
           style="display:inline;opacity:0.15;fill:#000000;fill-opacity:1;fill-rule:evenodd;stroke:none"
           id="path11183"
           inkscape:connector-curvature="0"
           d="M 2.9999999,20.999999 C 1.8919999,20.999999 0.99999993,20.108 0.99999993,19 v -1 c 0,1.108 0.89199997,2 1.99999997,2 H 19 c 1.108,0 2,-0.892 2,-2 v 1 c 0,1.108 -0.892,1.999999 -2,1.999999 z" />
        <path
           style="display:inline;opacity:0.25;fill:#ffffff;fill-opacity:1;fill-rule:evenodd;stroke:none"
           id="path11185"
           inkscape:connector-curvature="0"
           d="m 2.9999999,0.99999982 c -1.108,0 -1.99999997,0.89199998 -1.99999997,1.99999998 v 1 c 0,-1.108 0.89199997,-2 1.99999997,-2 H 19 c 1.108,0 2,0.892 2,2 v -1 c 0,-1.108 -0.892,-1.99999998 -2,-1.99999998 z" />
        <path
           style="display:inline;fill:none;stroke:url(#linearGradient10482-5);stroke-width:7.09971094;stroke-linecap:round;stroke-linejoin:round;stroke-miterlimit:4;stroke-dasharray:none;stroke-dashoffset:0;stroke-opacity:1"
           id="path7095"
           transform="matrix(0.1852882,0,0,0.1844461,-0.666667,-0.1311844)"
           d="m 103.44247,30.55419 a 40.477489,16.240969 0 1 1 -80.954975,0 40.477489,16.240969 0 1 1 80.954975,0 z"
           inkscape:connector-curvature="0" />
        <g
           style="display:inline"
           id="g3350"
           transform="matrix(0.1803837,0,0,0.1803837,-0.5441398,-1.4184362)">
          <path
             style="display:inline;fill:url(#linearGradient10484-3);fill-opacity:1;stroke:none"
             id="path3292"
             inkscape:connector-curvature="0"
             d="m 66.740086,106.88012 6.331728,-11.357102 0.0301,4.153571 13.32572,-0.03009 c 2.381109,-0.252345 4.468715,-1.220077 5.98052,-3.03994 -4.82499,9.868301 -6.214719,16.850851 -16.225668,16.855071 h -3.080572 l -0.0301,4.61507 z" />
          <path
             style="display:inline;fill:url(#linearGradient10486-6);fill-opacity:1;stroke:none"
             id="path3290"
             inkscape:connector-curvature="0"
             d="M 81.240116,97.921419 75.359939,87.086023 87.240708,79.892529 92.99042,91.410143 c 0.174089,2.756344 -4.276917,6.591993 -7.039556,6.562155 z" />
          <path
             style="display:inline;fill:url(#linearGradient10488-3);fill-opacity:1;stroke:none"
             id="path3288"
             inkscape:connector-curvature="0"
             d="m 45.109433,73.919728 6.070024,-9.095652 c 5.887367,-2.192329 9.297705,2.540579 11.45008,5.523983 L 56.90992,81.323911 Z" />
          <path
             style="display:inline;fill:url(#linearGradient10490-8);fill-opacity:1;stroke:none"
             id="path3286"
             inkscape:connector-curvature="0"
             d="M 69.091143,78.447225 C 67.870278,75.569484 66.239058,72.277738 64.199221,69.415642 62.37298,66.853249 60.166412,64.617611 58.494792,63.618783 l 15.352678,-0.03009 c 2.757154,0.247485 4.096834,1.8546 5.559059,4.053238 l 2.207565,3.882684 3.411713,-2.177108 -6.422024,11.437374 -13.84751,0.03009 4.33487,-2.367748 z" />
          <path
             style="display:inline;fill:url(#linearGradient10492-6);fill-opacity:1;stroke:none"
             id="path3284"
             inkscape:connector-curvature="0"
             d="m 47.846903,82.693623 7.342774,10.731394 -3.73163,-1.825529 -5.916252,11.938462 c -0.836067,2.24336 -0.900829,4.54314 0.05403,6.70769 -6.682019,-8.71903 -12.312877,-13.076862 -7.851823,-22.037427 l 1.373917,-2.756768 -4.117916,-2.085235 12.846904,-0.672587 z" />
          <path
             style="display:inline;fill:url(#linearGradient10494-8);fill-opacity:1;stroke:none"
             id="path4068"
             inkscape:connector-curvature="0"
             d="m 49.529355,99.666566 13.538353,-0.429582 -0.07542,13.840216 -12.87471,0.009 c -2.545077,-1.07352 -3.993562,-6.76734 -2.734733,-9.22628 l 2.146512,-4.192914 z" />
        </g>
      </g>
      <g
         style="display:inline"
         id="g2863"
         transform="matrix(0.3809524,0,0,0.3809524,19.809524,27.619047)">
        <g
           style="display:inline"
           id="g3180"
           transform="translate(0,1)">
          <rect
             style="opacity:0.2;fill:#000000;fill-opacity:1;fill-rule:nonzero;stroke:none"
             id="rect3178"
             y="4"
             x="0.5"
             ry="2.5"
             rx="2.5"
             height="17"
             width="21" />
          <rect
             style="opacity:0.4;fill:#000000;fill-opacity:1;fill-rule:nonzero;stroke:none"
             id="rect5478"
             y="5"
             x="1"
             ry="2"
             rx="2"
             height="16"
             width="20" />
        </g>
        <path
           style="display:inline;fill:url(#linearGradient4266-5);fill-opacity:1;fill-rule:nonzero;stroke:none"
           id="rect2859"
           inkscape:connector-curvature="0"
           d="M 4.5,1 C 3.669,1 3,1.669 3,2.5 v 2 3 C 3,8.331 3.669,9 4.5,9 h 4 9 C 18.331,9 19,8.331 19,7.5 v -3 C 19,3.669 18.331,3 17.5,3 H 10.265165 L 10,2.5 C 9.6106588,1.7658512 9.331,1 8.5,1 Z" />
        <path
           style="display:inline;opacity:0.2;fill:#ffffff;fill-opacity:1;fill-rule:nonzero;stroke:none"
           id="path3648"
           inkscape:connector-curvature="0"
           d="M 4.5,1 C 3.669,1 3,1.669 3,2.5 v 1 C 3,2.669 3.669,2 4.5,2 h 4 C 9.331,2 9.6106588,2.7658512 10,3.5 L 10.25,4 H 17.5 C 18.331,4 19,4.669 19,5.5 v -1 C 19,3.669 18.331,3 17.5,3 H 10.25 L 10,2.5 C 9.6106588,1.7658512 9.331,1 8.5,1 Z" />
        <rect
           style="display:inline;fill:url(#linearGradient4268-8);fill-opacity:1;fill-rule:nonzero;stroke:none"
           id="rect3352"
           y="6.2580805"
           x="2.6499383"
           ry="1.3171579"
           rx="1.3171579"
           height="13.759596"
           width="16.464474" />
        <path
           style="display:inline;fill:#835c1d;fill-opacity:1;stroke:none"
           id="path2788"
           inkscape:connector-curvature="0"
           d="M 11,8 5,14.03125 H 6.96875 V 18 H 15 v -4 h 2.0625 L 14.03125,10.96875 V 9 H 13 v 1 z m 0,1 1.5,1.5 c 0.218298,0.232163 0.567517,0.283899 0.84375,0.125 v 0.34375 c -0.0074,0.185121 0.06019,0.365402 0.1875,0.5 L 15.375,13.3125 H 15 c -0.37968,3.8e-5 -0.687462,0.30782 -0.6875,0.6875 v 3.3125 H 7.65625 v -3.28125 c -3.8e-5,-0.37968 -0.30782,-0.687462 -0.6875,-0.6875 H 6.6875 Z" />
        <rect
           style="display:inline;opacity:0.15;fill:#ffffff;fill-opacity:1;stroke:none;filter:url(#filter3342)"
           id="rect4260"
           transform="matrix(0.8817734,0,0,0.8817734,0.2383988,7.2540541)"
           y="1.9800392"
           x="2"
           ry="2"
           rx="2"
           height="8.9714174"
           width="17.975767" />
        <path
           style="fill:url(#linearGradient4270-1);fill-opacity:1;fill-rule:nonzero;stroke:none"
           id="rect3660"
           inkscape:connector-curvature="0"
           d="M 3,5 C 1.892,5 1,5.892 1,7 v 12 c 0,1.108 0.892,2 2,2 h 16 c 1.108,0 2,-0.892 2,-2 V 7 C 21,5.892 20.108,5 19,5 Z m 8,3 2,2 V 9 h 1.03125 v 1.96875 L 17.0625,14 H 15 v 4 H 6.96875 V 14.03125 H 5 Z" />
        <path
           style="fill:#ead7b4;fill-opacity:1;fill-rule:nonzero;stroke:none"
           id="rect3670"
           inkscape:connector-curvature="0"
           d="M 3,5 C 1.892,5 1,5.892 1,7 V 8 C 1,6.892 1.892,6 3,6 h 16 c 1.108,0 2,0.892 2,2 V 7 C 21,5.892 20.108,5 19,5 Z" />
        <path
           style="fill:#b07c28;fill-opacity:1;fill-rule:nonzero;stroke:none"
           id="path3675"
           inkscape:connector-curvature="0"
           d="M 3,21 C 1.892,21 1,20.108 1,19 v -1 c 0,1.108 0.892,2 2,2 h 16 c 1.108,0 2,-0.892 2,-2 v 1 c 0,1.108 -0.892,2 -2,2 z" />
        <path
           style="display:inline;opacity:0.5;fill:#ead7b4;fill-opacity:1;stroke:none"
           id="path3582"
           inkscape:connector-curvature="0"
           d="M 10.875,7.03125 C 10.661522,7.060104 10.46367,7.15903 10.3125,7.3125 l -6,6.03125 C 4.0370347,13.622173 3.943595,14.044513 4.09375,14.40625 4.2439049,14.767987 4.6083395,14.998498 5,15 h 1 v 3 c 0.00198,0.534202 0.4345484,0.966765 0.96875,0.96875 H 15 C 15.534202,18.96675 15.966765,18.534202 15.96875,18 v -3.03125 h 1.09375 c 0.391661,-0.0015 0.756095,-0.232013 0.90625,-0.59375 0.150155,-0.361737 0.05672,-0.784077 -0.21875,-1.0625 L 15,10.5625 V 9 C 14.998,8.4657984 14.565452,8.0332346 14.03125,8.03125 H 13 c -0.164301,0.00139 -0.325571,0.044399 -0.46875,0.125 L 11.6875,7.3125 C 11.475078,7.0975983 11.174822,6.9936634 10.875,7.03125 Z M 11,8 13,10 V 9 h 1.03125 v 1.96875 L 17.0625,14 H 15 v 4 H 6.96875 V 14.03125 H 5 Z" />
      </g>
    </g>
    <path
       d="m 44.84375,8.0625 1.34375,3.875 H 78 79 c 2.753976,0 5.0625,2.308526 5.0625,5.0625 v 1 60 1 c 2e-6,2.753977 -2.308526,5.0625 -5.0625,5.0625 h -1 -6.875 l 1.34375,3.875 H 84 c 2.221843,0 3.9375,-1.715657 3.9375,-3.9375 V 12 C 87.9375,9.7781575 86.221843,8.0625 84,8.0625 Z"
       inkscape:connector-curvature="0"
       id="path3660"
       style="opacity:0.32512315;fill:url(#linearGradient3693);fill-opacity:1;fill-rule:evenodd;stroke:none" />
    <path
       d="m 66,30 c -44,44 -22,22 0,0 z m 3.84375,15.0625 C 66.723426,45.047828 62.660393,45.217147 57.8125,45.5 l 11.875,34.375 H 79 c 0.538805,0 0.875,-0.336196 0.875,-0.875 V 46.5625 c -1.741018,-1.001538 -4.789896,-1.475354 -10.03125,-1.5 z"
       inkscape:connector-curvature="0"
       id="path3664"
       style="opacity:0.56896554;fill:url(#linearGradient3701);fill-opacity:1;fill-rule:evenodd;stroke:none" />
    <path
       d="m 47.65625,16.125 1.0625,3.03125 C 48.434066,17.846628 48.085853,16.852144 47.6875,16.125 Z m 11.125,29.3125 C 58.489367,45.45388 58.111608,45.48255 57.8125,45.5 l 11.875,34.375 h 1 z"
       inkscape:connector-curvature="0"
       id="path2669"
       style="opacity:0.40640396;fill:url(#linearGradient2675);fill-opacity:1;fill-rule:evenodd;stroke:none" />
    <g
       style="display:inline"
       id="layer6">
      <path
         style="display:inline;opacity:0.05;fill:url(#linearGradient4252);fill-opacity:1;stroke:none;enable-background:new"
         id="path4250"
         inkscape:connector-curvature="0"
         d="m 40.15625,14 c -0.0024,0.01001 3.2e-5,0.03116 0,0.03125 -0.01981,0.05795 -0.02351,0.0081 -0.03125,0.03125 -0.0077,0.02318 -0.03079,0.09215 -0.03125,0.09375 l -0.03125,0.125 c -1.3e-5,9e-5 0.0011,0.05037 0,0.0625 -0.0022,0.02426 4.49e-4,0.05297 0,0.0625 -8.98e-4,0.01907 1.15e-4,0.02415 0,0.03125 -2.29e-4,0.0142 -1.4e-5,0.02389 0,0.03125 -0.0015,0.01979 2.62e-4,0.02404 0,0.03125 1.08e-4,0.01161 -1.6e-5,0.02738 0,0.03125 -0.0037,0.02964 -0.03075,0.05413 -0.03125,0.0625 -0.0019,0.0097 -3e-6,0.03127 0,0.03125 -3.96e-4,0.01267 5.7e-5,0.02615 0,0.03125 -1.13e-4,0.01021 -5e-6,0.02491 0,0.03125 C 40.02635,14.718 40,14.74996 40,14.75 c -1.4e-4,0.0017 -5.1e-5,0.133044 0,0.15625 -5.8e-5,0.0017 -9e-6,0.07054 0,0.09375 9e-6,0.02321 -0.0017,-0.089 0,0.03125 -0.0022,-0.149569 3.3e-5,0.008 0,0.03125 -3.3e-5,0.02321 -1.06e-4,0.123339 0,0.125 -1.4e-5,0.0058 -10e-7,0.02565 0,0.03125 10e-7,0.0112 -9.3e-5,0.124173 0,0.125 6e-6,5.5e-5 0.02488,0.0275 0.03125,0.0625 7.2e-5,0.0057 -5.21e-4,0.01672 0,0.03125 0.0025,0.01279 -0.0011,0.02719 0,0.03125 0.0045,0.01727 -0.002,0.02454 0,0.03125 0.004,0.01343 0.02956,0.02598 0.03125,0.03125 0.0034,0.01053 -0.0021,0.02486 0,0.03125 0.003,0.0127 -6.87e-4,0.02901 0,0.03125 0.0011,0.0074 -4e-6,0.03123 0,0.03125 1.74e-4,8.14e-4 0.02761,0.114079 0.03125,0.125 0.0036,0.01092 -0.0039,0.01967 0,0.03125 0.0075,0.02441 0.02532,0.07602 0.03125,0.09375 0.0039,0.01159 0.01904,0.04077 0.03125,0.0625 9.92e-4,0.009 0.0026,0.03155 0,0.03125 0.0077,0.02319 0.03067,0.06094 0.03125,0.0625 5.83e-4,0.0016 -0.0077,0.008 0,0.03125 0.0038,0.0116 0.02063,0.03352 0.03125,0.0625 -0.0076,-0.02322 0.03191,0.06403 0.03125,0.0625 0.0013,0.0038 -0.0031,0.02252 0,0.03125 0.0031,0.0087 0.03116,0.09356 0.03125,0.09375 9.2e-5,1.87e-4 0.05792,0.08658 0.0625,0.09375 0.0046,0.0072 -0.0022,0.02798 0,0.03125 0.0043,0.0066 0.02768,-0.0054 0.03125,0 1.2e-5,2.1e-5 0.02359,0.01971 0.03125,0.03125 0.0033,0.0087 0.02166,0.04047 0.03125,0.0625 0.0048,0.01102 -4.2e-5,0.03117 0,0.03125 1.2e-5,2.3e-5 0.02321,0.01763 0.03125,0.03125 0.0158,0.01915 0.02461,0.02392 0.03125,0.03125 0.01327,0.01466 0.02615,0.02597 0.03125,0.03125 0.0031,0.0052 -5e-6,0.03124 0,0.03125 0.0019,0.0027 0.09173,0.122355 0.09375,0.125 2.53e-4,3.31e-4 0.05666,0.08781 0.0625,0.09375 0.0029,0.003 0.02909,-0.0022 0.03125,0 0.0042,0.0064 -0.0077,0.01963 0,0.03125 0.008,0.008 0.02347,0.02354 0.03125,0.03125 0.004,0.0059 0.02527,0.02249 0.03125,0.03125 0.0081,0.0085 -0.0036,0.02768 0,0.03125 0.0031,0.0037 0.03126,1.3e-5 0.03125,0 0.01038,0.01368 0.09367,0.124927 0.09375,0.125 7.5e-5,7.3e-5 0.08182,0.08485 0.09375,0.09375 0.0039,0.0039 0.02742,-0.0038 0.03125,0 0.0026,0.0026 0.01741,0.01874 0.03125,0.03125 0.01148,0.0076 0.01963,0.02359 0.03125,0.03125 0.0065,0.0059 0.02718,-0.0036 0.03125,0 0.0024,0.0024 -0.0034,0.0279 0,0.03125 0.0085,0.008 0.09358,0.09363 0.09375,0.09375 l 0.125,0.0625 c 3.3e-5,1.7e-5 0.023,-0.004 0.03125,0 0.0086,0.0057 0.01968,0.02352 0.03125,0.03125 0.02357,0.01044 0.05324,0.02766 0.0625,0.03125 0.01537,0.0098 0.0307,0.03093 0.03125,0.03125 8.64e-4,5.01e-4 -4.93e-4,-0.01643 0.03125,0 0.005,0.0016 0.0266,-0.0015 0.03125,0 0.01155,0.0078 0.02011,0.02382 0.03125,0.03125 0.0056,0.0037 -0.0074,0.02641 0,0.03125 0.0037,0.0024 0.02267,-0.0054 0.03125,0 0.0086,0.0054 0.124811,0.06241 0.125,0.0625 7.57e-4,3.45e-4 0.08293,0.02764 0.09375,0.03125 0.01082,0.0036 0.01964,0.02742 0.03125,0.03125 0.0031,0.0012 0.327544,0.08982 0.15625,0.03125 0.05795,0.01981 0.0081,0.02351 0.03125,0.03125 0.02318,0.0077 0.09215,0.03079 0.09375,0.03125 0.02317,0.0078 0.15463,0.03087 0.15625,0.03125 0.005,0.0017 0.02546,-0.002 0.03125,0 0.01623,0.0027 0.03492,-0.0044 0.0625,0 0.01655,0.0026 0.01868,0.02943 0.03125,0.03125 0.01047,0.0015 0.0274,-2.93e-4 0.03125,0 0.02003,0.0015 0.02331,-3.11e-4 0.03125,0 0.01356,0.0017 0.02006,-0.0013 0.03125,0 0.03151,0.0062 0.06244,0.03124 0.0625,0.03125 4.12e-4,5.5e-5 0.116817,-7e-5 0.125,0 0.0017,1.39e-4 0.133044,5.1e-5 0.15625,0 0.0017,5.8e-5 0.07054,9e-6 0.09375,0 0.02321,-9e-6 -0.089,0.0017 0.03125,0 1.191255,-0.0064 1.834328,0.221026 1.78125,0.1875 0.07062,0.04461 0.100443,0.05103 0.25,0.3125 0.149557,0.261465 0.370391,0.768175 0.59375,1.625 0.875022,3.356653 1.40625,11.447245 1.40625,26.90625 -1.16e-4,0.0331 -1.63e-4,0.152825 0,0.15625 9.03e-4,0.03257 -9.87e-4,0.06893 0,0.09375 -5.4e-5,0.01544 3e-6,0.01709 0,0.03125 -10e-7,0.0071 -6.3e-5,0.0228 0,0.03125 3.1e-5,0.0042 -1.91e-4,0.02208 0,0.03125 1.91e-4,0.0092 -3.2e-5,0.124788 0,0.125 3.2e-5,2.12e-4 0.02782,0.113622 0.03125,0.125 0.0017,0.0057 0.03022,-0.0033 0.03125,0 10e-4,0.0033 -7.5e-4,0.02892 0,0.03125 1.69e-4,0.0058 -5.45e-4,0.02078 0,0.03125 5.45e-4,0.01047 -2.6e-5,0.03099 0,0.03125 8e-6,7.9e-5 0.02611,0.0374 0.03125,0.0625 0.0037,0.01118 -0.0039,0.01966 0,0.03125 0.01122,0.05483 0.03123,0.124942 0.03125,0.125 0.0246,0.07871 -0.003,0.02209 0,0.03125 0.003,0.0092 -0.0039,0.01965 0,0.03125 0.0077,0.0232 0.03066,0.06089 0.03125,0.0625 3.7e-5,1.01e-4 0.05297,0.139556 0.0625,0.15625 0.0048,0.0083 0.02841,-0.0047 0.03125,0 0.0028,0.0047 -0.0019,0.02813 0,0.03125 0.0077,0.01248 -0.0032,0.02638 0,0.03125 0.0019,0.0044 0.02919,-0.0049 0.03125,0 0.0016,0.0049 -0.0017,0.02627 0,0.03125 0.0052,0.01218 -2.8e-5,0.03119 0,0.03125 0.0022,0.006 -0.006,0.01641 0,0.03125 0.006,0.01484 0.06245,0.09366 0.0625,0.09375 8.33e-4,0.0015 0.04702,0.101862 0.0625,0.125 0.01548,0.02314 0.03034,0.0298 0.03125,0.03125 5.7e-5,9.1e-5 0.08056,0.109529 0.09375,0.125 0.01319,0.01547 0.02567,0.02518 0.03125,0.03125 0.0038,0.0055 0.02726,-0.0058 0.03125,0 0.0029,0.0029 -0.0024,0.02885 0,0.03125 0.0063,0.0092 -0.0049,0.02415 0,0.03125 0.0038,0.0058 0.02745,-0.0057 0.03125,0 0.0035,0.0051 -3.09e-4,0.03085 0,0.03125 0.0035,0.0053 -0.0043,0.02492 0,0.03125 0.0043,0.0063 0.09347,0.09343 0.09375,0.09375 0.0011,0.0013 0.04697,0.07828 0.0625,0.09375 0.01553,0.01547 0.03007,-0.0012 0.03125,0 0.0024,0.0025 0.09126,0.09139 0.09375,0.09375 7.8e-5,7.4e-5 0.08254,0.08543 0.09375,0.09375 0.004,0.004 0.02724,-0.004 0.03125,0 0.004,0.004 0.02529,0.0254 0.03125,0.03125 0.01135,0.0076 0.01963,0.02358 0.03125,0.03125 0.02699,0.02353 0.06229,0.03109 0.0625,0.03125 0.002,0.0015 0.05503,0.036 0.09375,0.0625 0.0057,0.0052 0.01563,0.01791 0.03125,0.03125 0.0052,0.0053 0.02037,0.02075 0.03125,0.03125 0.0054,0.0052 0.01615,0.01763 0.03125,0.03125 0.0075,0.0068 0.01169,0.0152 0.03125,0.03125 0.01159,0.0076 0.03067,-3.6e-4 0.03125,0 0.0406,0.02862 0.12492,0.09371 0.125,0.09375 2.2e-5,1.2e-5 0.02322,-0.0039 0.03125,0 0.02678,0.0129 0.05137,0.05805 0.0625,0.0625 0.0079,0.0044 0.03129,2.2e-5 0.03125,0 0.0051,0.0032 0.01795,-0.0078 0.03125,0 0.0091,0.0038 0.01848,-0.0053 0.03125,0 0.0073,0.0024 0.02428,0.02897 0.03125,0.03125 0.02782,0.01387 0.06245,0.03123 0.0625,0.03125 0.0016,6.68e-4 0.07053,0.05481 0.09375,0.0625 0.02322,0.0077 0.02964,-5.87e-4 0.03125,0 0.0032,0.0012 0.152973,0.03024 0.15625,0.03125 0.0016,5.04e-4 -0.02319,0.02347 0,0.03125 0.02319,0.0078 0.123338,0.03083 0.125,0.03125 5.2e-5,1.3e-5 0.124893,0.03124 0.125,0.03125 1.07e-4,1.2e-5 0.05281,-6.56e-4 0.0625,0 0.0055,0.0016 0.02989,-0.0072 0.0625,0 0.03669,0.0081 0.06239,0.03123 0.0625,0.03125 2.12e-4,3.1e-5 0.114567,-2.7e-4 0.125,0 0.01043,2.7e-4 0.02683,-4.2e-5 0.03125,0 0.0052,0.0015 0.02276,-0.0023 0.03125,0 0.008,3e-4 0.01904,-4.29e-4 0.03125,0 1.33e-4,2.9e-5 0.06241,0.03124 0.0625,0.03125 9.4e-5,1.5e-5 0.156196,0 0.15625,0 5.4e-5,0 0.124891,1.5e-5 0.125,0 1.09e-4,-1.5e-5 0.05346,-0.02959 0.0625,-0.03125 0.02601,-0.0019 0.03653,0.0019 0.0625,0 13.904238,-0.991686 21.957574,-1.194572 25.75,-0.5625 1.902251,0.317042 2.625684,0.864945 2.71875,0.96875 0.184899,0.206233 0.3125,0.432914 0.3125,1.625 a 0.99688705,0.99688705 0 0 0 0,0.03125 c -5.9e-5,-0.0034 3.85e-4,0.159629 0,0.15625 -3.85e-4,-0.0034 0.03196,0.190827 0.03125,0.1875 -7.07e-4,-0.0033 0.06352,0.190744 0.0625,0.1875 -0.001,-0.0032 0.06383,0.159381 0.0625,0.15625 -0.0013,-0.0031 0.06412,0.159239 0.0625,0.15625 -0.0016,-0.003 0.09565,0.15907 0.09375,0.15625 -0.0019,-0.0028 0.127163,0.158875 0.125,0.15625 -0.0022,-0.0026 0.127405,0.127405 0.125,0.125 -0.0024,-0.0024 0.127625,0.127163 0.125,0.125 -0.0026,-0.0022 0.15907,0.126902 0.15625,0.125 -0.0028,-0.0019 0.159239,0.09537 0.15625,0.09375 -0.003,-0.0016 0.159381,0.06383 0.15625,0.0625 -0.0031,-0.0013 0.159494,0.06352 0.15625,0.0625 -0.0032,-10e-4 0.190827,0.06321 0.1875,0.0625 -0.0033,-7.07e-4 0.190879,0.03164 0.1875,0.03125 -0.0034,-3.85e-4 0.159651,5.9e-5 0.15625,0 a 0.99688705,0.99688705 0 0 0 0.03125,0 H 82 V 42.25 C 81.80257,42.034232 81.590512,41.817343 81.375,41.59375 78.922555,39.049346 74.964078,35.631834 68.0625,28.875 61.153558,22.110957 57.477131,18.138687 54.65625,15.625 53.955508,15.000569 53.270075,14.459223 52.59375,14 Z" />
      <path
         style="display:inline;opacity:0.1;fill:url(#linearGradient4235);fill-opacity:1;stroke:none;enable-background:new"
         id="path4225"
         inkscape:connector-curvature="0"
         d="m 41.28125,14 c -0.0017,0.0029 -0.06097,0.09079 -0.0625,0.09375 -0.0015,0.003 -0.02987,0.09072 -0.03125,0.09375 -0.0014,0.003 -0.06127,0.09066 -0.0625,0.09375 -0.0012,0.0031 -0.03017,0.05935 -0.03125,0.0625 -0.0011,0.0031 -0.03033,0.09055 -0.03125,0.09375 -9.21e-4,0.0032 7.63e-4,0.09051 0,0.09375 -7.63e-4,0.0032 -0.03065,0.121726 -0.03125,0.125 -6.03e-4,0.0033 4.41e-4,0.09045 0,0.09375 -4.41e-4,0.0033 -0.03097,0.09043 -0.03125,0.09375 -2.79e-4,0.0033 1.16e-4,0.09042 0,0.09375 -1.16e-4,0.0033 -4.8e-5,0.09042 0,0.09375 4.8e-5,0.0033 -2.11e-4,0.09043 0,0.09375 2.11e-4,0.0033 -3.74e-4,0.09044 0,0.09375 3.74e-4,0.0033 0.03072,0.09047 0.03125,0.09375 5.35e-4,0.0033 -6.96e-4,0.0905 0,0.09375 6.96e-4,0.0033 0.03039,0.09053 0.03125,0.09375 8.55e-4,0.0032 0.03024,0.09058 0.03125,0.09375 10e-4,0.0032 0.03008,0.09063 0.03125,0.09375 0.0012,0.0031 0.02993,0.09069 0.03125,0.09375 0.0013,0.0031 0.02978,0.09076 0.03125,0.09375 0.0015,0.003 0.06089,0.09084 0.0625,0.09375 0.0016,0.0029 0.06075,0.05967 0.0625,0.0625 0.0018,0.0028 0.02936,0.09101 0.03125,0.09375 0.0019,0.0027 0.06048,0.0911 0.0625,0.09375 0.002,0.0026 0.06035,0.05996 0.0625,0.0625 0.0021,0.0025 0.06023,0.06007 0.0625,0.0625 0.0023,0.0024 0.06011,0.09143 0.0625,0.09375 0.0024,0.0023 0.09125,0.0603 0.09375,0.0625 0.0025,0.0022 0.0599,0.06042 0.0625,0.0625 0.0026,0.0021 0.0598,0.06056 0.0625,0.0625 0.0027,0.0019 0.09096,0.02944 0.09375,0.03125 0.0028,0.0018 0.09087,0.06083 0.09375,0.0625 0.0029,0.0017 0.05954,0.02972 0.0625,0.03125 0.003,0.0015 0.09072,0.06112 0.09375,0.0625 0.003,0.0014 0.09066,0.03002 0.09375,0.03125 0.0031,0.0012 0.0906,0.03017 0.09375,0.03125 0.0031,0.0011 0.09055,0.03033 0.09375,0.03125 0.0032,9.21e-4 0.09051,0.03049 0.09375,0.03125 0.0032,7.63e-4 0.09048,-6.03e-4 0.09375,0 0.0033,6.03e-4 0.09045,0.03081 0.09375,0.03125 0.0033,4.41e-4 0.09043,-2.79e-4 0.09375,0 0.0033,2.79e-4 0.09042,-1.16e-4 0.09375,0 0.0033,1.16e-4 0.09042,4.8e-5 0.09375,0 1.268872,-0.0068 1.985989,0.137513 2.3125,0.34375 0.364657,0.230331 0.807189,0.712712 1.28125,2.53125 0.9446,3.62356 1.4375,11.676086 1.4375,27.15625 -1.2e-5,0.0034 -1.63e-4,0.09032 0,0.09375 1.63e-4,0.0034 -3.38e-4,0.09034 0,0.09375 3.38e-4,0.0034 -5.11e-4,0.12161 0,0.125 5.11e-4,0.0034 0.03057,0.09039 0.03125,0.09375 6.84e-4,0.0034 0.0304,0.09043 0.03125,0.09375 8.54e-4,0.0033 -10e-4,0.09048 0,0.09375 10e-4,0.0033 0.03006,0.09053 0.03125,0.09375 0.0012,0.0032 0.06115,0.0906 0.0625,0.09375 0.0014,0.0032 0.02974,0.09067 0.03125,0.09375 0.0015,0.0031 0.02958,0.09075 0.03125,0.09375 0.0017,0.003 0.06068,0.09084 0.0625,0.09375 0.0018,0.0029 0.06054,0.05969 0.0625,0.0625 0.002,0.0028 0.0604,0.09104 0.0625,0.09375 0.0021,0.0027 0.06026,0.09115 0.0625,0.09375 0.0022,0.0026 0.06013,0.06002 0.0625,0.0625 0.0024,0.0025 0.06001,0.06014 0.0625,0.0625 0.0025,0.0024 0.09114,0.06027 0.09375,0.0625 0.0026,0.0022 0.05978,0.06041 0.0625,0.0625 0.0027,0.0021 0.09093,0.06055 0.09375,0.0625 0.0028,0.0019 0.09083,0.0607 0.09375,0.0625 0.0029,0.0018 0.05949,0.06085 0.0625,0.0625 0.003,0.0017 0.09067,0.02975 0.09375,0.03125 0.0031,0.0015 0.09059,0.06116 0.09375,0.0625 0.0032,0.0013 0.09053,0.03008 0.09375,0.03125 0.0032,0.0012 0.09047,0.03024 0.09375,0.03125 0.0033,10e-4 0.09043,0.03041 0.09375,0.03125 0.0033,8.39e-4 0.121637,-6.69e-4 0.125,0 0.0034,6.69e-4 0.09036,0.03075 0.09375,0.03125 0.0034,4.96e-4 0.09034,-3.22e-4 0.09375,0 0.0034,3.22e-4 0.09032,-1.48e-4 0.09375,0 0.0034,1.48e-4 0.09032,0.03128 0.09375,0.03125 0.0034,-2.7e-5 0.121577,-0.03105 0.125,-0.03125 13.969477,-0.997819 21.988226,-1.205088 26.03125,-0.53125 2.023716,0.337286 2.950177,0.877121 3.3125,1.28125 0.376863,0.420347 0.5625,0.993378 0.5625,2.28125 a 0.89051413,0.89051413 0 0 0 0.875,0.875 H 82 V 43.8125 C 81.609061,43.325018 81.172609,42.81697 80.65625,42.28125 78.267713,39.80315 74.292521,36.366192 67.375,29.59375 60.453232,22.81715 56.751361,18.826737 54,16.375 52.822781,15.32598 51.752676,14.547436 50.6875,14 Z" />
      <path
         style="display:inline;opacity:0.15;fill:url(#linearGradient4244);fill-opacity:1;stroke:none;enable-background:new"
         id="path4176"
         inkscape:connector-curvature="0"
         d="M 42.53125,14 A 1.0938616,1.0938616 0 0 0 43,16.09375 c 1.31556,-0.0071 2.184321,0.09171 2.78125,0.46875 0.596929,0.377043 1.185031,1.134988 1.6875,3.0625 1.004939,3.855025 1.4375,11.878266 1.4375,27.375 a 1.0919775,1.0919775 0 0 0 1.15625,1.09375 c 13.983415,-0.998815 21.995805,-1.240283 26.25,-0.53125 2.127098,0.354516 3.242156,0.926347 3.8125,1.5625 0.570344,0.636153 0.78125,1.496319 0.78125,2.875 H 82 V 45.34375 C 81.518176,44.585643 80.874841,43.813895 80,42.90625 77.66709,40.485863 73.680678,37.004073 66.75,30.21875 59.816987,23.431141 56.094453,19.426707 53.40625,17.03125 51.390098,15.234657 49.801687,14.32931 48.0625,14 Z" />
      <path
         style="display:inline;opacity:0.3;fill:#000000;fill-opacity:1;stroke:none;enable-background:new"
         id="path4170"
         inkscape:connector-curvature="0"
         d="m 42.999999,15 c 5.397981,-0.02908 7,0.968952 7,32 C 78,45 82,46 82,52 V 49.375 C 82,45.012585 79.892933,44.60156 66,31 52.107067,17.39844 50.942507,14.872159 46.26952,14.947374 Z" />
      <path
         style="display:inline;fill:url(#linearGradient4162-2);fill-opacity:1;stroke:none;enable-background:new"
         id="path4154"
         inkscape:connector-curvature="0"
         d="m 42.999999,14 c 5.397981,-0.02908 7,0.968952 7,32 C 78,44 82,45 82,51 V 48.375 C 82,44.012585 79.892933,43.60156 66,30 52.107067,16.39844 50.942507,13.872159 46.26952,13.947374 Z" />
      <path
         style="display:inline;opacity:0.2;fill:url(#linearGradient4331);fill-opacity:1;stroke:none;enable-background:new"
         id="path4297"
         inkscape:connector-curvature="0"
         d="M 46.28125,13.9375 43,14 c 4.723233,-0.02544 6.525813,0.73974 6.90625,21.71875 -0.232162,-14.676553 -1.113909,-19.945903 -3.125,-21.75 -0.170423,-0.0053 -0.320104,-0.03415 -0.5,-0.03125 z m 23.5625,30.125 C 65.170898,44.040527 58.75,44.375 50,45 c 4.77e-4,0.368421 0,0.622754 0,1 28.000001,-2 32,-1 32,5 v -1 c 0,-4.125 -1.875976,-5.88916 -12.15625,-5.9375 z" />
      <path
         style="display:inline;fill:url(#linearGradient4323);fill-opacity:1;stroke:none;enable-background:new"
         id="path4306"
         inkscape:connector-curvature="0"
         d="M 46.28125,13.9375 43,14 c 0.349286,-0.0019 0.681907,-0.01458 1,0 l 2.625,-0.0625 c -0.118789,-0.0018 -0.220368,-0.002 -0.34375,0 z M 44,14 c 4.597824,0.210711 6,2.976872 6,32 0.372078,-0.02658 0.636351,-0.03699 1,-0.0625 C 50.997566,14.975618 49.39388,13.970942 44,14 Z" />
      <g
         id="g4471"
         transform="translate(0,-90)">
        <path
           style="color:#000000;font-style:normal;font-variant:normal;font-weight:normal;font-stretch:normal;font-size:medium;line-height:normal;font-family:'Abandoned Bitplane';-inkscape-font-specification:'Abandoned Bitplane';text-indent:0;text-align:start;text-decoration:none;text-decoration-line:none;letter-spacing:normal;word-spacing:normal;text-transform:none;writing-mode:lr-tb;direction:ltr;text-anchor:start;display:inline;overflow:visible;visibility:visible;opacity:0.07999998;fill:#000000;fill-opacity:1;stroke:none;stroke-width:4;marker:none;enable-background:accumulate"
           id="rect3222-7"
           inkscape:connector-curvature="0"
           d="M 46.28125,103.9375 43,104 c 2.368579,-0.0128 4.001542,0.16674 5.09375,3 h 4.75 c -2.703015,-2.42858 -4.18339,-3.10079 -6.5625,-3.0625 z M 79,132.4375 v 3.71875 c 2.37228,0.9394 3,2.51587 3,4.84375 v -2.625 c 0,-2.23992 -0.578789,-3.4606 -3,-5.9375 z" />
        <path
           style="color:#000000;display:inline;overflow:visible;visibility:visible;opacity:0.1;fill:#000000;fill-opacity:1;fill-rule:nonzero;stroke:none;stroke-width:1;marker:none;enable-background:accumulate"
           id="rect3981-2"
           inkscape:connector-curvature="0"
           d="m 43.96875,104 c 1.541267,0.0664 2.731396,0.43118 3.625,1.9375 h 4 c -1.589102,-1.26213 -2.80662,-1.79614 -4.25,-1.9375 z m 36.09375,29.59375 v 3.09375 C 81.576167,137.64968 82,139.05934 82,141 v -2.625 c 0,-1.86497 -0.411061,-3.02126 -1.9375,-4.78125 z" />
        <path
           style="color:#000000;display:inline;overflow:visible;visibility:visible;opacity:0.25;fill:#000000;fill-opacity:1;fill-rule:nonzero;stroke:none;stroke-width:1;marker:none;enable-background:accumulate"
           id="rect3977-0"
           inkscape:connector-curvature="0"
           d="m 43.96875,104 c 1.127424,0.0486 2.041247,0.27688 2.8125,0.96875 h 3.4375 C 49.246922,104.38468 48.342664,104.09783 47.34375,104 Z m 37.0625,30.8125 v 2.71875 C 81.761373,138.42137 82,139.5659 82,141 v -2.625 c 0,-1.39936 -0.215654,-2.41051 -0.96875,-3.5625 z" />
      </g>
    </g>
  </g>
</svg>
