<?xml version="1.0" encoding="UTF-8" standalone="no"?>
<!-- Created with Inkscape (http://www.inkscape.org/) -->

<svg
   xmlns:dc="http://purl.org/dc/elements/1.1/"
   xmlns:cc="http://creativecommons.org/ns#"
   xmlns:rdf="http://www.w3.org/1999/02/22-rdf-syntax-ns#"
   xmlns:svg="http://www.w3.org/2000/svg"
   xmlns="http://www.w3.org/2000/svg"
   xmlns:sodipodi="http://sodipodi.sourceforge.net/DTD/sodipodi-0.dtd"
   xmlns:inkscape="http://www.inkscape.org/namespaces/inkscape"
   width="210mm"
   height="210mm"
   viewBox="0 0 210 210"
   version="1.1"
   id="svg1559"
   inkscape:version="0.92.4 5da689c313, 2019-01-14"
   sodipodi:docname="globe.svg">
  <defs
     id="defs1553">
    <clipPath
       clipPathUnits="userSpaceOnUse"
       id="clipPath180">
      <path
         d="M 24.3616,119.195 H 110.6 V 38.3384 H 24.3616 Z"
         id="path178"
         inkscape:connector-curvature="0" />
    </clipPath>
    <clipPath
       clipPathUnits="userSpaceOnUse"
       id="clipPath184">
      <path
         d="m 110.012,58.416 c -2.015,-7.203 -9.168,-12.621 -16.642,-12.612 -5.51,0.009 -10.707,2.624 -16.201,3.03 -6.433,0.482 -12.672,-2.1 -18.555,-4.774 -7.373,-3.358 -14.986,-7.021 -23.392,-5.268 -3.642,0.76 -6.959,2.788 -8.959,5.926 -4.36,6.838 -0.394,14.272 3.606,20.351 3.419,5.205 7.177,11.013 6.128,17.15 -0.618,3.639 -2.861,6.78 -4.097,10.259 -2.099,5.933 -0.982,12.908 2.861,17.894 2.461,3.189 5.984,5.496 9.845,6.607 0.76,0.219 1.519,0.443 2.262,0.71 3.858,1.392 8.044,1.854 12.102,1.241 7.364,-1.126 14.111,-5.765 17.784,-12.248 4.19,-7.399 4.808,-17.235 11.563,-22.407 4.097,-3.131 9.599,-3.766 14.009,-6.441 6.399,-3.868 9.7,-12.215 7.686,-19.418"
         id="path182"
         inkscape:connector-curvature="0" />
    </clipPath>
    <linearGradient
       x1="0"
       y1="0"
       x2="1"
       y2="0"
       gradientUnits="userSpaceOnUse"
       gradientTransform="matrix(-4.4494381,-108.4045,-108.4045,4.4494381,70.327789,126.29921)"
       spreadMethod="pad"
       id="linearGradient192">
      <stop
         style="stop-opacity:1;stop-color:#ff9e00"
         offset="0"
         id="stop186" />
      <stop
         style="stop-opacity:1;stop-color:#ffeb28"
         offset="0.536313"
         id="stop188" />
      <stop
         style="stop-opacity:1;stop-color:#ffffaa"
         offset="1"
         id="stop190" />
    </linearGradient>
    <clipPath
       clipPathUnits="userSpaceOnUse"
       id="clipPath214">
      <path
         d="M 25.7659,113.136 H 109.196 V 31.3771 H 25.7659 Z"
         id="path212"
         inkscape:connector-curvature="0" />
    </clipPath>
    <clipPath
       clipPathUnits="userSpaceOnUse"
       id="clipPath218">
      <path
         d="m 47.723,31.521 c -4.535,0.764 -8.036,4.7 -9.535,9.051 -1.499,4.352 -1.334,9.08 -0.958,13.663 0.368,4.594 0.929,9.226 0.165,13.761 -0.706,4.187 -2.553,8.171 -5.28,11.42 -2.349,2.794 -5.453,5.27 -6.198,8.838 -0.958,4.642 2.775,9.216 7.214,10.869 4.438,1.653 9.35,1.112 14.05,0.493 4.69,-0.609 9.573,-1.257 14.079,0.213 6.15,2.011 10.434,7.562 16.091,10.714 4.97,2.766 10.903,3.012 16.525,2.156 5.533,-0.842 12.978,-4.679 14.496,-8.132 1.527,-3.462 0.889,-7.764 -1.567,-10.627 -3.539,-4.12 -10.182,-5.203 -12.493,-10.115 -1.489,-3.162 -0.609,-6.971 1.025,-10.056 1.643,-3.085 3.984,-5.754 5.637,-8.829 1.664,-3.085 2.582,-6.866 1.151,-10.056 -1.992,-4.419 -7.581,-5.9 -12.426,-5.812 -4.854,0.097 -9.834,1.19 -14.456,-0.261 C 69.896,47.138 66.182,42.448 62.295,38.416 58.408,34.384 53.244,30.583 47.723,31.521"
         id="path216"
         inkscape:connector-curvature="0" />
    </clipPath>
    <linearGradient
       x1="0"
       y1="0"
       x2="1"
       y2="0"
       gradientUnits="userSpaceOnUse"
       gradientTransform="matrix(-126.60674,2.8314605,2.8314605,126.60674,110.00948,71.340118)"
       spreadMethod="pad"
       id="linearGradient226">
      <stop
         style="stop-opacity:1;stop-color:#ff9e00"
         offset="0"
         id="stop220" />
      <stop
         style="stop-opacity:1;stop-color:#ffeb28"
         offset="0.536313"
         id="stop222" />
      <stop
         style="stop-opacity:1;stop-color:#ffffaa"
         offset="1"
         id="stop224" />
    </linearGradient>
    <clipPath
       clipPathUnits="userSpaceOnUse"
       id="clipPath884">
      <path
         d="m 142.881,115.235 h 90.461 V 41.6127 h -90.461 z"
         id="path882"
         inkscape:connector-curvature="0" />
    </clipPath>
    <clipPath
       clipPathUnits="userSpaceOnUse"
       id="clipPath888">
      <path
         d="m 154.425,100.183 c 5.18,0.912 10.6,0.333 15.664,1.788 8.996,2.579 15.51,11.176 24.7,12.969 8.482,1.654 17.772,-3.832 20.425,-12.06 1.649,-5.119 0.944,-10.815 2.839,-15.846 2.693,-7.156 10.052,-11.577 13.443,-18.431 3.495,-7.065 1.907,-16.308 -3.741,-21.794 -5.661,-5.486 -14.943,-6.807 -21.902,-3.106 -5.228,2.793 -9.147,8.035 -14.881,9.52 -5.213,1.365 -10.682,-0.732 -15.468,-3.201 -4.797,-2.467 -9.555,-5.476 -14.926,-5.915 -8.863,-0.721 -17.496,4.189 -13.117,15.358 1.201,3.062 3.282,5.837 3.749,9.098 1.129,8.043 -9.421,14.268 -8.235,22.311 0.758,5.203 6.263,8.403 11.45,9.309"
         id="path886"
         inkscape:connector-curvature="0" />
    </clipPath>
    <linearGradient
       x1="0"
       y1="0"
       x2="1"
       y2="0"
       gradientUnits="userSpaceOnUse"
       gradientTransform="matrix(1.6779935,95.057823,95.057823,-1.6779935,187.23633,25.404448)"
       spreadMethod="pad"
       id="linearGradient896">
      <stop
         style="stop-opacity:1;stop-color:#339f7e"
         offset="0"
         id="stop890" />
      <stop
         style="stop-opacity:1;stop-color:#a3ef37"
         offset="0.536313"
         id="stop892" />
      <stop
         style="stop-opacity:1;stop-color:#eaff41"
         offset="1"
         id="stop894" />
    </linearGradient>
    <clipPath
       clipPathUnits="userSpaceOnUse"
       id="clipPath918">
      <path
         d="m 140.01,123.419 h 86.915 V 27.153 H 140.01 Z"
         id="path916"
         inkscape:connector-curvature="0" />
    </clipPath>
    <clipPath
       clipPathUnits="userSpaceOnUse"
       id="clipPath922">
      <path
         d="m 201.212,27.951 c -7.434,-2.385 -16.264,0.734 -20.552,7.25 -3.16,4.806 -3.868,10.837 -6.671,15.857 -3.276,5.881 -9.111,9.833 -14.822,13.421 -7.162,4.494 -14.73,9.021 -18.033,17.352 -1.431,3.61 -1.57,7.665 0.013,11.211 3.453,7.729 12.208,8.546 19.804,8.555 6.5,0.012 13.719,0.075 18.463,4.516 2.815,2.63 4.262,6.389 6.583,9.465 3.963,5.239 10.682,8.275 17.234,7.791 4.192,-0.31 8.227,-2.054 11.415,-4.78 0.626,-0.536 1.257,-1.068 1.918,-1.562 3.43,-2.561 6.237,-5.943 8.035,-9.831 3.252,-7.062 3.088,-15.606 -0.451,-22.533 -4.037,-7.901 -12.251,-14.093 -12.875,-22.95 -0.374,-5.369 2.235,-10.527 2.439,-15.906 0.308,-7.799 -5.066,-15.471 -12.5,-17.856"
         id="path920"
         inkscape:connector-curvature="0" />
    </clipPath>
    <linearGradient
       x1="0"
       y1="0"
       x2="1"
       y2="0"
       gradientUnits="userSpaceOnUse"
       gradientTransform="matrix(82.904114,89.000427,89.000427,-82.904114,151.75874,38.558464)"
       spreadMethod="pad"
       id="linearGradient930">
      <stop
         style="stop-opacity:1;stop-color:#339f7e"
         offset="0"
         id="stop924" />
      <stop
         style="stop-opacity:1;stop-color:#a3ef37"
         offset="0.536313"
         id="stop926" />
      <stop
         style="stop-opacity:1;stop-color:#eaff41"
         offset="1"
         id="stop928" />
    </linearGradient>
    <clipPath
       clipPathUnits="userSpaceOnUse"
       id="clipPath1040">
      <path
         d="m 138.595,243.082 h 96.162 v -85.328 h -96.162 z"
         id="path1038"
         inkscape:connector-curvature="0" />
    </clipPath>
    <clipPath
       clipPathUnits="userSpaceOnUse"
       id="clipPath1044">
      <path
         d="m 140.061,175.905 c -3.172,7.1 -1.047,16.182 4.937,21.137 4.413,3.652 10.306,5.011 14.97,8.333 5.466,3.886 8.741,10.093 11.671,16.138 3.668,7.581 7.325,15.566 15.213,19.744 3.417,1.81 7.417,2.39 11.099,1.21 8.028,-2.575 9.792,-11.155 10.629,-18.673 0.721,-6.434 1.57,-13.573 6.484,-17.785 2.911,-2.501 6.79,-3.524 10.089,-5.486 5.618,-3.352 9.356,-9.672 9.592,-16.212 0.149,-4.184 -1.137,-8.369 -3.488,-11.822 -0.462,-0.678 -0.92,-1.362 -1.337,-2.07 -2.161,-3.674 -5.204,-6.822 -8.857,-9.026 -6.637,-3.989 -15.113,-4.758 -22.356,-2.011 -8.263,3.136 -15.288,10.593 -24.124,10.244 -5.357,-0.215 -10.179,-3.36 -15.482,-4.148 -7.687,-1.156 -15.869,3.329 -19.04,10.427"
         id="path1042"
         inkscape:connector-curvature="0" />
    </clipPath>
    <linearGradient
       x1="0"
       y1="0"
       x2="1"
       y2="0"
       gradientUnits="userSpaceOnUse"
       gradientTransform="matrix(14.52267,-85.778854,-85.778854,-14.52267,177.0092,240.41296)"
       spreadMethod="pad"
       id="linearGradient1052">
      <stop
         style="stop-opacity:1;stop-color:#ea851f"
         offset="0"
         id="stop1046" />
      <stop
         style="stop-opacity:1;stop-color:#fea612"
         offset="0.536313"
         id="stop1048" />
      <stop
         style="stop-opacity:1;stop-color:#ffef2b"
         offset="1"
         id="stop1050" />
    </linearGradient>
    <clipPath
       clipPathUnits="userSpaceOnUse"
       id="clipPath1074">
      <path
         d="m 144.28,243.667 h 76.781 V 149.464 H 144.28 Z"
         id="path1072"
         inkscape:connector-curvature="0" />
    </clipPath>
    <clipPath
       clipPathUnits="userSpaceOnUse"
       id="clipPath1078">
      <path
         d="m 166.037,159.347 c -1.698,4.979 -1.959,10.424 -4.175,15.203 -3.933,8.492 -13.43,13.606 -16.614,22.411 -2.939,8.128 1.053,18.15 8.775,22.037 4.806,2.417 10.541,2.596 15.221,5.242 6.657,3.761 9.894,11.713 16.145,16.117 6.443,4.54 15.82,4.393 22.11,-0.344 6.291,-4.749 9.023,-13.718 6.437,-21.164 -1.956,-5.595 -6.533,-10.274 -7.118,-16.167 -0.547,-5.362 2.366,-10.443 5.541,-14.792 3.176,-4.361 6.881,-8.6 8.14,-13.839 2.077,-8.647 -1.448,-17.933 -13.158,-15.323 -3.211,0.715 -6.272,2.344 -9.567,2.305 -8.12,-0.121 -12.649,-11.503 -20.778,-11.568 -5.258,-0.051 -9.267,4.896 -10.959,9.882"
         id="path1076"
         inkscape:connector-curvature="0" />
    </clipPath>
    <linearGradient
       x1="0"
       y1="0"
       x2="1"
       y2="0"
       gradientUnits="userSpaceOnUse"
       gradientTransform="matrix(-94.185066,-12.960669,-12.960669,94.185066,234.87976,203.26817)"
       spreadMethod="pad"
       id="linearGradient1086">
      <stop
         style="stop-opacity:1;stop-color:#ea851f"
         offset="0"
         id="stop1080" />
      <stop
         style="stop-opacity:1;stop-color:#fea612"
         offset="0.536313"
         id="stop1082" />
      <stop
         style="stop-opacity:1;stop-color:#ffef2b"
         offset="1"
         id="stop1084" />
    </linearGradient>
    <clipPath
       clipPathUnits="userSpaceOnUse"
       id="clipPath440">
      <path
         d="m 257.088,479.671 h 84.289 v -88.204 h -84.289 z"
         id="path438"
         inkscape:connector-curvature="0" />
    </clipPath>
    <clipPath
       clipPathUnits="userSpaceOnUse"
       id="clipPath444">
      <path
         d="m 336.449,396.386 c -5.266,-5.264 -14.118,-6.469 -20.597,-2.81 -4.777,2.7 -8.007,7.508 -12.574,10.545 -5.344,3.562 -12.017,4.37 -18.427,4.924 -8.038,0.69 -16.431,1.232 -22.867,6.86 -2.788,2.439 -4.674,5.819 -4.877,9.517 -0.44,8.063 6.632,12.574 13.073,15.893 5.509,2.845 11.607,6.046 13.695,11.882 1.242,3.459 0.831,7.28 1.458,10.901 1.078,6.173 5.456,11.677 11.226,14.125 3.692,1.564 7.876,1.844 11.768,0.921 0.766,-0.182 1.533,-0.358 2.309,-0.488 4.026,-0.678 7.883,-2.323 11.103,-4.838 5.839,-4.575 9.424,-11.895 9.444,-19.314 0.019,-8.465 -4.25,-17.299 -0.918,-25.086 2.024,-4.718 6.486,-7.958 9.005,-12.433 3.661,-6.482 2.447,-15.335 -2.821,-20.599"
         id="path442"
         inkscape:connector-curvature="0" />
    </clipPath>
    <linearGradient
       x1="0"
       y1="0"
       x2="1"
       y2="0"
       gradientUnits="userSpaceOnUse"
       gradientTransform="matrix(31.533186,111.65893,111.65893,-31.533186,289.86646,383.82336)"
       spreadMethod="pad"
       id="linearGradient452">
      <stop
         style="stop-opacity:1;stop-color:#7818c6"
         offset="0"
         id="stop446" />
      <stop
         style="stop-opacity:1;stop-color:#ff65a5"
         offset="0.536313"
         id="stop448" />
      <stop
         style="stop-opacity:1;stop-color:#ffc641"
         offset="1"
         id="stop450" />
    </linearGradient>
    <clipPath
       clipPathUnits="userSpaceOnUse"
       id="clipPath474">
      <path
         d="m 259.057,473.43 h 92.879 v -75.723 h -92.879 z"
         id="path472"
         inkscape:connector-curvature="0" />
    </clipPath>
    <clipPath
       clipPathUnits="userSpaceOnUse"
       id="clipPath478">
      <path
         d="m 268.643,451.707 c 4.875,1.708 10.226,2.007 14.899,4.223 8.303,3.931 13.215,13.305 21.834,16.505 7.957,2.951 17.862,-0.894 21.779,-8.453 2.437,-4.704 2.683,-10.339 5.343,-14.918 3.781,-6.514 11.642,-9.632 16.049,-15.742 4.545,-6.297 4.515,-15.513 -0.066,-21.732 -4.593,-6.22 -13.379,-8.976 -20.734,-6.492 -5.525,1.878 -10.184,6.339 -15.986,6.868 -5.28,0.496 -10.24,-2.406 -14.478,-5.561 -4.25,-3.156 -8.372,-6.83 -13.51,-8.109 -8.477,-2.109 -17.652,1.282 -15.23,12.811 0.664,3.162 2.228,6.184 2.148,9.421 -0.218,7.98 -11.467,12.342 -11.631,20.331 -0.116,5.167 4.701,9.146 9.583,10.848"
         id="path476"
         inkscape:connector-curvature="0" />
    </clipPath>
    <linearGradient
       x1="0"
       y1="0"
       x2="1"
       y2="0"
       gradientUnits="userSpaceOnUse"
       gradientTransform="matrix(-35.610626,-85.890869,-86.109047,35.979942,322.89096,472.60553)"
       spreadMethod="pad"
       id="linearGradient486">
      <stop
         style="stop-opacity:1;stop-color:#7818c6"
         offset="0"
         id="stop480" />
      <stop
         style="stop-opacity:1;stop-color:#ff65a5"
         offset="0.536313"
         id="stop482" />
      <stop
         style="stop-opacity:1;stop-color:#ffc641"
         offset="1"
         id="stop484" />
    </linearGradient>
    <clipPath
       clipPathUnits="userSpaceOnUse"
       id="clipPath280">
      <path
         d="m 27.83,361.573 h 86.239 V 280.716 H 27.83 Z"
         id="path278"
         inkscape:connector-curvature="0" />
    </clipPath>
    <clipPath
       clipPathUnits="userSpaceOnUse"
       id="clipPath284">
      <path
         d="m 113.48,300.793 c -2.015,-7.203 -9.167,-12.62 -16.642,-12.611 -5.51,0.008 -10.707,2.624 -16.201,3.03 -6.433,0.482 -12.671,-2.1 -18.554,-4.775 -7.374,-3.356 -14.987,-7.02 -23.393,-5.267 -3.642,0.76 -6.959,2.788 -8.959,5.925 -4.359,6.839 -0.394,14.273 3.606,20.352 3.42,5.206 7.178,11.012 6.128,17.149 -0.618,3.64 -2.861,6.78 -4.096,10.259 -2.1,5.934 -0.982,12.909 2.86,17.895 2.461,3.188 5.984,5.496 9.846,6.607 0.759,0.219 1.518,0.442 2.261,0.711 3.858,1.391 8.044,1.852 12.102,1.239 7.365,-1.125 14.111,-5.764 17.785,-12.248 4.19,-7.398 4.807,-17.234 11.562,-22.406 4.097,-3.132 9.599,-3.767 14.009,-6.442 6.399,-3.868 9.701,-12.214 7.686,-19.418"
         id="path282"
         inkscape:connector-curvature="0" />
    </clipPath>
    <linearGradient
       x1="0"
       y1="0"
       x2="1"
       y2="0"
       gradientUnits="userSpaceOnUse"
       gradientTransform="matrix(0.4044944,-86.157303,-86.157303,-0.4044944,70.656143,361.81793)"
       spreadMethod="pad"
       id="linearGradient292">
      <stop
         style="stop-opacity:1;stop-color:#33338e"
         offset="0"
         id="stop286" />
      <stop
         style="stop-opacity:1;stop-color:#6e5acc"
         offset="0.544693"
         id="stop288" />
      <stop
         style="stop-opacity:1;stop-color:#22b5cc"
         offset="1"
         id="stop290" />
    </linearGradient>
    <clipPath
       clipPathUnits="userSpaceOnUse"
       id="clipPath314">
      <path
         d="m 20.8931,366.756 h 86.8489 v -84.29 H 20.8931 Z"
         id="path312"
         inkscape:connector-curvature="0" />
    </clipPath>
    <clipPath
       clipPathUnits="userSpaceOnUse"
       id="clipPath318">
      <path
         d="m 105.456,330.318 c -2.498,-4.401 -6.248,-8.067 -8.27,-12.714 -3.598,-8.252 -1.211,-18.351 -5.511,-26.265 -3.97,-7.305 -13.73,-10.835 -21.458,-7.762 -4.808,1.913 -8.6,5.925 -13.492,7.601 -6.958,2.387 -14.746,-0.364 -21.907,1.321 -7.381,1.734 -13.264,8.574 -13.873,16.125 -0.601,7.559 4.105,15.253 11.114,18.147 5.273,2.167 11.563,1.863 16.176,5.207 4.206,3.03 6.001,8.371 7.101,13.433 1.109,5.07 1.792,10.443 4.758,14.694 4.893,7.017 13.824,10.413 19.426,0.322 1.536,-2.767 2.319,-6.01 4.452,-8.355 5.274,-5.764 16.354,-1.752 21.593,-7.558 3.395,-3.75 2.396,-9.794 -0.109,-14.196"
         id="path316"
         inkscape:connector-curvature="0" />
    </clipPath>
    <linearGradient
       x1="0"
       y1="0"
       x2="1"
       y2="0"
       gradientUnits="userSpaceOnUse"
       gradientTransform="matrix(86.849159,0,0,-86.849159,20.893118,324.61063)"
       spreadMethod="pad"
       id="linearGradient326">
      <stop
         style="stop-opacity:1;stop-color:#33338e"
         offset="0"
         id="stop320" />
      <stop
         style="stop-opacity:1;stop-color:#6e5acc"
         offset="0.544693"
         id="stop322" />
      <stop
         style="stop-opacity:1;stop-color:#22b5cc"
         offset="1"
         id="stop324" />
    </linearGradient>
    <clipPath
       clipPathUnits="userSpaceOnUse"
       id="clipPath800">
      <path
         d="m 136.116,484.087 h 87.138 v -92.989 h -87.138 z"
         id="path798"
         inkscape:connector-curvature="0" />
    </clipPath>
    <clipPath
       clipPathUnits="userSpaceOnUse"
       id="clipPath804">
      <path
         d="m 217.52,395.673 c -5.74,-5.245 -15.028,-6.088 -21.616,-1.969 -4.856,3.039 -8.001,8.205 -12.623,11.585 -5.408,3.965 -12.331,5.12 -18.991,5.997 -8.351,1.094 -17.081,2.051 -23.531,8.222 -2.794,2.674 -4.604,6.287 -4.642,10.154 -0.083,8.43 7.504,12.806 14.376,15.967 5.88,2.711 12.389,5.765 14.839,11.755 1.457,3.55 1.207,7.554 2.03,11.303 1.413,6.388 6.235,11.925 12.367,14.209 3.925,1.458 8.302,1.556 12.319,0.411 0.79,-0.225 1.582,-0.445 2.386,-0.617 4.168,-0.895 8.114,-2.791 11.356,-5.564 5.876,-5.044 9.274,-12.847 8.948,-20.586 -0.375,-8.831 -5.24,-17.846 -2.128,-26.123 1.891,-5.017 6.394,-8.603 8.813,-13.389 3.516,-6.932 1.837,-16.109 -3.903,-21.355"
         id="path802"
         inkscape:connector-curvature="0" />
    </clipPath>
    <linearGradient
       x1="0"
       y1="0"
       x2="1"
       y2="0"
       gradientUnits="userSpaceOnUse"
       gradientTransform="matrix(76.843307,40.792477,40.792477,-76.843307,144.65973,410.43185)"
       spreadMethod="pad"
       id="linearGradient812">
      <stop
         style="stop-opacity:1;stop-color:#336037"
         offset="0"
         id="stop806" />
      <stop
         style="stop-opacity:1;stop-color:#05c867"
         offset="0.536313"
         id="stop808" />
      <stop
         style="stop-opacity:1;stop-color:#e0ff41"
         offset="1"
         id="stop810" />
    </linearGradient>
    <clipPath
       clipPathUnits="userSpaceOnUse"
       id="clipPath834">
      <path
         d="m 134.523,475.39 h 96.91 v -85.056 h -96.91 z"
         id="path832"
         inkscape:connector-curvature="0" />
    </clipPath>
    <clipPath
       clipPathUnits="userSpaceOnUse"
       id="clipPath838">
      <path
         d="m 225.057,425.542 c -4.191,-3.179 -9.276,-5.141 -13.115,-8.75 -6.822,-6.406 -8.686,-17.03 -16.04,-22.825 -6.789,-5.348 -17.559,-4.715 -23.679,1.39 -3.807,3.8 -5.783,9.188 -9.768,12.797 -5.666,5.135 -14.233,5.702 -20.381,10.249 -6.338,4.686 -9.151,13.632 -6.635,21.094 2.528,7.466 10.18,12.883 18.061,12.773 5.926,-0.094 11.808,-2.966 17.586,-1.665 5.262,1.168 9.167,5.533 12.295,9.916 3.139,4.388 5.995,9.239 10.573,12.083 7.552,4.694 17.475,4.273 18.686,-7.663 0.332,-3.273 -0.251,-6.692 0.824,-9.806 2.672,-7.67 14.901,-8.384 17.523,-16.08 1.703,-4.974 -1.731,-10.337 -5.93,-13.513"
         id="path836"
         inkscape:connector-curvature="0" />
    </clipPath>
    <linearGradient
       x1="0"
       y1="0"
       x2="1"
       y2="0"
       gradientUnits="userSpaceOnUse"
       gradientTransform="matrix(41.956715,-85.313774,-85.313774,-41.956715,161.69403,477.05444)"
       spreadMethod="pad"
       id="linearGradient846">
      <stop
         style="stop-opacity:1;stop-color:#336037"
         offset="0"
         id="stop840" />
      <stop
         style="stop-opacity:1;stop-color:#05c867"
         offset="0.536313"
         id="stop842" />
      <stop
         style="stop-opacity:1;stop-color:#e0ff41"
         offset="1"
         id="stop844" />
    </linearGradient>
    <clipPath
       clipPathUnits="userSpaceOnUse"
       id="clipPath1204">
      <path
         d="M 377.981,239.585 H 464.22 V 158.728 H 377.981 Z"
         id="path1202"
         inkscape:connector-curvature="0" />
    </clipPath>
    <clipPath
       clipPathUnits="userSpaceOnUse"
       id="clipPath1208">
      <path
         d="m 378.57,219.508 c 2.015,7.203 9.167,12.62 16.642,12.612 5.51,-0.009 10.707,-2.624 16.201,-3.03 6.433,-0.483 12.671,2.098 18.554,4.773 7.374,3.358 14.987,7.022 23.392,5.269 3.643,-0.761 6.959,-2.788 8.959,-5.926 4.361,-6.838 0.395,-14.272 -3.605,-20.352 -3.42,-5.206 -7.178,-11.012 -6.128,-17.149 0.618,-3.64 2.86,-6.78 4.097,-10.259 2.099,-5.933 0.981,-12.909 -2.862,-17.894 -2.461,-3.19 -5.983,-5.496 -9.845,-6.608 -0.759,-0.218 -1.518,-0.442 -2.261,-0.711 -3.859,-1.391 -8.044,-1.852 -12.103,-1.239 -7.364,1.126 -14.11,5.765 -17.784,12.248 -4.189,7.399 -4.807,17.235 -11.562,22.406 -4.097,3.132 -9.599,3.767 -14.009,6.442 -6.4,3.868 -9.7,12.215 -7.686,19.418"
         id="path1206"
         inkscape:connector-curvature="0" />
    </clipPath>
    <linearGradient
       x1="0"
       y1="0"
       x2="1"
       y2="0"
       gradientUnits="userSpaceOnUse"
       gradientTransform="matrix(-0.4044944,86.157303,86.157303,0.4044944,421.39389,158.48341)"
       spreadMethod="pad"
       id="linearGradient1216">
      <stop
         style="stop-opacity:1;stop-color:#f03363"
         offset="0"
         id="stop1210" />
      <stop
         style="stop-opacity:1;stop-color:#ff5699"
         offset="0.544693"
         id="stop1212" />
      <stop
         style="stop-opacity:1;stop-color:#ff91e6"
         offset="1"
         id="stop1214" />
    </linearGradient>
    <clipPath
       clipPathUnits="userSpaceOnUse"
       id="clipPath1238">
      <path
         d="m 384.308,237.836 h 86.849 v -84.29 h -86.849 z"
         id="path1236"
         inkscape:connector-curvature="0" />
    </clipPath>
    <clipPath
       clipPathUnits="userSpaceOnUse"
       id="clipPath1242">
      <path
         d="m 386.595,189.983 c 2.497,4.402 6.247,8.067 8.269,12.714 3.598,8.253 1.211,18.351 5.511,26.266 3.97,7.305 13.729,10.834 21.458,7.762 4.808,-1.913 8.6,-5.925 13.492,-7.602 6.958,-2.387 14.745,0.364 21.906,-1.32 7.382,-1.736 13.265,-8.574 13.874,-16.125 0.601,-7.559 -4.105,-15.253 -11.114,-18.149 -5.273,-2.167 -11.562,-1.862 -16.176,-5.205 -4.207,-3.03 -6.002,-8.372 -7.101,-13.433 -1.11,-5.071 -1.792,-10.443 -4.758,-14.695 -4.894,-7.017 -13.824,-10.412 -19.426,-0.322 -1.536,2.768 -2.319,6.01 -4.452,8.355 -5.273,5.764 -16.354,1.752 -21.594,7.559 -3.394,3.75 -2.395,9.793 0.111,14.195"
         id="path1240"
         inkscape:connector-curvature="0" />
    </clipPath>
    <linearGradient
       x1="0"
       y1="0"
       x2="1"
       y2="0"
       gradientUnits="userSpaceOnUse"
       gradientTransform="matrix(-86.849159,0,0,86.849159,471.15692,195.69073)"
       spreadMethod="pad"
       id="linearGradient1250">
      <stop
         style="stop-opacity:1;stop-color:#f03363"
         offset="0"
         id="stop1244" />
      <stop
         style="stop-opacity:1;stop-color:#ff5699"
         offset="0.544693"
         id="stop1246" />
      <stop
         style="stop-opacity:1;stop-color:#ff91e6"
         offset="1"
         id="stop1248" />
    </linearGradient>
    <clipPath
       clipPathUnits="userSpaceOnUse"
       id="clipPath676">
      <path
         d="m 262.217,121.781 h 87.138 V 28.7918 h -87.138 z"
         id="path674"
         inkscape:connector-curvature="0" />
    </clipPath>
    <clipPath
       clipPathUnits="userSpaceOnUse"
       id="clipPath680">
      <path
         d="m 343.62,33.367 c -5.739,-5.245 -15.028,-6.089 -21.616,-1.97 -4.856,3.04 -8,8.206 -12.622,11.586 -5.409,3.964 -12.332,5.12 -18.992,5.996 -8.35,1.095 -17.08,2.051 -23.53,8.222 -2.795,2.674 -4.604,6.287 -4.642,10.154 -0.084,8.431 7.503,12.806 14.375,15.968 5.88,2.71 12.389,5.765 14.84,11.755 1.457,3.55 1.206,7.554 2.03,11.302 1.412,6.389 6.235,11.926 12.367,14.209 3.925,1.459 8.301,1.557 12.318,0.412 0.79,-0.226 1.583,-0.445 2.386,-0.617 4.168,-0.895 8.114,-2.791 11.357,-5.565 5.876,-5.044 9.274,-12.846 8.947,-20.586 -0.374,-8.83 -5.239,-17.845 -2.127,-26.123 1.891,-5.016 6.394,-8.602 8.812,-13.388 3.517,-6.932 1.837,-16.11 -3.903,-21.355"
         id="path678"
         inkscape:connector-curvature="0" />
    </clipPath>
    <linearGradient
       x1="0"
       y1="0"
       x2="1"
       y2="0"
       gradientUnits="userSpaceOnUse"
       gradientTransform="matrix(76.843307,40.792477,40.792477,-76.843307,270.76022,48.125519)"
       spreadMethod="pad"
       id="linearGradient688">
      <stop
         style="stop-opacity:1;stop-color:#692237"
         offset="0"
         id="stop682" />
      <stop
         style="stop-opacity:1;stop-color:#ff2828"
         offset="0.536313"
         id="stop684" />
      <stop
         style="stop-opacity:1;stop-color:#ff9c58"
         offset="1"
         id="stop686" />
    </linearGradient>
    <clipPath
       clipPathUnits="userSpaceOnUse"
       id="clipPath710">
      <path
         d="m 257.69,109.352 h 94.778 V 31.9227 H 257.69 Z"
         id="path708"
         inkscape:connector-curvature="0" />
    </clipPath>
    <clipPath
       clipPathUnits="userSpaceOnUse"
       id="clipPath714">
      <path
         d="m 342.657,54.213 c -4.981,-1.757 -10.444,-2.074 -15.22,-4.349 -8.486,-4.036 -13.523,-13.623 -22.33,-16.911 -8.129,-3.034 -18.233,0.871 -22.214,8.584 -2.477,4.799 -2.715,10.556 -5.42,15.227 -3.845,6.645 -11.863,9.812 -16.348,16.044 -4.624,6.421 -4.573,15.837 0.118,22.201 4.704,6.364 13.68,9.2 21.183,6.679 5.636,-1.905 10.381,-6.452 16.304,-6.978 5.388,-0.495 10.459,2.482 14.793,5.715 4.346,3.233 8.564,6.997 13.811,8.314 8.66,2.174 18.019,-1.268 15.52,-13.051 -0.686,-3.232 -2.291,-6.322 -2.216,-9.629 0.205,-8.152 11.678,-12.58 11.828,-20.743 0.105,-5.278 -4.821,-9.353 -9.809,-11.103"
         id="path712"
         inkscape:connector-curvature="0" />
    </clipPath>
    <linearGradient
       x1="0"
       y1="0"
       x2="1"
       y2="0"
       gradientUnits="userSpaceOnUse"
       gradientTransform="matrix(36.554958,87.825111,87.825111,-36.554958,287.2261,32.737369)"
       spreadMethod="pad"
       id="linearGradient722">
      <stop
         style="stop-opacity:1;stop-color:#692237"
         offset="0"
         id="stop716" />
      <stop
         style="stop-opacity:1;stop-color:#ff2828"
         offset="0.536313"
         id="stop718" />
      <stop
         style="stop-opacity:1;stop-color:#ff9c58"
         offset="1"
         id="stop720" />
    </linearGradient>
  </defs>
  <sodipodi:namedview
     id="base"
     pagecolor="#ffffff"
     bordercolor="#666666"
     borderopacity="1.0"
     inkscape:pageopacity="0.0"
     inkscape:pageshadow="2"
     inkscape:zoom="0.35"
     inkscape:cx="-937.14286"
     inkscape:cy="560"
     inkscape:document-units="mm"
     inkscape:current-layer="layer1"
     showgrid="false"
     inkscape:window-width="1920"
     inkscape:window-height="1016"
     inkscape:window-x="0"
     inkscape:window-y="27"
     inkscape:window-maximized="1" />
  <metadata
     id="metadata1556">
    <rdf:RDF>
      <cc:Work
         rdf:about="">
        <dc:format>image/svg+xml</dc:format>
        <dc:type
           rdf:resource="http://purl.org/dc/dcmitype/StillImage" />
        <dc:title></dc:title>
      </cc:Work>
    </rdf:RDF>
  </metadata>
  <g
     inkscape:label="Calque 1"
     inkscape:groupmode="layer"
     id="layer1"
     transform="translate(0,-87)">
    <g
       transform="matrix(2.163355,0,0,-2.163355,-553.02717,353.55304)"
       id="g6323">
      <g
         id="g670">
        <g
           id="g672" />
        <g
           id="g702">
          <g
             id="g700"
             clip-path="url(#clipPath676)">
            <g
               id="g698">
              <g
                 id="g696"
                 clip-path="url(#clipPath680)">
                <g
                   id="g694">
                  <g
                     id="g692">
                    <path
                       inkscape:connector-curvature="0"
                       id="path690"
                       style="fill:url(#linearGradient688);stroke:none"
                       d="m 343.62,33.367 c -5.739,-5.245 -15.028,-6.089 -21.616,-1.97 -4.856,3.04 -8,8.206 -12.622,11.586 -5.409,3.964 -12.332,5.12 -18.992,5.996 -8.35,1.095 -17.08,2.051 -23.53,8.222 -2.795,2.674 -4.604,6.287 -4.642,10.154 -0.084,8.431 7.503,12.806 14.375,15.968 5.88,2.71 12.389,5.765 14.84,11.755 1.457,3.55 1.206,7.554 2.03,11.302 1.412,6.389 6.235,11.926 12.367,14.209 3.925,1.459 8.301,1.557 12.318,0.412 0.79,-0.226 1.583,-0.445 2.386,-0.617 4.168,-0.895 8.114,-2.791 11.357,-5.565 5.876,-5.044 9.274,-12.846 8.947,-20.586 -0.374,-8.83 -5.239,-17.845 -2.127,-26.123 1.891,-5.016 6.394,-8.602 8.812,-13.388 3.517,-6.932 1.837,-16.11 -3.903,-21.355" />
                  </g>
                </g>
              </g>
            </g>
          </g>
        </g>
      </g>
      <g
         id="g704">
        <g
           id="g706" />
        <g
           id="g736">
          <g
             id="g734"
             clip-path="url(#clipPath710)">
            <g
               id="g732">
              <g
                 id="g730"
                 clip-path="url(#clipPath714)">
                <g
                   id="g728">
                  <g
                     id="g726">
                    <path
                       inkscape:connector-curvature="0"
                       id="path724"
                       style="fill:url(#linearGradient722);stroke:none"
                       d="m 342.657,54.213 c -4.981,-1.757 -10.444,-2.074 -15.22,-4.349 -8.486,-4.036 -13.523,-13.623 -22.33,-16.911 -8.129,-3.034 -18.233,0.871 -22.214,8.584 -2.477,4.799 -2.715,10.556 -5.42,15.227 -3.845,6.645 -11.863,9.812 -16.348,16.044 -4.624,6.421 -4.573,15.837 0.118,22.201 4.704,6.364 13.68,9.2 21.183,6.679 5.636,-1.905 10.381,-6.452 16.304,-6.978 5.388,-0.495 10.459,2.482 14.793,5.715 4.346,3.233 8.564,6.997 13.811,8.314 8.66,2.174 18.019,-1.268 15.52,-13.051 -0.686,-3.232 -2.291,-6.322 -2.216,-9.629 0.205,-8.152 11.678,-12.58 11.828,-20.743 0.105,-5.278 -4.821,-9.353 -9.809,-11.103" />
                  </g>
                </g>
              </g>
            </g>
          </g>
        </g>
      </g>
      <g
         transform="translate(314.8984,70.4648)"
         id="g738">
        <path
           inkscape:connector-curvature="0"
           id="path740"
           style="fill:#ffffff;fill-opacity:1;fill-rule:nonzero;stroke:none"
           d="m 0,0 c 0.282,-0.286 5.153,-3.009 7.054,-3.72 3.574,3.075 7.042,3.32 9.828,0.693 2.464,-2.323 2.81,-6.126 0.803,-8.798 -2.071,-2.754 -5.82,-3.519 -8.726,-1.78 -3.016,1.804 -4.054,5.375 -2.498,8.83 -0.666,0.377 -1.34,0.765 -2.021,1.141 -1.261,0.697 -3.529,1.769 -4.777,2.489 -0.222,0.128 0.133,0.258 -0.036,0.479 C -0.374,-0.668 -0.242,-0.339 0,0" />
      </g>
      <g
         transform="translate(306.2305,90.3467)"
         id="g742">
        <path
           inkscape:connector-curvature="0"
           id="path744"
           style="fill:#ffffff;fill-opacity:1;fill-rule:nonzero;stroke:none"
           d="m 0,0 c 0.233,-0.047 0.599,-0.321 0.602,-0.496 0.038,-2.287 0.028,-4.577 0.027,-6.908 0.181,0.011 0.36,0.027 0.545,0.027 0.187,0 0.372,-0.016 0.557,-0.028 10e-4,2.218 0.014,4.4 -0.011,6.579 -0.007,0.558 0.154,0.768 0.731,0.868 C 6.17,0.689 8.573,4.527 7.618,8.229 6.67,11.906 2.7,14.052 -0.912,12.839 -3.855,11.852 -5.666,9.101 -5.454,5.938 -5.263,3.074 -2.968,0.594 0,0" />
      </g>
      <g
         transform="translate(332.8301,89.0713)"
         id="g746">
        <path
           inkscape:connector-curvature="0"
           id="path748"
           style="fill:#ffffff;fill-opacity:1;fill-rule:nonzero;stroke:none"
           d="m 0,0 c -1.835,2.863 -5.585,3.922 -8.587,2.331 -3.859,-2.046 -4.336,-6.035 -2.911,-9.062 -2.206,-1.213 -4.415,-2.428 -6.641,-3.651 0.182,-0.324 0.339,-0.663 0.477,-1.013 h 0.058 c 2.274,1.248 4.516,2.478 6.739,3.698 2.827,-3.19 6.806,-3.191 9.49,-1.032 C 1.221,-6.641 1.813,-2.83 0,0" />
      </g>
      <g
         transform="translate(300.1182,78.6924)"
         id="g750">
        <path
           inkscape:connector-curvature="0"
           id="path752"
           style="fill:#ffffff;fill-opacity:1;fill-rule:nonzero;stroke:none"
           d="m 0,0 c -2.2,1.209 -4.354,2.393 -6.507,3.578 -0.044,0.025 -0.065,0.088 -0.097,0.134 1.858,4.285 -0.295,7.617 -2.862,8.973 -2.93,1.547 -6.616,0.636 -8.531,-2.094 -1.925,-2.743 -1.475,-6.513 1.05,-8.779 2.789,-2.503 6.18,-2.214 9.728,0.85 2.196,-1.209 4.403,-2.424 6.731,-3.705 0.14,0.36 0.301,0.709 0.488,1.043" />
      </g>
      <g
         transform="translate(300.0342,69.3271)"
         id="g754">
        <path
           inkscape:connector-curvature="0"
           id="path756"
           style="fill:#ffffff;fill-opacity:1;fill-rule:nonzero;stroke:none"
           d="m 0,0 c -0.219,0.313 -0.416,0.641 -0.594,0.981 -2.202,-1.21 -4.387,-2.409 -6.557,-3.601 -3.245,3.487 -7.251,2.927 -9.613,0.941 -2.536,-2.132 -3.078,-5.866 -1.261,-8.677 1.813,-2.805 5.454,-3.838 8.444,-2.377 1.508,0.737 2.613,1.881 3.252,3.438 0.782,1.906 0.646,3.798 -0.24,5.686 C -4.367,-2.399 -2.2,-1.209 0,0" />
      </g>
      <g
         transform="translate(314.917,69.5205)"
         id="g758">
        <path
           inkscape:connector-curvature="0"
           id="path760"
           style="fill:#ffffff;fill-opacity:1;fill-rule:nonzero;stroke:none"
           d="M 0,0 C 0.022,0.009 0.044,0.019 0.065,0.028 L 0.019,0.03 C 0.012,0.021 0.006,0.01 0,0" />
      </g>
      <g
         transform="translate(309.5361,57.4785)"
         id="g762">
        <path
           inkscape:connector-curvature="0"
           id="path764"
           style="fill:#ffffff;fill-opacity:1;fill-rule:nonzero;stroke:none"
           d="M 0,0 C -0.517,0.179 -1.25,0.208 -1.492,0.568 -1.757,0.963 -1.573,1.662 -1.573,2.229 -1.576,4.15 -1.575,6.071 -1.575,8.004 -1.532,8.009 -1.492,8.018 -1.45,8.023 -1.674,8.006 -1.898,7.989 -2.127,7.989 -2.392,7.989 -2.652,8.006 -2.911,8.028 -2.831,8.018 -2.756,8 -2.675,7.991 V 7.167 0.418 C -2.926,0.353 -3.139,0.28 -3.356,0.242 -6.949,-0.387 -9.389,-3.88 -8.735,-7.466 c 0.577,-3.169 3.386,-5.469 6.639,-5.438 3.372,0.032 5.927,2.327 6.517,5.853 C 4.904,-4.163 2.932,-1.018 0,0" />
      </g>
      <g
         transform="translate(315.0195,69.5469)"
         id="g766">
        <path
           inkscape:connector-curvature="0"
           id="path768"
           style="fill:#ffffff;fill-opacity:1;fill-rule:nonzero;stroke:none"
           d="M 0,0 0.022,0.027 C 0.004,0.018 -0.018,0.01 -0.037,0.002 Z" />
      </g>
      <g
         transform="translate(300.2012,67.8672)"
         id="g770">
        <path
           inkscape:connector-curvature="0"
           id="path772"
           style="fill:#ffffff;fill-opacity:1;fill-rule:nonzero;stroke:none"
           d="m 0,0 c 0,0 0.302,2.991 1.952,3.893 1.264,1.02 3.069,1.727 3.245,2.38 0.18,0.654 -0.643,2.498 -0.643,2.498 0,0 -0.5,0.321 -0.566,0.893 -0.064,0.568 0.225,0.628 0.225,0.628 0,0 -0.195,0.987 -0.272,2.09 -0.075,1.1 0.169,2.189 0.169,2.189 0,0 0.694,-0.34 1.599,-0.29 0.905,0.051 1.258,0.157 2.333,0.051 0.604,-0.149 1.912,-0.314 2.037,-1.817 0.026,-0.328 0.022,-0.459 0,-0.744 -0.046,-0.617 -0.171,-1.107 -0.209,-1.395 -0.024,-0.182 0.121,-0.283 0.121,-0.283 0,0 0.088,-0.521 -0.102,-0.866 C 9.7,8.88 9.401,8.711 9.401,8.711 9.401,8.711 8.952,7.612 8.919,6.662 8.909,6.349 9.091,6.067 9.151,5.88 9.405,5.128 12.179,4.762 13.177,3.656 c 0.994,-1.102 1.24,-3.639 1.24,-3.639 z m 7.208,16.211 c -5.586,0 -10.113,-4.528 -10.113,-10.113 0,-5.586 4.527,-10.115 10.113,-10.115 5.586,0 10.114,4.529 10.114,10.115 0,5.585 -4.528,10.113 -10.114,10.113" />
      </g>
      <path
         inkscape:connector-curvature="0"
         id="path774"
         style="fill:#ffffff;fill-opacity:1;fill-rule:nonzero;stroke:none"
         d="m 308.664,56.296 h -2.274 v 9.202 h 2.274 z" />
      <path
         inkscape:connector-curvature="0"
         id="path776"
         style="fill:#ffffff;fill-opacity:1;fill-rule:nonzero;stroke:none"
         d="m 308.499,82.941 h -2.273 v 9.202 h 2.273 z" />
      <g
         transform="translate(292.1172,64.8496)"
         id="g778">
        <path
           inkscape:connector-curvature="0"
           id="path780"
           style="fill:#ffffff;fill-opacity:1;fill-rule:nonzero;stroke:none"
           d="M 0,0 -1.052,2.016 7.106,6.271 8.158,4.256 Z" />
      </g>
      <g
         transform="translate(315.666,77.3184)"
         id="g782">
        <path
           inkscape:connector-curvature="0"
           id="path784"
           style="fill:#ffffff;fill-opacity:1;fill-rule:nonzero;stroke:none"
           d="M 0,0 -1.052,2.016 7.106,6.271 8.158,4.256 Z" />
      </g>
      <g
         transform="translate(291.1963,81.8828)"
         id="g786">
        <path
           inkscape:connector-curvature="0"
           id="path788"
           style="fill:#ffffff;fill-opacity:1;fill-rule:nonzero;stroke:none"
           d="M 0,0 1.107,1.986 9.144,-2.495 8.037,-4.48 Z" />
      </g>
      <g
         transform="translate(314.5488,69.0518)"
         id="g790">
        <path
           inkscape:connector-curvature="0"
           id="path792"
           style="fill:#ffffff;fill-opacity:1;fill-rule:nonzero;stroke:none"
           d="M 0,0 1.107,1.985 9.145,-2.495 8.037,-4.481 Z" />
      </g>
    </g>
  </g>
</svg>
