<?xml version="1.0" encoding="UTF-8" standalone="no"?>
<!-- Created with Inkscape (http://www.inkscape.org/) -->

<svg
   xmlns:dc="http://purl.org/dc/elements/1.1/"
   xmlns:cc="http://creativecommons.org/ns#"
   xmlns:rdf="http://www.w3.org/1999/02/22-rdf-syntax-ns#"
   xmlns:svg="http://www.w3.org/2000/svg"
   xmlns="http://www.w3.org/2000/svg"
   xmlns:sodipodi="http://sodipodi.sourceforge.net/DTD/sodipodi-0.dtd"
   xmlns:inkscape="http://www.inkscape.org/namespaces/inkscape"
   width="210mm"
   height="210mm"
   viewBox="0 0 210 210"
   version="1.1"
   id="svg1559"
   inkscape:version="0.92.4 5da689c313, 2019-01-14"
   sodipodi:docname="link.svg">
  <defs
     id="defs1553">
    <clipPath
       clipPathUnits="userSpaceOnUse"
       id="clipPath180">
      <path
         d="M 24.3616,119.195 H 110.6 V 38.3384 H 24.3616 Z"
         id="path178"
         inkscape:connector-curvature="0" />
    </clipPath>
    <clipPath
       clipPathUnits="userSpaceOnUse"
       id="clipPath184">
      <path
         d="m 110.012,58.416 c -2.015,-7.203 -9.168,-12.621 -16.642,-12.612 -5.51,0.009 -10.707,2.624 -16.201,3.03 -6.433,0.482 -12.672,-2.1 -18.555,-4.774 -7.373,-3.358 -14.986,-7.021 -23.392,-5.268 -3.642,0.76 -6.959,2.788 -8.959,5.926 -4.36,6.838 -0.394,14.272 3.606,20.351 3.419,5.205 7.177,11.013 6.128,17.15 -0.618,3.639 -2.861,6.78 -4.097,10.259 -2.099,5.933 -0.982,12.908 2.861,17.894 2.461,3.189 5.984,5.496 9.845,6.607 0.76,0.219 1.519,0.443 2.262,0.71 3.858,1.392 8.044,1.854 12.102,1.241 7.364,-1.126 14.111,-5.765 17.784,-12.248 4.19,-7.399 4.808,-17.235 11.563,-22.407 4.097,-3.131 9.599,-3.766 14.009,-6.441 6.399,-3.868 9.7,-12.215 7.686,-19.418"
         id="path182"
         inkscape:connector-curvature="0" />
    </clipPath>
    <linearGradient
       x1="0"
       y1="0"
       x2="1"
       y2="0"
       gradientUnits="userSpaceOnUse"
       gradientTransform="matrix(-4.4494381,-108.4045,-108.4045,4.4494381,70.327789,126.29921)"
       spreadMethod="pad"
       id="linearGradient192">
      <stop
         style="stop-opacity:1;stop-color:#ff9e00"
         offset="0"
         id="stop186" />
      <stop
         style="stop-opacity:1;stop-color:#ffeb28"
         offset="0.536313"
         id="stop188" />
      <stop
         style="stop-opacity:1;stop-color:#ffffaa"
         offset="1"
         id="stop190" />
    </linearGradient>
    <clipPath
       clipPathUnits="userSpaceOnUse"
       id="clipPath214">
      <path
         d="M 25.7659,113.136 H 109.196 V 31.3771 H 25.7659 Z"
         id="path212"
         inkscape:connector-curvature="0" />
    </clipPath>
    <clipPath
       clipPathUnits="userSpaceOnUse"
       id="clipPath218">
      <path
         d="m 47.723,31.521 c -4.535,0.764 -8.036,4.7 -9.535,9.051 -1.499,4.352 -1.334,9.08 -0.958,13.663 0.368,4.594 0.929,9.226 0.165,13.761 -0.706,4.187 -2.553,8.171 -5.28,11.42 -2.349,2.794 -5.453,5.27 -6.198,8.838 -0.958,4.642 2.775,9.216 7.214,10.869 4.438,1.653 9.35,1.112 14.05,0.493 4.69,-0.609 9.573,-1.257 14.079,0.213 6.15,2.011 10.434,7.562 16.091,10.714 4.97,2.766 10.903,3.012 16.525,2.156 5.533,-0.842 12.978,-4.679 14.496,-8.132 1.527,-3.462 0.889,-7.764 -1.567,-10.627 -3.539,-4.12 -10.182,-5.203 -12.493,-10.115 -1.489,-3.162 -0.609,-6.971 1.025,-10.056 1.643,-3.085 3.984,-5.754 5.637,-8.829 1.664,-3.085 2.582,-6.866 1.151,-10.056 -1.992,-4.419 -7.581,-5.9 -12.426,-5.812 -4.854,0.097 -9.834,1.19 -14.456,-0.261 C 69.896,47.138 66.182,42.448 62.295,38.416 58.408,34.384 53.244,30.583 47.723,31.521"
         id="path216"
         inkscape:connector-curvature="0" />
    </clipPath>
    <linearGradient
       x1="0"
       y1="0"
       x2="1"
       y2="0"
       gradientUnits="userSpaceOnUse"
       gradientTransform="matrix(-126.60674,2.8314605,2.8314605,126.60674,110.00948,71.340118)"
       spreadMethod="pad"
       id="linearGradient226">
      <stop
         style="stop-opacity:1;stop-color:#ff9e00"
         offset="0"
         id="stop220" />
      <stop
         style="stop-opacity:1;stop-color:#ffeb28"
         offset="0.536313"
         id="stop222" />
      <stop
         style="stop-opacity:1;stop-color:#ffffaa"
         offset="1"
         id="stop224" />
    </linearGradient>
    <clipPath
       clipPathUnits="userSpaceOnUse"
       id="clipPath884">
      <path
         d="m 142.881,115.235 h 90.461 V 41.6127 h -90.461 z"
         id="path882"
         inkscape:connector-curvature="0" />
    </clipPath>
    <clipPath
       clipPathUnits="userSpaceOnUse"
       id="clipPath888">
      <path
         d="m 154.425,100.183 c 5.18,0.912 10.6,0.333 15.664,1.788 8.996,2.579 15.51,11.176 24.7,12.969 8.482,1.654 17.772,-3.832 20.425,-12.06 1.649,-5.119 0.944,-10.815 2.839,-15.846 2.693,-7.156 10.052,-11.577 13.443,-18.431 3.495,-7.065 1.907,-16.308 -3.741,-21.794 -5.661,-5.486 -14.943,-6.807 -21.902,-3.106 -5.228,2.793 -9.147,8.035 -14.881,9.52 -5.213,1.365 -10.682,-0.732 -15.468,-3.201 -4.797,-2.467 -9.555,-5.476 -14.926,-5.915 -8.863,-0.721 -17.496,4.189 -13.117,15.358 1.201,3.062 3.282,5.837 3.749,9.098 1.129,8.043 -9.421,14.268 -8.235,22.311 0.758,5.203 6.263,8.403 11.45,9.309"
         id="path886"
         inkscape:connector-curvature="0" />
    </clipPath>
    <linearGradient
       x1="0"
       y1="0"
       x2="1"
       y2="0"
       gradientUnits="userSpaceOnUse"
       gradientTransform="matrix(1.6779935,95.057823,95.057823,-1.6779935,187.23633,25.404448)"
       spreadMethod="pad"
       id="linearGradient896">
      <stop
         style="stop-opacity:1;stop-color:#339f7e"
         offset="0"
         id="stop890" />
      <stop
         style="stop-opacity:1;stop-color:#a3ef37"
         offset="0.536313"
         id="stop892" />
      <stop
         style="stop-opacity:1;stop-color:#eaff41"
         offset="1"
         id="stop894" />
    </linearGradient>
    <clipPath
       clipPathUnits="userSpaceOnUse"
       id="clipPath918">
      <path
         d="m 140.01,123.419 h 86.915 V 27.153 H 140.01 Z"
         id="path916"
         inkscape:connector-curvature="0" />
    </clipPath>
    <clipPath
       clipPathUnits="userSpaceOnUse"
       id="clipPath922">
      <path
         d="m 201.212,27.951 c -7.434,-2.385 -16.264,0.734 -20.552,7.25 -3.16,4.806 -3.868,10.837 -6.671,15.857 -3.276,5.881 -9.111,9.833 -14.822,13.421 -7.162,4.494 -14.73,9.021 -18.033,17.352 -1.431,3.61 -1.57,7.665 0.013,11.211 3.453,7.729 12.208,8.546 19.804,8.555 6.5,0.012 13.719,0.075 18.463,4.516 2.815,2.63 4.262,6.389 6.583,9.465 3.963,5.239 10.682,8.275 17.234,7.791 4.192,-0.31 8.227,-2.054 11.415,-4.78 0.626,-0.536 1.257,-1.068 1.918,-1.562 3.43,-2.561 6.237,-5.943 8.035,-9.831 3.252,-7.062 3.088,-15.606 -0.451,-22.533 -4.037,-7.901 -12.251,-14.093 -12.875,-22.95 -0.374,-5.369 2.235,-10.527 2.439,-15.906 0.308,-7.799 -5.066,-15.471 -12.5,-17.856"
         id="path920"
         inkscape:connector-curvature="0" />
    </clipPath>
    <linearGradient
       x1="0"
       y1="0"
       x2="1"
       y2="0"
       gradientUnits="userSpaceOnUse"
       gradientTransform="matrix(82.904114,89.000427,89.000427,-82.904114,151.75874,38.558464)"
       spreadMethod="pad"
       id="linearGradient930">
      <stop
         style="stop-opacity:1;stop-color:#339f7e"
         offset="0"
         id="stop924" />
      <stop
         style="stop-opacity:1;stop-color:#a3ef37"
         offset="0.536313"
         id="stop926" />
      <stop
         style="stop-opacity:1;stop-color:#eaff41"
         offset="1"
         id="stop928" />
    </linearGradient>
    <clipPath
       clipPathUnits="userSpaceOnUse"
       id="clipPath1040">
      <path
         d="m 138.595,243.082 h 96.162 v -85.328 h -96.162 z"
         id="path1038"
         inkscape:connector-curvature="0" />
    </clipPath>
    <clipPath
       clipPathUnits="userSpaceOnUse"
       id="clipPath1044">
      <path
         d="m 140.061,175.905 c -3.172,7.1 -1.047,16.182 4.937,21.137 4.413,3.652 10.306,5.011 14.97,8.333 5.466,3.886 8.741,10.093 11.671,16.138 3.668,7.581 7.325,15.566 15.213,19.744 3.417,1.81 7.417,2.39 11.099,1.21 8.028,-2.575 9.792,-11.155 10.629,-18.673 0.721,-6.434 1.57,-13.573 6.484,-17.785 2.911,-2.501 6.79,-3.524 10.089,-5.486 5.618,-3.352 9.356,-9.672 9.592,-16.212 0.149,-4.184 -1.137,-8.369 -3.488,-11.822 -0.462,-0.678 -0.92,-1.362 -1.337,-2.07 -2.161,-3.674 -5.204,-6.822 -8.857,-9.026 -6.637,-3.989 -15.113,-4.758 -22.356,-2.011 -8.263,3.136 -15.288,10.593 -24.124,10.244 -5.357,-0.215 -10.179,-3.36 -15.482,-4.148 -7.687,-1.156 -15.869,3.329 -19.04,10.427"
         id="path1042"
         inkscape:connector-curvature="0" />
    </clipPath>
    <linearGradient
       x1="0"
       y1="0"
       x2="1"
       y2="0"
       gradientUnits="userSpaceOnUse"
       gradientTransform="matrix(14.52267,-85.778854,-85.778854,-14.52267,177.0092,240.41296)"
       spreadMethod="pad"
       id="linearGradient1052">
      <stop
         style="stop-opacity:1;stop-color:#ea851f"
         offset="0"
         id="stop1046" />
      <stop
         style="stop-opacity:1;stop-color:#fea612"
         offset="0.536313"
         id="stop1048" />
      <stop
         style="stop-opacity:1;stop-color:#ffef2b"
         offset="1"
         id="stop1050" />
    </linearGradient>
    <clipPath
       clipPathUnits="userSpaceOnUse"
       id="clipPath1074">
      <path
         d="m 144.28,243.667 h 76.781 V 149.464 H 144.28 Z"
         id="path1072"
         inkscape:connector-curvature="0" />
    </clipPath>
    <clipPath
       clipPathUnits="userSpaceOnUse"
       id="clipPath1078">
      <path
         d="m 166.037,159.347 c -1.698,4.979 -1.959,10.424 -4.175,15.203 -3.933,8.492 -13.43,13.606 -16.614,22.411 -2.939,8.128 1.053,18.15 8.775,22.037 4.806,2.417 10.541,2.596 15.221,5.242 6.657,3.761 9.894,11.713 16.145,16.117 6.443,4.54 15.82,4.393 22.11,-0.344 6.291,-4.749 9.023,-13.718 6.437,-21.164 -1.956,-5.595 -6.533,-10.274 -7.118,-16.167 -0.547,-5.362 2.366,-10.443 5.541,-14.792 3.176,-4.361 6.881,-8.6 8.14,-13.839 2.077,-8.647 -1.448,-17.933 -13.158,-15.323 -3.211,0.715 -6.272,2.344 -9.567,2.305 -8.12,-0.121 -12.649,-11.503 -20.778,-11.568 -5.258,-0.051 -9.267,4.896 -10.959,9.882"
         id="path1076"
         inkscape:connector-curvature="0" />
    </clipPath>
    <linearGradient
       x1="0"
       y1="0"
       x2="1"
       y2="0"
       gradientUnits="userSpaceOnUse"
       gradientTransform="matrix(-94.185066,-12.960669,-12.960669,94.185066,234.87976,203.26817)"
       spreadMethod="pad"
       id="linearGradient1086">
      <stop
         style="stop-opacity:1;stop-color:#ea851f"
         offset="0"
         id="stop1080" />
      <stop
         style="stop-opacity:1;stop-color:#fea612"
         offset="0.536313"
         id="stop1082" />
      <stop
         style="stop-opacity:1;stop-color:#ffef2b"
         offset="1"
         id="stop1084" />
    </linearGradient>
    <clipPath
       clipPathUnits="userSpaceOnUse"
       id="clipPath440">
      <path
         d="m 257.088,479.671 h 84.289 v -88.204 h -84.289 z"
         id="path438"
         inkscape:connector-curvature="0" />
    </clipPath>
    <clipPath
       clipPathUnits="userSpaceOnUse"
       id="clipPath444">
      <path
         d="m 336.449,396.386 c -5.266,-5.264 -14.118,-6.469 -20.597,-2.81 -4.777,2.7 -8.007,7.508 -12.574,10.545 -5.344,3.562 -12.017,4.37 -18.427,4.924 -8.038,0.69 -16.431,1.232 -22.867,6.86 -2.788,2.439 -4.674,5.819 -4.877,9.517 -0.44,8.063 6.632,12.574 13.073,15.893 5.509,2.845 11.607,6.046 13.695,11.882 1.242,3.459 0.831,7.28 1.458,10.901 1.078,6.173 5.456,11.677 11.226,14.125 3.692,1.564 7.876,1.844 11.768,0.921 0.766,-0.182 1.533,-0.358 2.309,-0.488 4.026,-0.678 7.883,-2.323 11.103,-4.838 5.839,-4.575 9.424,-11.895 9.444,-19.314 0.019,-8.465 -4.25,-17.299 -0.918,-25.086 2.024,-4.718 6.486,-7.958 9.005,-12.433 3.661,-6.482 2.447,-15.335 -2.821,-20.599"
         id="path442"
         inkscape:connector-curvature="0" />
    </clipPath>
    <linearGradient
       x1="0"
       y1="0"
       x2="1"
       y2="0"
       gradientUnits="userSpaceOnUse"
       gradientTransform="matrix(31.533186,111.65893,111.65893,-31.533186,289.86646,383.82336)"
       spreadMethod="pad"
       id="linearGradient452">
      <stop
         style="stop-opacity:1;stop-color:#7818c6"
         offset="0"
         id="stop446" />
      <stop
         style="stop-opacity:1;stop-color:#ff65a5"
         offset="0.536313"
         id="stop448" />
      <stop
         style="stop-opacity:1;stop-color:#ffc641"
         offset="1"
         id="stop450" />
    </linearGradient>
    <clipPath
       clipPathUnits="userSpaceOnUse"
       id="clipPath474">
      <path
         d="m 259.057,473.43 h 92.879 v -75.723 h -92.879 z"
         id="path472"
         inkscape:connector-curvature="0" />
    </clipPath>
    <clipPath
       clipPathUnits="userSpaceOnUse"
       id="clipPath478">
      <path
         d="m 268.643,451.707 c 4.875,1.708 10.226,2.007 14.899,4.223 8.303,3.931 13.215,13.305 21.834,16.505 7.957,2.951 17.862,-0.894 21.779,-8.453 2.437,-4.704 2.683,-10.339 5.343,-14.918 3.781,-6.514 11.642,-9.632 16.049,-15.742 4.545,-6.297 4.515,-15.513 -0.066,-21.732 -4.593,-6.22 -13.379,-8.976 -20.734,-6.492 -5.525,1.878 -10.184,6.339 -15.986,6.868 -5.28,0.496 -10.24,-2.406 -14.478,-5.561 -4.25,-3.156 -8.372,-6.83 -13.51,-8.109 -8.477,-2.109 -17.652,1.282 -15.23,12.811 0.664,3.162 2.228,6.184 2.148,9.421 -0.218,7.98 -11.467,12.342 -11.631,20.331 -0.116,5.167 4.701,9.146 9.583,10.848"
         id="path476"
         inkscape:connector-curvature="0" />
    </clipPath>
    <linearGradient
       x1="0"
       y1="0"
       x2="1"
       y2="0"
       gradientUnits="userSpaceOnUse"
       gradientTransform="matrix(-35.610626,-85.890869,-86.109047,35.979942,322.89096,472.60553)"
       spreadMethod="pad"
       id="linearGradient486">
      <stop
         style="stop-opacity:1;stop-color:#7818c6"
         offset="0"
         id="stop480" />
      <stop
         style="stop-opacity:1;stop-color:#ff65a5"
         offset="0.536313"
         id="stop482" />
      <stop
         style="stop-opacity:1;stop-color:#ffc641"
         offset="1"
         id="stop484" />
    </linearGradient>
  </defs>
  <sodipodi:namedview
     id="base"
     pagecolor="#ffffff"
     bordercolor="#666666"
     borderopacity="1.0"
     inkscape:pageopacity="0.0"
     inkscape:pageshadow="2"
     inkscape:zoom="0.35"
     inkscape:cx="-758.31271"
     inkscape:cy="560"
     inkscape:document-units="mm"
     inkscape:current-layer="g5976"
     showgrid="false"
     inkscape:window-width="1920"
     inkscape:window-height="1023"
     inkscape:window-x="0"
     inkscape:window-y="27"
     inkscape:window-maximized="1" />
  <metadata
     id="metadata1556">
    <rdf:RDF>
      <cc:Work
         rdf:about="">
        <dc:format>image/svg+xml</dc:format>
        <dc:type
           rdf:resource="http://purl.org/dc/dcmitype/StillImage" />
        <dc:title />
      </cc:Work>
    </rdf:RDF>
  </metadata>
  <g
     inkscape:label="Calque 1"
     inkscape:groupmode="layer"
     id="layer1"
     transform="translate(0,-87)">
    <g
       transform="matrix(2.1525901,0,0,-2.1525901,-550.48045,1131.0356)"
       id="g5976">
      <g
         id="g434">
        <g
           id="g436" />
        <g
           id="g466">
          <g
             id="g464"
             clip-path="url(#clipPath440)">
            <g
               id="g462">
              <g
                 id="g460"
                 clip-path="url(#clipPath444)">
                <g
                   id="g458">
                  <g
                     id="g456">
                    <path
                       inkscape:connector-curvature="0"
                       id="path454"
                       style="fill:url(#linearGradient452);stroke:none"
                       d="m 336.449,396.386 c -5.266,-5.264 -14.118,-6.469 -20.597,-2.81 -4.777,2.7 -8.007,7.508 -12.574,10.545 -5.344,3.562 -12.017,4.37 -18.427,4.924 -8.038,0.69 -16.431,1.232 -22.867,6.86 -2.788,2.439 -4.674,5.819 -4.877,9.517 -0.44,8.063 6.632,12.574 13.073,15.893 5.509,2.845 11.607,6.046 13.695,11.882 1.242,3.459 0.831,7.28 1.458,10.901 1.078,6.173 5.456,11.677 11.226,14.125 3.692,1.564 7.876,1.844 11.768,0.921 0.766,-0.182 1.533,-0.358 2.309,-0.488 4.026,-0.678 7.883,-2.323 11.103,-4.838 5.839,-4.575 9.424,-11.895 9.444,-19.314 0.019,-8.465 -4.25,-17.299 -0.918,-25.086 2.024,-4.718 6.486,-7.958 9.005,-12.433 3.661,-6.482 2.447,-15.335 -2.821,-20.599" />
                  </g>
                </g>
              </g>
            </g>
          </g>
        </g>
      </g>
      <g
         id="g468">
        <g
           id="g470" />
        <g
           id="g500">
          <g
             id="g498"
             clip-path="url(#clipPath474)">
            <g
               id="g496">
              <g
                 id="g494"
                 clip-path="url(#clipPath478)">
                <g
                   id="g492">
                  <g
                     id="g490">
                    <path
                       inkscape:connector-curvature="0"
                       id="path488"
                       style="fill:url(#linearGradient486);stroke:none"
                       d="m 268.643,451.707 c 4.875,1.708 10.226,2.007 14.899,4.223 8.303,3.931 13.215,13.305 21.834,16.505 7.957,2.951 17.862,-0.894 21.779,-8.453 2.437,-4.704 2.683,-10.339 5.343,-14.918 3.781,-6.514 11.642,-9.632 16.049,-15.742 4.545,-6.297 4.515,-15.513 -0.066,-21.732 -4.593,-6.22 -13.379,-8.976 -20.734,-6.492 -5.525,1.878 -10.184,6.339 -15.986,6.868 -5.28,0.496 -10.24,-2.406 -14.478,-5.561 -4.25,-3.156 -8.372,-6.83 -13.51,-8.109 -8.477,-2.109 -17.652,1.282 -15.23,12.811 0.664,3.162 2.228,6.184 2.148,9.421 -0.218,7.98 -11.467,12.342 -11.631,20.331 -0.116,5.167 4.701,9.146 9.583,10.848" />
                  </g>
                </g>
              </g>
            </g>
          </g>
        </g>
      </g>
      <g
         transform="matrix(0.87776086,0,0,0.87776086,36.681202,158.09662)"
         id="g158">
        <g
           id="g1178"
           transform="translate(322.0264,299.147)">
          <path
             d="m 0,0 c 0,-2.373 -1.941,-4.315 -4.314,-4.315 h -19.091 c -2.373,0 -4.315,1.942 -4.315,4.315 v 40.85 c 0,2.373 1.942,4.315 4.315,4.315 H -4.314 C -1.941,45.165 0,43.223 0,40.85 Z"
             style="fill:none;stroke:#ffffff;stroke-width:3.42499995;stroke-linecap:butt;stroke-linejoin:miter;stroke-miterlimit:10;stroke-dasharray:none;stroke-opacity:1"
             id="path1180"
             inkscape:connector-curvature="0" />
        </g>
        <path
           d="m 321.827,339.23 h -27.521 v 3.841 h 27.521 z"
           style="fill:#ffffff;fill-opacity:1;fill-rule:nonzero;stroke:none"
           id="path1182"
           inkscape:connector-curvature="0" />
        <path
           d="m 312.51,297.028 h -8.958 v 3.225 h 8.958 z m -17.487,-1.075 h 27.521 v 7.684 h -27.521 z"
           style="fill:#ffffff;fill-opacity:1;fill-rule:nonzero;stroke:none"
           id="path1184"
           inkscape:connector-curvature="0" />
        <g
           id="g1186"
           transform="translate(307.7373,331.0703)">
          <path
             d="m 0,0 c 3.879,-0.124 6.771,-1.419 9.244,-3.711 0.502,-0.466 0.791,-1.007 0.269,-1.59 -0.549,-0.614 -1.142,-0.402 -1.683,0.09 -2.117,1.926 -4.547,3.127 -7.466,3.089 -2.55,-0.032 -4.727,-1.062 -6.669,-2.652 -0.223,-0.183 -0.429,-0.388 -0.652,-0.572 -0.484,-0.4 -1.009,-0.475 -1.468,-0.011 -0.505,0.511 -0.38,1.058 0.1,1.525 1.544,1.503 3.329,2.632 5.404,3.226 C -1.818,-0.291 -0.671,-0.135 0,0"
             style="fill:#ffffff;fill-opacity:1;fill-rule:nonzero;stroke:none"
             id="path1188"
             inkscape:connector-curvature="0" />
        </g>
        <g
           id="g1190"
           transform="translate(307.5732,326.9214)">
          <path
             d="m 0,0 c 2.788,-0.075 4.663,-0.708 6.255,-2.11 0.509,-0.449 0.861,-0.944 0.37,-1.57 -0.516,-0.656 -1.146,-0.499 -1.677,-0.005 -2.288,2.13 -6.239,2.151 -8.552,-0.018 -0.503,-0.47 -1.115,-0.613 -1.616,-0.03 -0.552,0.644 -0.195,1.17 0.353,1.641 C -3.329,-0.768 -1.293,0.006 0,0"
             style="fill:#ffffff;fill-opacity:1;fill-rule:nonzero;stroke:none"
             id="path1192"
             inkscape:connector-curvature="0" />
        </g>
        <g
           id="g1194"
           transform="translate(307.5547,322.5747)">
          <path
             d="M 0,0 C 1.872,-0.05 3.131,-0.475 4.198,-1.417 4.54,-1.718 4.777,-2.05 4.447,-2.47 4.101,-2.911 3.678,-2.805 3.321,-2.473 1.786,-1.044 -0.866,-1.03 -2.42,-2.485 -2.757,-2.801 -3.167,-2.897 -3.503,-2.506 -3.874,-2.073 -3.634,-1.72 -3.267,-1.404 -2.234,-0.515 -0.867,0.004 0,0"
             style="fill:#ffffff;fill-opacity:1;fill-rule:nonzero;stroke:none"
             id="path1196"
             inkscape:connector-curvature="0" />
        </g>
      </g>
    </g>
  </g>
</svg>
