<?xml version="1.0" encoding="UTF-8" standalone="no"?>
<svg
   xmlns:dc="http://purl.org/dc/elements/1.1/"
   xmlns:cc="http://creativecommons.org/ns#"
   xmlns:rdf="http://www.w3.org/1999/02/22-rdf-syntax-ns#"
   xmlns:svg="http://www.w3.org/2000/svg"
   xmlns="http://www.w3.org/2000/svg"
   xmlns:sodipodi="http://sodipodi.sourceforge.net/DTD/sodipodi-0.dtd"
   xmlns:inkscape="http://www.inkscape.org/namespaces/inkscape"
   height="128"
   width="128"
   version="1.1"
   id="svg29"
   sodipodi:docname="compta.svg"
   inkscape:version="0.92.4 5da689c313, 2019-01-14">
  <metadata
     id="metadata35">
    <rdf:RDF>
      <cc:Work
         rdf:about="">
        <dc:format>image/svg+xml</dc:format>
        <dc:type
           rdf:resource="http://purl.org/dc/dcmitype/StillImage" />
        <dc:title></dc:title>
      </cc:Work>
    </rdf:RDF>
  </metadata>
  <defs
     id="defs33">
    <linearGradient
       id="linear0"
       gradientUnits="userSpaceOnUse"
       x1="254"
       y1="233.5"
       x2="254"
       y2="254.66667"
       gradientTransform="matrix(0.0468795,0,0,0.0468795,-2.8613e-6,10.079089)">
      <stop
         offset="0"
         style="stop-color:rgb(0%,0%,0%);stop-opacity:0.27451;"
         id="stop2-3" />
      <stop
         offset="1"
         style="stop-color:rgb(0%,0%,0%);stop-opacity:0;"
         id="stop4-6" />
    </linearGradient>
    <radialGradient
       id="radial0"
       gradientUnits="userSpaceOnUse"
       cx="450.90894"
       cy="189.57936"
       fx="450.90894"
       fy="189.57936"
       r="21.166656"
       gradientTransform="matrix(1.30628e-7,-0.0585994,-0.105479,-7.61539e-8,39.842197,47.696499)">
      <stop
         offset="0"
         style="stop-color:rgb(0%,0%,0%);stop-opacity:0.313726;"
         id="stop7-7" />
      <stop
         offset="0.222222"
         style="stop-color:rgb(0%,0%,0%);stop-opacity:0.27451;"
         id="stop9-5" />
      <stop
         offset="1"
         style="stop-color:rgb(0%,0%,0%);stop-opacity:0;"
         id="stop11" />
    </radialGradient>
    <radialGradient
       id="radial1"
       gradientUnits="userSpaceOnUse"
       cx="450.90894"
       cy="189.57936"
       fx="450.90894"
       fy="189.57936"
       r="21.166656"
       gradientTransform="matrix(-1.30628e-7,0.0585994,0.105479,7.61539e-8,-15.90339,-5.645609)">
      <stop
         offset="0"
         style="stop-color:rgb(0%,0%,0%);stop-opacity:0.313726;"
         id="stop14" />
      <stop
         offset="0.222222"
         style="stop-color:rgb(0%,0%,0%);stop-opacity:0.27451;"
         id="stop16" />
      <stop
         offset="1"
         style="stop-color:rgb(0%,0%,0%);stop-opacity:0;"
         id="stop18" />
    </radialGradient>
    <radialGradient
       id="radial2"
       gradientUnits="userSpaceOnUse"
       cx="450.90894"
       cy="189.57936"
       fx="450.90894"
       fy="189.57936"
       r="21.166656"
       gradientTransform="matrix(-1.30628e-7,-0.0585994,0.105479,-7.61539e-8,-15.90339,47.696499)">
      <stop
         offset="0"
         style="stop-color:rgb(0%,0%,0%);stop-opacity:0.313726;"
         id="stop21" />
      <stop
         offset="0.222222"
         style="stop-color:rgb(0%,0%,0%);stop-opacity:0.27451;"
         id="stop23" />
      <stop
         offset="1"
         style="stop-color:rgb(0%,0%,0%);stop-opacity:0;"
         id="stop25" />
    </radialGradient>
    <radialGradient
       id="radial3"
       gradientUnits="userSpaceOnUse"
       cx="450.90894"
       cy="189.57936"
       fx="450.90894"
       fy="189.57936"
       r="21.166656"
       gradientTransform="matrix(1.30628e-7,0.0585994,-0.105479,7.61539e-8,39.842196,-5.64561)">
      <stop
         offset="0"
         style="stop-color:rgb(0%,0%,0%);stop-opacity:0.313726;"
         id="stop28" />
      <stop
         offset="0.222222"
         style="stop-color:rgb(0%,0%,0%);stop-opacity:0.27451;"
         id="stop30" />
      <stop
         offset="1"
         style="stop-color:rgb(0%,0%,0%);stop-opacity:0;"
         id="stop32" />
    </radialGradient>
    <linearGradient
       id="linear1"
       gradientUnits="userSpaceOnUse"
       x1="254"
       y1="-168.66666"
       x2="254"
       y2="233.5"
       gradientTransform="matrix(0.0468795,0,0,0.0468795,0,10.141104)">
      <stop
         offset="0"
         style="stop-color:rgb(93.333334%,93.333334%,93.333334%);stop-opacity:1;"
         id="stop35" />
      <stop
         offset="1"
         style="stop-color:rgb(87.843138%,87.843138%,87.843138%);stop-opacity:1;"
         id="stop37" />
    </linearGradient>
    <linearGradient
       id="linear2"
       gradientUnits="userSpaceOnUse"
       x1="296.33334"
       y1="127.66668"
       x2="296.33334"
       y2="-105.16666"
       gradientTransform="matrix(0.0468795,0,0,0.0468795,-1.488423,10.079087)">
      <stop
         offset="0"
         style="stop-color:rgb(93.725491%,32.549021%,31.37255%);stop-opacity:1;"
         id="stop40" />
      <stop
         offset="1"
         style="stop-color:rgb(89.803922%,45.09804%,45.09804%);stop-opacity:1;"
         id="stop42" />
    </linearGradient>
    <linearGradient
       id="linear3"
       gradientUnits="userSpaceOnUse"
       x1="306.91666"
       y1="127.66666"
       x2="306.91669"
       y2="-105.16668"
       gradientTransform="matrix(0.0468795,0,0,0.0468795,2.976845,10.079088)">
      <stop
         offset="0"
         style="stop-color:rgb(40.000001%,73.333335%,41.568628%);stop-opacity:1;"
         id="stop45" />
      <stop
         offset="1"
         style="stop-color:rgb(50.588238%,78.039217%,51.764709%);stop-opacity:1;"
         id="stop47" />
    </linearGradient>
    <linearGradient
       id="linear4"
       gradientUnits="userSpaceOnUse"
       x1="306.91666"
       y1="127.66666"
       x2="306.91669"
       y2="-105.1666"
       gradientTransform="matrix(0.0468795,0,0,0.0468795,-8.434401,10.079084)">
      <stop
         offset="0"
         style="stop-color:rgb(14.901961%,65.098041%,60.392159%);stop-opacity:1;"
         id="stop50" />
      <stop
         offset="1"
         style="stop-color:rgb(30.19608%,71.372551%,67.450982%);stop-opacity:1;"
         id="stop52" />
    </linearGradient>
    <linearGradient
       id="linear5"
       gradientUnits="userSpaceOnUse"
       x1="306.91666"
       y1="127.66666"
       x2="306.91672"
       y2="-105.16666"
       gradientTransform="matrix(0.0468795,0,0,0.0468795,-4.465272,10.079088)">
      <stop
         offset="0"
         style="stop-color:rgb(100%,65.490198%,14.901961%);stop-opacity:1;"
         id="stop55" />
      <stop
         offset="1"
         style="stop-color:rgb(100%,71.764708%,30.19608%);stop-opacity:1;"
         id="stop57" />
    </linearGradient>
  </defs>
  <sodipodi:namedview
     pagecolor="#ffffff"
     bordercolor="#666666"
     borderopacity="1"
     objecttolerance="10"
     gridtolerance="10"
     guidetolerance="10"
     inkscape:pageopacity="0"
     inkscape:pageshadow="2"
     inkscape:window-width="1866"
     inkscape:window-height="1016"
     id="namedview31"
     showgrid="false"
     inkscape:zoom="2.6074563"
     inkscape:cx="84.071436"
     inkscape:cy="40.263086"
     inkscape:window-x="54"
     inkscape:window-y="30"
     inkscape:window-maximized="1"
     inkscape:current-layer="svg29"
     showguides="false" />
  <linearGradient
     id="a"
     gradientUnits="userSpaceOnUse"
     x1="362.81501786269"
     x2="362.81501786269"
     y1="245.10665013731"
     y2="525.38367865098">
    <stop
       offset="0"
       stop-color="#f4f4f4"
       id="stop2" />
    <stop
       offset="1"
       stop-color="#dce3ec"
       id="stop4" />
  </linearGradient>
  <linearGradient
     id="b"
     gradientUnits="userSpaceOnUse"
     x1="64.43821741"
     x2="63.83862638457"
     y1="8.41838090179"
     y2="106.97153687812">
    <stop
       offset="0"
       stop-color="#55c3f8"
       id="stop7"
       style="stop-color:#d1d1d1;stop-opacity:1" />
    <stop
       offset="1"
       stop-color="#1484f4"
       id="stop9"
       style="stop-color:#848484;stop-opacity:1" />
  </linearGradient>
  <filter
     id="c"
     color-interpolation-filters="sRGB"
     height="1.074297"
     width="1.069841"
     x="-.034921"
     y="-.037148">
    <feGaussianBlur
       stdDeviation="1.6936817"
       id="feGaussianBlur12" />
  </filter>
  <g
     id="surface1"
     transform="matrix(5.7555487,0,0,5.2716218,-4.4561136,2.2918434)">
    <path
       style="fill:url(#linear0);fill-rule:nonzero;stroke:none"
       d="m 3.84375,21.027344 h 16.25 v 0.992187 h -16.25 z m 0,0"
       id="path62"
       inkscape:connector-curvature="0" />
    <path
       style="fill:url(#radial0);fill-rule:nonzero;stroke:none"
       d="m 20.09375,21.027344 h 1.984375 V 20.03125 H 20.09375 Z m 0,0"
       id="path64"
       inkscape:connector-curvature="0" />
    <path
       style="fill:url(#radial1);fill-rule:nonzero;stroke:none"
       d="M 3.84375,21.027344 H 1.859375 v 0.992187 H 3.84375 Z m 0,0"
       id="path66"
       inkscape:connector-curvature="0" />
    <path
       style="fill:url(#radial2);fill-rule:nonzero;stroke:none"
       d="M 3.84375,21.027344 H 1.859375 V 20.03125 H 3.84375 Z m 0,0"
       id="path68"
       inkscape:connector-curvature="0" />
    <path
       style="fill:url(#radial3);fill-rule:nonzero;stroke:none"
       d="m 20.09375,21.027344 h 1.984375 v 0.992187 H 20.09375 Z m 0,0"
       id="path70"
       inkscape:connector-curvature="0" />
    <path
       style="fill:url(#linear1);fill-rule:nonzero;stroke:none"
       d="m 2.730469,2.234375 h 18.355469 c 0.410156,0 0.746093,0.332031 0.746093,0.742187 V 20.34375 c 0,0.410156 -0.335937,0.742188 -0.746093,0.742188 H 2.730469 c -0.414063,0 -0.746094,-0.332032 -0.746094,-0.742188 V 2.976562 c 0,-0.410156 0.332031,-0.742187 0.746094,-0.742187 z m 0,0"
       id="path72"
       inkscape:connector-curvature="0" />
    <path
       style="fill:#000000;fill-opacity:0.235294;fill-rule:nonzero;stroke:none"
       d="m 2.730469,21.085938 c -0.414063,0 -0.746094,-0.332032 -0.746094,-0.742188 v -0.3125 c 0,0.414062 0.332031,0.746094 0.746094,0.746094 h 18.355469 c 0.414062,0 0.746093,-0.332032 0.746093,-0.746094 v 0.3125 c 0,0.410156 -0.332031,0.742188 -0.746093,0.742188 z m 0,0"
       id="path74"
       inkscape:connector-curvature="0" />
    <path
       style="fill:#ffffff;fill-opacity:1;fill-rule:nonzero;stroke:none"
       d="m 2.730469,2.234375 c -0.414063,0 -0.746094,0.332031 -0.746094,0.742187 v 0.3125 c 0,-0.414062 0.332031,-0.746093 0.746094,-0.746093 h 18.355469 c 0.414062,0 0.746093,0.332031 0.746093,0.746093 v -0.3125 c 0,-0.410156 -0.332031,-0.742187 -0.746093,-0.742187 z m 0,0"
       id="path76"
       inkscape:connector-curvature="0" />
    <path
       style="fill:#1e1e1e;fill-opacity:1;fill-rule:nonzero;stroke:none"
       d="m 2.730469,2.101562 c -0.453125,0 -0.816407,0.363282 -0.816407,0.816407 V 20.28125 c 0,0.449219 0.363282,0.816406 0.816407,0.816406 h 18.355469 c 0.449218,0 0.816406,-0.367187 0.816406,-0.816406 V 2.917969 c 0,-0.453125 -0.367188,-0.816407 -0.816406,-0.816407 z m 0,0.140626 h 18.355469 c 0.375,0 0.675781,0.300781 0.675781,0.675781 V 20.28125 c 0,0.375 -0.300781,0.675781 -0.675781,0.675781 H 2.730469 c -0.375,0 -0.675781,-0.300781 -0.675781,-0.675781 V 2.917969 c 0,-0.375 0.300781,-0.675781 0.675781,-0.675781 z m 0,0"
       id="path78"
       inkscape:connector-curvature="0" />
    <path
       style="fill:url(#linear2);fill-rule:nonzero;stroke:none"
       d="m 12.898438,13.085938 h 1.984374 c 0.277344,0 0.496094,0.222656 0.496094,0.496093 v 1.984375 c 0,0.277344 -0.21875,0.496094 -0.496094,0.496094 h -1.984374 c -0.273438,0 -0.496094,-0.21875 -0.496094,-0.496094 v -1.984375 c 0,-0.273437 0.222656,-0.496093 0.496094,-0.496093 z m 0,0"
       id="path80"
       inkscape:connector-curvature="0" />
    <path
       style="fill:url(#linear3);fill-rule:nonzero;stroke:none"
       d="m 16.867188,6.636719 h 1.984374 c 0.277344,0 0.496094,0.222656 0.496094,0.496093 v 8.433594 c 0,0.277344 -0.21875,0.496094 -0.496094,0.496094 h -1.984374 c -0.273438,0 -0.496094,-0.21875 -0.496094,-0.496094 V 7.132812 c 0,-0.273437 0.222656,-0.496093 0.496094,-0.496093 z m 0,0"
       id="path82"
       inkscape:connector-curvature="0" />
    <path
       style="fill:url(#linear4);fill-rule:nonzero;stroke:none"
       d="m 4.960938,5.148438 h 1.984374 c 0.273438,0 0.496094,0.222656 0.496094,0.496093 v 9.921875 c 0,0.277344 -0.222656,0.496094 -0.496094,0.496094 H 4.960938 c -0.273438,0 -0.496094,-0.21875 -0.496094,-0.496094 V 5.644531 c 0,-0.273437 0.222656,-0.496093 0.496094,-0.496093 z m 0,0"
       id="path84"
       inkscape:connector-curvature="0" />
    <path
       style="fill:url(#linear5);fill-rule:nonzero;stroke:none"
       d="m 8.929688,10.109375 h 1.984374 c 0.273438,0 0.496094,0.222656 0.496094,0.496094 v 4.960937 c 0,0.277344 -0.222656,0.496094 -0.496094,0.496094 H 8.929688 c -0.273438,0 -0.496094,-0.21875 -0.496094,-0.496094 v -4.960937 c 0,-0.273438 0.222656,-0.496094 0.496094,-0.496094 z m 0,0"
       id="path86"
       inkscape:connector-curvature="0" />
    <path
       style="fill:#ffffff;fill-opacity:0.39215698;fill-rule:nonzero;stroke:none"
       d="m 4.960938,5.148438 c -0.273438,0 -0.496094,0.222656 -0.496094,0.496093 v 0.25 c 0,-0.277343 0.222656,-0.496093 0.496094,-0.496093 h 1.984374 c 0.277344,0 0.496094,0.21875 0.496094,0.496093 v -0.25 c 0,-0.273437 -0.21875,-0.496093 -0.496094,-0.496093 z m 11.90625,1.488281 c -0.273438,0 -0.496094,0.222656 -0.496094,0.496093 v 0.25 c 0,-0.277343 0.222656,-0.496093 0.496094,-0.496093 h 1.984374 c 0.277344,0 0.496094,0.21875 0.496094,0.496093 v -0.25 c 0,-0.273437 -0.21875,-0.496093 -0.496094,-0.496093 z m -7.9375,3.472656 c -0.273438,0 -0.496094,0.222656 -0.496094,0.496094 v 0.25 c 0,-0.277344 0.222656,-0.496094 0.496094,-0.496094 h 1.984374 c 0.277344,0 0.496094,0.21875 0.496094,0.496094 v -0.25 c 0,-0.273438 -0.21875,-0.496094 -0.496094,-0.496094 z m 3.96875,2.976563 c -0.273438,0 -0.496094,0.222656 -0.496094,0.496093 v 0.25 c 0,-0.277343 0.222656,-0.496093 0.496094,-0.496093 h 1.984374 c 0.277344,0 0.496094,0.21875 0.496094,0.496093 v -0.25 c 0,-0.273437 -0.21875,-0.496093 -0.496094,-0.496093 z m 0,0"
       id="path88"
       inkscape:connector-curvature="0" />
    <path
       style="fill:#000000;fill-opacity:0.235294;fill-rule:nonzero;stroke:none"
       d="M 4.464844,15.566406 V 16.0625 c 0,0.277344 0.222656,0.496094 0.496094,0.496094 h 1.984374 c 0.277344,0 0.496094,-0.21875 0.496094,-0.496094 v -0.496094 c 0,0.277344 -0.21875,0.496094 -0.496094,0.496094 H 4.960938 c -0.273438,0 -0.496094,-0.21875 -0.496094,-0.496094 z m 3.96875,0 V 16.0625 c 0,0.277344 0.222656,0.496094 0.496094,0.496094 h 1.984374 c 0.277344,0 0.496094,-0.21875 0.496094,-0.496094 v -0.496094 c 0,0.277344 -0.21875,0.496094 -0.496094,0.496094 H 8.929688 c -0.273438,0 -0.496094,-0.21875 -0.496094,-0.496094 z m 3.96875,0 V 16.0625 c 0,0.277344 0.222656,0.496094 0.496094,0.496094 h 1.984374 c 0.277344,0 0.496094,-0.21875 0.496094,-0.496094 v -0.496094 c 0,0.277344 -0.21875,0.496094 -0.496094,0.496094 h -1.984374 c -0.273438,0 -0.496094,-0.21875 -0.496094,-0.496094 z m 3.96875,0 V 16.0625 c 0,0.277344 0.222656,0.496094 0.496094,0.496094 h 1.984374 c 0.277344,0 0.496094,-0.21875 0.496094,-0.496094 v -0.496094 c 0,0.277344 -0.21875,0.496094 -0.496094,0.496094 h -1.984374 c -0.273438,0 -0.496094,-0.21875 -0.496094,-0.496094 z m 0,0"
       id="path90"
       inkscape:connector-curvature="0" />
    <path
       style="fill:none;stroke:#1e1e1e;stroke-width:3;stroke-linecap:butt;stroke-linejoin:round;stroke-miterlimit:4;stroke-opacity:1"
       d="m 275.14039,64.14001 h 42.32929 c 5.9161,0 10.58233,4.749547 10.58233,10.582323 v 42.329287 c 0,5.91611 -4.66623,10.58233 -10.58233,10.58233 h -42.32929 c -5.83277,0 -10.58232,-4.66622 -10.58232,-10.58233 V 74.722333 c 0,-5.832776 4.74955,-10.582323 10.58232,-10.582323 z m 0,0"
       transform="matrix(0.0468795,0,0,0.0468795,0,10.079087)"
       id="path92"
       inkscape:connector-curvature="0" />
    <path
       style="fill:none;stroke:#1e1e1e;stroke-width:3;stroke-linecap:butt;stroke-linejoin:round;stroke-miterlimit:4;stroke-opacity:1"
       d="m 359.79897,-73.430186 h 42.32929 c 5.91611,0 10.58233,4.749547 10.58233,10.582323 V 117.05162 c 0,5.91611 -4.66622,10.58233 -10.58233,10.58233 h -42.32929 c -5.83277,0 -10.58232,-4.66622 -10.58232,-10.58233 V -62.847863 c 0,-5.832776 4.74955,-10.582323 10.58232,-10.582323 z m 0,0"
       transform="matrix(0.0468795,0,0,0.0468795,0,10.079087)"
       id="path94"
       inkscape:connector-curvature="0" />
    <path
       style="fill:none;stroke:#1e1e1e;stroke-width:3;stroke-linecap:butt;stroke-linejoin:round;stroke-miterlimit:4;stroke-opacity:1"
       d="m 105.82323,-105.17715 h 42.32929 c 5.83277,0 10.58232,4.74954 10.58232,10.582319 V 117.05162 c 0,5.91611 -4.74955,10.58233 -10.58232,10.58233 h -42.32929 c -5.832779,0 -10.582325,-4.66622 -10.582325,-10.58233 V -94.594831 c 0,-5.832779 4.749546,-10.582319 10.582325,-10.582319 z m 0,0"
       transform="matrix(0.0468795,0,0,0.0468795,0,10.079087)"
       id="path96"
       inkscape:connector-curvature="0" />
    <path
       style="fill:none;stroke:#1e1e1e;stroke-width:3;stroke-linecap:butt;stroke-linejoin:round;stroke-miterlimit:4;stroke-opacity:1"
       d="m 190.48181,0.646073 h 42.32929 c 5.83278,0 10.58232,4.749547 10.58232,10.582323 V 117.05162 c 0,5.91611 -4.74954,10.58233 -10.58232,10.58233 h -42.32929 c -5.83278,0 -10.58232,-4.66622 -10.58232,-10.58233 V 11.228396 c 0,-5.832776 4.74954,-10.582323 10.58232,-10.582323 z m 0,0"
       transform="matrix(0.0468795,0,0,0.0468795,0,10.079087)"
       id="path98"
       inkscape:connector-curvature="0" />
  </g>
</svg>
