<?xml version="1.0" encoding="UTF-8" standalone="no"?>
<svg
   xmlns:dc="http://purl.org/dc/elements/1.1/"
   xmlns:cc="http://creativecommons.org/ns#"
   xmlns:rdf="http://www.w3.org/1999/02/22-rdf-syntax-ns#"
   xmlns:svg="http://www.w3.org/2000/svg"
   xmlns="http://www.w3.org/2000/svg"
   xmlns:sodipodi="http://sodipodi.sourceforge.net/DTD/sodipodi-0.dtd"
   xmlns:inkscape="http://www.inkscape.org/namespaces/inkscape"
   height="128"
   width="128"
   version="1.1"
   id="svg55"
   sodipodi:docname="download.svg"
   inkscape:version="0.92.2 2405546, 2018-03-11">
  <metadata
     id="metadata61">
    <rdf:RDF>
      <cc:Work
         rdf:about="">
        <dc:format>image/svg+xml</dc:format>
        <dc:type
           rdf:resource="http://purl.org/dc/dcmitype/StillImage" />
      </cc:Work>
    </rdf:RDF>
  </metadata>
  <defs
     id="defs59" />
  <sodipodi:namedview
     pagecolor="#ffffff"
     bordercolor="#666666"
     borderopacity="1"
     objecttolerance="10"
     gridtolerance="10"
     guidetolerance="10"
     inkscape:pageopacity="0"
     inkscape:pageshadow="2"
     inkscape:window-width="1393"
     inkscape:window-height="730"
     id="namedview57"
     showgrid="false"
     inkscape:zoom="1.84375"
     inkscape:cx="64"
     inkscape:cy="64"
     inkscape:window-x="0"
     inkscape:window-y="27"
     inkscape:window-maximized="0"
     inkscape:current-layer="g53" />
  <linearGradient
     id="a"
     gradientUnits="userSpaceOnUse"
     x1="-33.76462570504"
     x2="-33.76462570504"
     y1="1105.881971868"
     y2="1113.1935123816">
    <stop
       offset="0"
       stop-color="#a5e3fe"
       id="stop2" />
    <stop
       offset="1"
       stop-color="#b6e7fe"
       id="stop4" />
  </linearGradient>
  <linearGradient
     id="b"
     gradientUnits="userSpaceOnUse"
     x1="-24.33128572721"
     x2="-24.33128572721"
     y1="1110.91035564746"
     y2="1147.22786238757">
    <stop
       offset="0"
       stop-color="#75d3f9"
       id="stop7" />
    <stop
       offset=".5"
       stop-color="#84dafd"
       id="stop9" />
    <stop
       offset="1"
       stop-color="#81d4f6"
       id="stop11" />
  </linearGradient>
  <linearGradient
     id="c"
     gradientUnits="userSpaceOnUse"
     x1="-34.46542705667"
     x2="-34.46542705667"
     y1="1109.70835527696"
     y2="1111.6424560796">
    <stop
       offset="0"
       stop-color="#a5e3fe"
       stop-opacity="0"
       id="stop14" />
    <stop
       offset="1"
       stop-color="#c2ebfe"
       stop-opacity=".742537"
       id="stop16" />
  </linearGradient>
  <filter
     id="d"
     color-interpolation-filters="sRGB"
     height="1.040659"
     width="1.032299"
     x="-.01615"
     y="-.020329">
    <feGaussianBlur
       stdDeviation=".81567628"
       id="feGaussianBlur19" />
  </filter>
  <linearGradient
     id="e"
     gradientUnits="userSpaceOnUse"
     x1="-20.69792323948"
     x2="-20.70145100969"
     y1="1114.87359601031"
     y2="1136.44399380461"
     gradientTransform="matrix(1,0,0,0.76695863,0,262.0005)">
    <stop
       offset="0"
       stop-color="#1296d5"
       id="stop22" />
    <stop
       offset="1"
       stop-color="#4fb6e8"
       id="stop24" />
  </linearGradient>
  <g
     transform="matrix(2.213863,0,0,2.6173113,109.49069,-2879.829)"
     id="g53">
    <path
       d="m 7.6230469,27.083984 c -2.5051343,0 -4.5214844,2.016277 -4.5214844,4.521485 v 15.25 56.753911 15.24804 c 0,2.50521 2.0163501,4.52149 4.5214844,4.52149 H 119.71289 c 2.50514,0 4.52344,-2.01628 4.52344,-4.52149 v -7.94336 -46.158201 c 0.0499,-0.336064 0.084,-0.676121 0.084,-1.021484 V 44.044922 c 0,-0.377021 -0.0332,-0.743542 -0.084,-1.103516 v -1.595703 c 0,-2.504986 -2.0183,-4.521484 -4.52344,-4.521484 H 48.75 c -4.235777,0 -6.116942,-9.740235 -10.644531,-9.740235 z"
       transform="matrix(0.45169913,0,0,0.45169913,-49.456849,1091.7099)"
       id="path27"
       inkscape:connector-curvature="0"
       style="opacity:0.18999999;filter:url(#d)" />
    <path
       d="m -46.013647,1103.9436 c -1.131567,0 -2.042289,0.9113 -2.042289,2.0429 v 32.5235 c 0,1.1316 0.910722,2.0423 2.042289,2.0423 h 0.739172 c 0.174211,0.051 0.358352,0.079 0.549527,0.079 H 3.3290144 c 1.0739668,0 1.9385959,2.2673 1.9385959,1.1933 v -1.0286 c 0.8108474,0.5767 1.3929488,1.9171 1.3929488,1.0131 v -20.8493 c 0.022543,-0.1518 0.03826,-0.3054 0.03826,-0.4614 v -8.8939 c 0,-0.1703 -0.015331,-0.3359 -0.03826,-0.4985 v -0.7209 c 0,-1.1315 -0.9112788,-2.0422 -2.0428459,-2.0422 H -27.436745 c -1.913297,0 -2.763116,-4.3996 -4.808224,-4.3996 z"
       id="path29"
       style="fill:url(#a)"
       inkscape:connector-curvature="0" />
    <path
       d="m -46.013647,1103.9436 c -1.131567,0 -2.042289,0.9113 -2.042289,2.0429 v 32.5235 c 0,1.1316 0.910722,2.0423 2.042289,2.0423 H 4.6177132 c 1.1315671,0 2.0428459,2.3887 2.0428459,1.2571 v -20.8493 c 0.022543,-0.1518 0.03826,-0.3054 0.03826,-0.4614 v -8.8939 c 0,-0.1703 -0.015331,-0.3359 -0.03826,-0.4985 v -0.7209 c 0,-1.1315 -0.9112788,-2.0422 -2.0428459,-2.0422 H -27.436745 c -1.913297,0 -2.763116,-4.3996 -4.808224,-4.3996 z"
       id="path31"
       style="fill:url(#c)"
       inkscape:connector-curvature="0" />
    <path
       d="M -46.013636,1110.8318 H 4.6177978 c 1.1315673,0 2.0425393,0.911 2.0425393,2.0425 v 32.5236 c 0,1.1316 -0.910972,2.0425 -2.0425393,2.0425 H -46.013636 c -1.131567,0 -2.04254,-0.9109 -2.04254,-2.0425 v -32.5236 c 0,-1.1315 0.910973,-2.0425 2.04254,-2.0425 z"
       id="path33"
       style="fill:url(#b)"
       inkscape:connector-curvature="0" />
    <g
       id="g41"
       style="fill:#6fc1ec">
      <path
         d="m 3.2402344,173.16211 c 0.04118,0.23715 0.094771,0.47068 0.1582031,0.69922 H 197.55273 c 0.0634,-0.22854 0.11703,-0.46207 0.15821,-0.69922 z"
         transform="matrix(0.28102797,0,0,0.28102797,-48.934332,1097.0882)"
         id="path35"
         inkscape:connector-curvature="0" />
      <path
         d="m 3.125,168.32227 v 0.70117 h 194.70117 v -0.70117 z"
         transform="matrix(0.28102797,0,0,0.28102797,-48.934332,1097.0882)"
         id="path37"
         inkscape:connector-curvature="0" />
      <path
         d="m 3.125,162.65625 v 0.69922 h 194.70117 v -0.69922 z"
         transform="matrix(0.28102797,0,0,0.28102797,-48.934332,1097.0882)"
         id="path39"
         inkscape:connector-curvature="0" />
    </g>
    <path
       d="m -48.073953,1143.0198 v 0.2531 H 6.6613415 v -0.2784 z"
       id="path43"
       inkscape:connector-curvature="0"
       style="fill:#abdbf4" />
    <path
       d="m -48.073953,1144.5971 v 0.2531 H 6.6613415 v -0.2785 z"
       id="path45"
       inkscape:connector-curvature="0"
       style="fill:#abdbf4" />
    <path
       d="m -48.073953,1145.9391 v 0.2531 H 6.6613415 v -0.2785 z"
       id="path47"
       inkscape:connector-curvature="0"
       style="fill:#abdbf4" />
    <path
       d="m 7.6230469,27.083984 c -2.5051343,0 -4.5214844,2.016277 -4.5214844,4.521485 v 15.25 56.753911 15.24804 c 0,2.50521 2.0163501,4.52149 4.5214844,4.52149 H 119.71289 c 2.50514,0 4.52344,-2.01628 4.52344,-4.52149 v -7.94336 -46.158201 c 0.0499,-0.336064 0.084,-0.676121 0.084,-1.021484 V 44.044922 c 0,-0.377021 -0.0332,-0.743542 -0.084,-1.103516 v -1.595703 c 0,-2.504986 -2.0183,-4.521484 -4.52344,-4.521484 H 48.75 c -4.235777,0 -6.116942,-9.740235 -10.644531,-9.740235 z m 0,0.900391 H 38.105469 c 0.809202,0 1.540791,0.4263 2.330078,1.246094 0.789289,0.819572 1.562613,1.995969 2.34375,3.210937 0.781137,1.214747 1.569118,2.466274 2.496094,3.470703 0.926973,1.00443 2.070736,1.8125 3.474609,1.8125 h 70.96289 c 2.02217,0 3.62305,1.599616 3.62305,3.621094 v 1.658203 l 0.01,0.0625 c 0.0466,0.330087 0.0742,0.654185 0.0742,0.978516 v 19.689453 c 0,0.286031 -0.0285,0.580945 -0.0742,0.888672 l -0.01,0.06641 v 46.224607 7.94336 c 0,2.02192 -1.60082,3.6211 -3.62305,3.6211 H 7.6230469 c -2.02222,0 -3.6210938,-1.59873 -3.6210938,-3.6211 v -15.24804 -56.753911 -15.25 c 0,-2.022364 1.5988738,-3.621094 3.6210938,-3.621094 z"
       transform="matrix(0.45169913,0,0,0.45169913,-49.456849,1091.7099)"
       id="path49"
       inkscape:connector-curvature="0"
       style="fill:#ffffff;fill-opacity:0.48837202" />
    <path
       d="m -20.697919,1117.0626 a 12.893473,9.8887604 0 0 0 -12.893716,9.889 12.893473,9.8887604 0 0 0 12.893716,9.8889 12.893473,9.8887604 0 0 0 12.8937152,-9.8889 12.893473,9.8887604 0 0 0 -12.8937152,-9.889 z m -2.6502,4.2046 h 5.062205 c 0.287538,0 0.51963,0.1774 0.51963,0.3979 v 5.1985 c 2.359275,-0.01 4.189745,0.021 4.053824,0.1252 -0.373889,0.2867 -6.988987,6.6174 -6.988987,6.6174 l -6.988102,-6.6174 c 0,0 1.731354,-0.03 3.821795,-0.061 v -5.2622 c 0,-0.2205 0.232087,-0.3979 0.519635,-0.3979 z"
       id="path51"
       style="opacity:0.50400002;fill:url(#e);stroke-width:0.87576175"
       inkscape:connector-curvature="0" />
  </g>
</svg>
