<?xml version="1.0" encoding="UTF-8" standalone="no"?>
<!-- Created with Inkscape (http://www.inkscape.org/) -->

<svg
   xmlns:dc="http://purl.org/dc/elements/1.1/"
   xmlns:cc="http://creativecommons.org/ns#"
   xmlns:rdf="http://www.w3.org/1999/02/22-rdf-syntax-ns#"
   xmlns:svg="http://www.w3.org/2000/svg"
   xmlns="http://www.w3.org/2000/svg"
   xmlns:sodipodi="http://sodipodi.sourceforge.net/DTD/sodipodi-0.dtd"
   xmlns:inkscape="http://www.inkscape.org/namespaces/inkscape"
   width="240px"
   height="160px"
   viewBox="0 0 240 160"
   version="1.1"
   id="SVGRoot"
   inkscape:version="0.92.3 (2405546, 2018-03-11)"
   sodipodi:docname="radio.svg">
  <sodipodi:namedview
     id="base"
     pagecolor="#ffffff"
     bordercolor="#666666"
     borderopacity="1.0"
     inkscape:pageopacity="0.0"
     inkscape:pageshadow="2"
     inkscape:zoom="1.4"
     inkscape:cx="-59.943516"
     inkscape:cy="86.570037"
     inkscape:document-units="px"
     inkscape:current-layer="layer1"
     showgrid="false"
     inkscape:window-width="1853"
     inkscape:window-height="1025"
     inkscape:window-x="67"
     inkscape:window-y="27"
     inkscape:window-maximized="1" />
  <defs
     id="defs480">
    <clipPath
       id="clip1">
      <rect
         id="rect109"
         y="0"
         x="0"
         height="384"
         width="384" />
    </clipPath>
    <mask
       id="mask0">
      <g
         style="filter:url(#alpha)"
         id="g106">
        <rect
           id="rect104"
           style="fill:#000000;fill-opacity:0.2"
           y="0"
           x="0"
           height="384"
           width="384" />
      </g>
    </mask>
    <filter
       filterUnits="objectBoundingBox"
       y="0"
       x="0"
       height="1"
       width="1"
       id="alpha">
      <feColorMatrix
         id="feColorMatrix101"
         values="0 0 0 0 1 0 0 0 0 1 0 0 0 0 1 0 0 0 1 0"
         type="matrix"
         in="SourceGraphic" />
    </filter>
    <clipPath
       id="clipPath323">
      <rect
         id="rect321"
         y="0"
         x="0"
         height="384"
         width="384" />
    </clipPath>
    <clipPath
       id="clip2">
      <rect
         id="rect120"
         y="0"
         x="0"
         height="384"
         width="384" />
    </clipPath>
    <mask
       id="mask1">
      <g
         style="filter:url(#alpha)"
         id="g117">
        <rect
           id="rect115"
           style="fill:#000000;fill-opacity:0.2"
           y="0"
           x="0"
           height="384"
           width="384" />
      </g>
    </mask>
    <filter
       filterUnits="objectBoundingBox"
       y="0"
       x="0"
       height="1"
       width="1"
       id="filter332">
      <feColorMatrix
         id="feColorMatrix330"
         values="0 0 0 0 1 0 0 0 0 1 0 0 0 0 1 0 0 0 1 0"
         type="matrix"
         in="SourceGraphic" />
    </filter>
    <clipPath
       id="clipPath336">
      <rect
         id="rect334"
         y="0"
         x="0"
         height="384"
         width="384" />
    </clipPath>
    <clipPath
       id="clip3">
      <rect
         id="rect131"
         y="0"
         x="0"
         height="384"
         width="384" />
    </clipPath>
    <mask
       id="mask2">
      <g
         style="filter:url(#alpha)"
         id="g128">
        <rect
           id="rect126"
           style="fill:#000000;fill-opacity:0.2"
           y="0"
           x="0"
           height="384"
           width="384" />
      </g>
    </mask>
    <filter
       filterUnits="objectBoundingBox"
       y="0"
       x="0"
       height="1"
       width="1"
       id="filter345">
      <feColorMatrix
         id="feColorMatrix343"
         values="0 0 0 0 1 0 0 0 0 1 0 0 0 0 1 0 0 0 1 0"
         type="matrix"
         in="SourceGraphic" />
    </filter>
    <clipPath
       id="clipPath349">
      <rect
         id="rect347"
         y="0"
         x="0"
         height="384"
         width="384" />
    </clipPath>
    <clipPath
       id="clip4">
      <rect
         id="rect142"
         y="0"
         x="0"
         height="384"
         width="384" />
    </clipPath>
    <mask
       id="mask3">
      <g
         style="filter:url(#alpha)"
         id="g139">
        <rect
           id="rect137"
           style="fill:#000000;fill-opacity:0.2"
           y="0"
           x="0"
           height="384"
           width="384" />
      </g>
    </mask>
    <filter
       filterUnits="objectBoundingBox"
       y="0"
       x="0"
       height="1"
       width="1"
       id="filter358">
      <feColorMatrix
         id="feColorMatrix356"
         values="0 0 0 0 1 0 0 0 0 1 0 0 0 0 1 0 0 0 1 0"
         type="matrix"
         in="SourceGraphic" />
    </filter>
    <clipPath
       id="clipPath362">
      <rect
         id="rect360"
         y="0"
         x="0"
         height="384"
         width="384" />
    </clipPath>
    <clipPath
       id="clip5">
      <rect
         id="rect153"
         y="0"
         x="0"
         height="384"
         width="384" />
    </clipPath>
    <mask
       id="mask4">
      <g
         style="filter:url(#alpha)"
         id="g150">
        <rect
           id="rect148"
           style="fill:#000000;fill-opacity:0.2"
           y="0"
           x="0"
           height="384"
           width="384" />
      </g>
    </mask>
    <filter
       filterUnits="objectBoundingBox"
       y="0"
       x="0"
       height="1"
       width="1"
       id="filter371">
      <feColorMatrix
         id="feColorMatrix369"
         values="0 0 0 0 1 0 0 0 0 1 0 0 0 0 1 0 0 0 1 0"
         type="matrix"
         in="SourceGraphic" />
    </filter>
    <clipPath
       id="clipPath375">
      <rect
         id="rect373"
         y="0"
         x="0"
         height="384"
         width="384" />
    </clipPath>
    <clipPath
       id="clip6">
      <rect
         id="rect164"
         y="0"
         x="0"
         height="384"
         width="384" />
    </clipPath>
    <mask
       id="mask5">
      <g
         style="filter:url(#alpha)"
         id="g161">
        <rect
           id="rect159"
           style="fill:#000000;fill-opacity:0.2"
           y="0"
           x="0"
           height="384"
           width="384" />
      </g>
    </mask>
    <filter
       filterUnits="objectBoundingBox"
       y="0"
       x="0"
       height="1"
       width="1"
       id="filter384">
      <feColorMatrix
         id="feColorMatrix382"
         values="0 0 0 0 1 0 0 0 0 1 0 0 0 0 1 0 0 0 1 0"
         type="matrix"
         in="SourceGraphic" />
    </filter>
    <clipPath
       id="clipPath388">
      <rect
         id="rect386"
         y="0"
         x="0"
         height="384"
         width="384" />
    </clipPath>
    <clipPath
       id="clip7">
      <rect
         id="rect175"
         y="0"
         x="0"
         height="384"
         width="384" />
    </clipPath>
    <mask
       id="mask6">
      <g
         style="filter:url(#alpha)"
         id="g172">
        <rect
           id="rect170"
           style="fill:#000000;fill-opacity:0.2"
           y="0"
           x="0"
           height="384"
           width="384" />
      </g>
    </mask>
    <filter
       filterUnits="objectBoundingBox"
       y="0"
       x="0"
       height="1"
       width="1"
       id="filter397">
      <feColorMatrix
         id="feColorMatrix395"
         values="0 0 0 0 1 0 0 0 0 1 0 0 0 0 1 0 0 0 1 0"
         type="matrix"
         in="SourceGraphic" />
    </filter>
    <clipPath
       id="clipPath401">
      <rect
         id="rect399"
         y="0"
         x="0"
         height="384"
         width="384" />
    </clipPath>
    <clipPath
       id="clip9">
      <rect
         id="rect186"
         y="0"
         x="0"
         height="384"
         width="384" />
    </clipPath>
    <mask
       id="mask8">
      <g
         style="filter:url(#alpha)"
         id="g183">
        <rect
           id="rect181"
           style="fill:#000000;fill-opacity:0.10196102"
           y="0"
           x="0"
           height="384"
           width="384" />
      </g>
    </mask>
    <filter
       filterUnits="objectBoundingBox"
       y="0"
       x="0"
       height="1"
       width="1"
       id="filter410">
      <feColorMatrix
         id="feColorMatrix408"
         values="0 0 0 0 1 0 0 0 0 1 0 0 0 0 1 0 0 0 1 0"
         type="matrix"
         in="SourceGraphic" />
    </filter>
    <clipPath
       id="clipPath414">
      <rect
         id="rect412"
         y="0"
         x="0"
         height="384"
         width="384" />
    </clipPath>
  </defs>
  <metadata
     id="metadata483">
    <rdf:RDF>
      <cc:Work
         rdf:about="">
        <dc:format>image/svg+xml</dc:format>
        <dc:type
           rdf:resource="http://purl.org/dc/dcmitype/StillImage" />
        <dc:title></dc:title>
      </cc:Work>
    </rdf:RDF>
  </metadata>
  <g
     id="layer1"
     inkscape:groupmode="layer"
     inkscape:label="Calque 1">
    <g
       id="g224"
       transform="matrix(0.5662916,0,0,0.5662916,15.557729,-18.691782)">
      <g
         id="g220">
        <path
           id="path194"
           style="fill:#4a4a4a"
           d="M 343.19922,60 H 40.800781 C 31.523438,60 24,66.324373 24,74.126998 V 271.90496 c 0,7.80263 7.523438,14.127 16.800781,14.127 H 343.19922 c 9.27734,0 16.80078,-6.32437 16.80078,-14.127 V 74.126998 C 360,66.324373 352.47656,60 343.19922,60 Z m 0,0"
           inkscape:connector-curvature="0" />
        <g
           id="use196"
           clip-path="url(#clip1)"
           transform="translate(0,-28.5)">
          <path
             inkscape:connector-curvature="0"
             style="fill:#000000"
             d="m 216,192 c 0,46.39062 -37.60938,84 -84,84 -46.390625,0 -84,-37.60938 -84,-84 0,-46.39063 37.609375,-84 84,-84 46.39062,0 84,37.60937 84,84 z m 0,0"
             id="path692" />
        </g>
        <path
           id="path198"
           style="fill:#fd4747"
           d="m 72.601562,104.09766 c -2.824218,2.85937 -5.4375,5.91796 -7.820312,9.14843 l 25.894531,25.90625 c -11.105469,18.83985 -8.070312,42.80469 7.375,58.28516 15.476559,15.4375 39.425779,18.46094 58.249999,7.35937 l 25.89844,25.90235 c 3.23437,-2.37891 6.29687,-4.98828 9.16015,-7.80469 2.82422,-2.85937 5.4375,-5.91406 7.82032,-9.14844 l -25.89844,-25.89453 c 11.10156,-18.84375 8.06641,-42.80859 -7.37891,-58.28515 -15.47265,-15.4375 -39.42187,-18.46875 -58.25,-7.3711 L 81.757812,96.30078 c -3.238281,2.38281 -6.300781,4.99219 -9.167968,7.8125 z m 0,0"
           inkscape:connector-curvature="0" />
        <g
           id="use200"
           clip-path="url(#clip2)"
           transform="translate(0,-28.5)">
          <path
             inkscape:connector-curvature="0"
             style="fill:#000000"
             d="m 156,198 c 0,13.25391 -10.74609,24 -24,24 -13.25391,0 -24,-10.74609 -24,-24 0,-13.25391 10.74609,-24 24,-24 13.25391,0 24,10.74609 24,24 z m 0,0"
             id="path696" />
        </g>
        <path
           id="path202"
           style="fill:#e6e6e6"
           d="m 156,163.5 c 0,13.25391 -10.74609,24 -24,24 -13.25391,0 -24,-10.74609 -24,-24 0,-13.25391 10.74609,-24 24,-24 13.25391,0 24,10.74609 24,24 z m 0,0"
           inkscape:connector-curvature="0" />
        <g
           id="use204"
           clip-path="url(#clip3)">
          <path
             inkscape:connector-curvature="0"
             style="fill:#000000"
             d="m 252,120 h 72 c 6.62891,0 12,5.37109 12,12 0,6.62891 -5.37109,12 -12,12 h -72 c -6.62891,0 -12,-5.37109 -12,-12 0,-6.62891 5.37109,-12 12,-12 z m 0,0"
             id="path700" />
        </g>
        <g
           id="use206"
           clip-path="url(#clip4)"
           transform="translate(0,-36)">
          <path
             inkscape:connector-curvature="0"
             style="fill:#000000"
             d="m 336,288 c 0,9.94141 -8.05859,18 -18,18 -9.94141,0 -18,-8.05859 -18,-18 0,-9.94141 8.05859,-18 18,-18 9.94141,0 18,8.05859 18,18 z m 0,0"
             id="path704" />
        </g>
        <path
           id="path208"
           style="fill:#4aaee6"
           d="m 336,246 c 0,9.94141 -8.05859,18 -18,18 -9.94141,0 -18,-8.05859 -18,-18 0,-9.94141 8.05859,-18 18,-18 9.94141,0 18,8.05859 18,18 z m 0,0"
           inkscape:connector-curvature="0" />
        <g
           id="use210"
           clip-path="url(#clip5)"
           transform="translate(0,-36)">
          <path
             inkscape:connector-curvature="0"
             style="fill:#000000"
             d="m 287.99219,288 c 0,9.94141 -8.0586,18 -18,18 -9.9375,0 -18,-8.05859 -18,-18 0,-9.94141 8.0625,-18 18,-18 9.9414,0 18,8.05859 18,18 z m 0,0"
             id="path708" />
        </g>
        <path
           id="path212"
           style="fill:#4aaee6"
           d="m 287.99219,246 c 0,9.94141 -8.0586,18 -18,18 -9.9375,0 -18,-8.05859 -18,-18 0,-9.94141 8.0625,-18 18,-18 9.9414,0 18,8.05859 18,18 z m 0,0"
           inkscape:connector-curvature="0" />
        <g
           id="use214"
           clip-path="url(#clip6)">
          <path
             inkscape:connector-curvature="0"
             style="fill:#000000"
             d="m 252,156 h 72 c 6.62891,0 12,5.37109 12,12 0,6.62891 -5.37109,12 -12,12 h -72 c -6.62891,0 -12,-5.37109 -12,-12 0,-6.62891 5.37109,-12 12,-12 z m 0,0"
             id="path712" />
        </g>
        <g
           id="use216"
           clip-path="url(#clip7)">
          <path
             inkscape:connector-curvature="0"
             style="fill:#000000"
             d="m 252,192 h 72 c 6.62891,0 12,5.37109 12,12 0,6.62891 -5.37109,12 -12,12 h -72 c -6.62891,0 -12,-5.37109 -12,-12 0,-6.62891 5.37109,-12 12,-12 z m 0,0"
             id="path716" />
        </g>
        <g
           id="use218"
           clip-path="url(#clip9)">
          <path
             inkscape:connector-curvature="0"
             style="fill:#ffffff"
             d="M 40.804688,60 C 31.496094,60 24,67.355469 24,76.492188 V 82.5 C 24,73.363281 31.496094,66.007812 40.804688,66.007812 H 343.19531 C 352.49609,66.007812 360,73.363281 360,82.5 V 76.492188 C 360,67.355469 352.49609,60 343.19531,60 Z m 0,0"
             id="path720" />
        </g>
      </g>
      <path
         id="path222"
         transform="scale(0.75)"
         d="m 32,352.53906 v 10 C 32,372.94258 42.030599,381.375 54.400391,381.375 H 457.59961 C 469.96941,381.375 480,372.94258 480,362.53906 v -10 c 0,10.40352 -10.03059,18.83594 -22.40039,18.83594 H 54.400391 C 42.0306,371.375 32,362.94258 32,352.53906 Z"
         inkscape:connector-curvature="0" />
    </g>
  </g>
</svg>
