<?xml version="1.0" encoding="UTF-8" standalone="no"?>
<!-- Created with Inkscape (http://www.inkscape.org/) -->
<svg xmlns:inkscape="http://www.inkscape.org/namespaces/inkscape" xmlns:rdf="http://www.w3.org/1999/02/22-rdf-syntax-ns#" xmlns="http://www.w3.org/2000/svg" xmlns:sodipodi="http://sodipodi.sourceforge.net/DTD/sodipodi-0.dtd" xmlns:cc="http://creativecommons.org/ns#" xmlns:xlink="http://www.w3.org/1999/xlink" xmlns:dc="http://purl.org/dc/elements/1.1/" xmlns:svg="http://www.w3.org/2000/svg" xmlns:ns1="http://sozi.baierouge.fr" id="svg1347" sodipodi:docname="papers_francesco_rolland_.svg" viewBox="0 0 380.31 372.28" sodipodi:version="0.32" version="1.0" inkscape:output_extension="org.inkscape.output.svg.inkscape" inkscape:version="0.46" sodipodi:docbase="C:\Documents and Settings\All Users\Documenti\openclip">
  <defs id="defs3">
    <linearGradient id="linearGradient11733" y2="256.01" gradientUnits="userSpaceOnUse" y1="474.06" gradientTransform="matrix(1.0503 0 0 .95214 .93522 -140.29)" x2="37.909" x1="274.24" inkscape:collect="always">
      <stop id="stop11729" style="stop-color:#9e7e4d" offset="0"/>
      <stop id="stop11731" style="stop-color:#d8a279" offset="1"/>
    </linearGradient>
    <linearGradient id="linearGradient8679" y2="242.28" gradientUnits="userSpaceOnUse" y1="397.98" gradientTransform="matrix(1.0356 0 0 .96564 .93522 -143.7)" x2="52.217" x1="201.37" inkscape:collect="always">
      <stop id="stop8675" style="stop-color:#fc9f3c" offset="0"/>
      <stop id="stop8677" style="stop-color:#f6e47f" offset="1"/>
    </linearGradient>
    <linearGradient id="linearGradient5639" y2="282.79" gradientUnits="userSpaceOnUse" y1="471.31" gradientTransform="matrix(.92476 -.31626 .33288 .96752 .93522 -140.29)" x2="71.496" x1="198.25" inkscape:collect="always">
      <stop id="stop5635" style="stop-color:#c68408" offset="0"/>
      <stop id="stop5637" style="stop-color:#d3aa5c" offset="1"/>
    </linearGradient>
  </defs>
  <sodipodi:namedview id="base" bordercolor="#666666" inkscape:pageshadow="2" inkscape:window-width="640" pagecolor="#ffffff" inkscape:zoom="0.34379203" inkscape:window-x="133" showgrid="false" borderopacity="1.0" inkscape:current-layer="layer1" inkscape:cx="197.96989" inkscape:cy="580.25324" inkscape:window-y="26" inkscape:window-height="667" inkscape:pageopacity="0.0" inkscape:document-units="px"/>
  <g id="layer1" inkscape:label="Layer 1" inkscape:groupmode="layer" transform="translate(-16.04 -16.633)">
    <path id="path3355" sodipodi:nodetypes="ccccccccc" style="fill:#51515a;fill-opacity:.26275" d="m18.326 186.82l158.14-111.3c2.39-1.674 5.64-1.139 7.28 1.2l178.34 163.16c1.64 2.34 1.03 5.57-1.36 7.25l-162.85 140.81c-2.4 1.67-5.65 1.14-7.29-1.2l-173.63-192.68c-1.639-2.34-1.03-5.57 1.366-7.24z"/>
    <path id="path3357" sodipodi:nodetypes="ccccccccc" style="stroke-opacity:.82609;stroke:#f2be61;stroke-width:2;fill:url(#linearGradient11733)" d="m19.46 174.72l158.14-111.3c2.4-1.672 5.65-1.137 7.29 1.202l178.34 163.16c1.64 2.34 1.03 5.57-1.37 7.25l-162.85 140.81c-2.39 1.67-5.64 1.14-7.28-1.2l-173.64-192.67c-1.635-2.34-1.026-5.57 1.37-7.25z"/>
    <path id="path3353" sodipodi:nodetypes="ccccccccc" style="fill:#51515a;fill-opacity:.26275" d="m25.983 157.06l172.25-87.908c2.61-1.32 5.75-0.332 7.04 2.215l153.58 186.66c1.29 2.54 0.23 5.65-2.38 6.97l-181.06 116.47c-2.6 1.32-5.75 0.33-7.04-2.21l-144.76-215.22c-1.293-2.54-0.235-5.66 2.373-6.98z"/>
    <path id="path3351" sodipodi:nodetypes="ccccccccc" style="stroke:#fcf035;stroke-width:2;fill:url(#linearGradient8679)" d="m27.062 145.25l172.25-87.914c2.6-1.319 5.75-0.331 7.04 2.215l153.57 186.66c1.3 2.55 0.24 5.66-2.37 6.98l-181.06 116.46c-2.61 1.32-5.75 0.34-7.04-2.21l-144.76-215.21c-1.295-2.55-0.237-5.66 2.372-6.98z"/>
    <path id="path3349" sodipodi:nodetypes="ccccccccc" style="fill:#51515a;fill-opacity:.26087" d="m76.511 93.424l182.75-63.225c2.77-0.946 5.75 0.467 6.67 3.168l126.27 206.11c0.93 2.71-0.55 5.64-3.32 6.59l-195.44 90.28c-2.76 0.95-5.74-0.46-6.67-3.17l-113.57-233.17c-0.934-2.704 0.545-5.64 3.311-6.586z"/>
    <path id="rect2588" sodipodi:nodetypes="ccccccccc" style="stroke:#ffbc17;stroke-width:2;fill:url(#linearGradient5639)" d="m79.391 81.152l182.75-63.225c2.77-0.946 5.75 0.467 6.68 3.169l126.26 206.11c0.93 2.7-0.55 5.64-3.32 6.59l-195.44 90.28c-2.76 0.95-5.74-0.47-6.67-3.17l-113.57-233.17c-0.934-2.706 0.545-5.642 3.311-6.588z"/>
  </g>
  <metadata>
    <rdf:RDF>
      <cc:Work>
        <dc:format>image/svg+xml</dc:format>
        <dc:type rdf:resource="http://purl.org/dc/dcmitype/StillImage"/>
        <cc:license rdf:resource="http://creativecommons.org/licenses/publicdomain/"/>
        <dc:publisher>
          <cc:Agent rdf:about="http://openclipart.org/">
            <dc:title>Openclipart</dc:title>
          </cc:Agent>
        </dc:publisher>
        <dc:title>Architetto -- papers</dc:title>
        <dc:date>2010-03-20T14:13:10</dc:date>
        <dc:description>Drawing by Francesco 'Architetto' Rollandin. From OCAL 0.18 release.</dc:description>
        <dc:source>https://openclipart.org/detail/32743/architetto----papers-by-anonymous</dc:source>
        <dc:creator>
          <cc:Agent>
            <dc:title>Anonymous</dc:title>
          </cc:Agent>
        </dc:creator>
        <dc:subject>
          <rdf:Bag>
            <rdf:li>note</rdf:li>
            <rdf:li>notebook</rdf:li>
            <rdf:li>page</rdf:li>
            <rdf:li>paper</rdf:li>
            <rdf:li>post it</rdf:li>
          </rdf:Bag>
        </dc:subject>
      </cc:Work>
      <cc:License rdf:about="http://creativecommons.org/licenses/publicdomain/">
        <cc:permits rdf:resource="http://creativecommons.org/ns#Reproduction"/>
        <cc:permits rdf:resource="http://creativecommons.org/ns#Distribution"/>
        <cc:permits rdf:resource="http://creativecommons.org/ns#DerivativeWorks"/>
      </cc:License>
    </rdf:RDF>
  </metadata>
</svg>