<?xml version="1.0" encoding="UTF-8" standalone="no"?>
<!-- Created with Inkscape (http://www.inkscape.org/) -->
<svg xmlns:inkscape="http://www.inkscape.org/namespaces/inkscape" xmlns:rdf="http://www.w3.org/1999/02/22-rdf-syntax-ns#" xmlns="http://www.w3.org/2000/svg" xmlns:sodipodi="http://sodipodi.sourceforge.net/DTD/sodipodi-0.dtd" xmlns:cc="http://web.resource.org/cc/" xmlns:xlink="http://www.w3.org/1999/xlink" xmlns:dc="http://purl.org/dc/elements/1.1/" xmlns:svg="http://www.w3.org/2000/svg" xmlns:ns1="http://sozi.baierouge.fr" id="svg2" sodipodi:docname="clapper.svg" inkscape:export-filename="C:\Documents and Settings\Dave\My Documents\My Pictures\InkScape Drawings\clapper.png" viewBox="0 0 625 510" sodipodi:version="0.32" inkscape:export-xdpi="76.169998" version="1.0" inkscape:output_extension="org.inkscape.output.svg.inkscape" inkscape:export-ydpi="76.169998" inkscape:version="0.45.1" sodipodi:docbase="C:\Documents and Settings\Dave\My Documents\My Pictures\InkScape Drawings">
  <sodipodi:namedview id="base" inkscape:showpageshadow="false" inkscape:zoom="1.0980392" height="510px" borderopacity="1.0" inkscape:current-layer="layer1" inkscape:cx="312.5" inkscape:cy="223.69103" borderlayer="true" width="625px" inkscape:guide-bbox="true" showguides="true" bordercolor="#666666" inkscape:window-x="0" guidetolerance="10" objecttolerance="10" inkscape:window-y="27" inkscape:window-width="1280" inkscape:pageopacity="0" inkscape:pageshadow="2" pagecolor="#ffffff" gridtolerance="10000" inkscape:document-units="px" inkscape:window-height="739" showborder="true"/>
  <defs id="defs4">
    <filter id="filter3333" inkscape:collect="always">
      <feGaussianBlur id="feGaussianBlur3335" stdDeviation="11.168796" inkscape:collect="always"/>
    </filter>
    <linearGradient id="linearGradient2237" y2="90.33" gradientUnits="userSpaceOnUse" y1="83.384" gradientTransform="translate(-13.265 34.833)" x2="36.125" x1="66.228" inkscape:collect="always">
      <stop id="stop6325" style="stop-color:#ffffff" offset="0"/>
      <stop id="stop6327" style="stop-color:#000000;stop-opacity:0" offset="1"/>
    </linearGradient>
    <linearGradient id="linearGradient2240" y2="260.77" gradientUnits="userSpaceOnUse" y1="248.03" gradientTransform="translate(-13.265 34.833)" x2="73.513" x1="130.16" inkscape:collect="always">
      <stop id="stop5342" style="stop-color:#ffffff" offset="0"/>
      <stop id="stop5344" style="stop-color:#000000;stop-opacity:0" offset="1"/>
    </linearGradient>
    <linearGradient id="linearGradient2265" y2="241.79" gradientUnits="userSpaceOnUse" y1="296.65" gradientTransform="matrix(.74910 -.036820 .036820 .74910 -42.649 -88.053)" x2="732.34" x1="172.19" inkscape:collect="always">
      <stop id="stop7061" style="stop-color:#130505" offset="0"/>
      <stop id="stop7063" style="stop-color:#999999;stop-opacity:0" offset="1"/>
    </linearGradient>
  </defs>
  <g id="layer1" inkscape:label="Main" inkscape:groupmode="layer" transform="translate(66.494 5.4904)">
    <path id="path2330" style="opacity:.73333;fill-rule:evenodd;filter:url(#filter3333);stroke:#000000;stroke-width:1px;fill:#000000" d="m-41.681 312.44l167.88 180.61 350.81-150.51-182.93-125.04-335.76 94.94z" sodipodi:nodetypes="ccccc"/>
    <path id="path14942" d="m392.46 55.418l-22.39 12.04-323.06 73.452" style="fill-rule:evenodd;stroke:#000000;stroke-width:.75px;fill:url(#linearGradient2265)" sodipodi:nodetypes="ccc"/>
    <path id="path14934" d="m47.778 141.76l85.222 342.17 345.57-163.97-77.73-234.17-353.06 55.97z" style="fill-rule:evenodd;stroke:#000000;stroke-width:.75px;fill:#000000" sodipodi:nodetypes="ccccc"/>
    <path id="path14936" d="m47.616 141.61l-11.307 5.88 84.941 336.83 12.63-0.45" style="fill-rule:evenodd;stroke:#000000;stroke-width:.75px;fill:#000000" sodipodi:nodetypes="cccc"/>
    <path id="path14938" d="m46.426 140.83l345.4-85.597-9.93-25.516-348.12 74.173 12.646 36.94z" style="fill-rule:evenodd;stroke:#000000;stroke-width:.75px;fill:#000000" sodipodi:nodetypes="ccccc"/>
    <path id="path14940" d="m33.661 103.95l-10.426 7.17 12.308 35.25 10.877-5.65-12.759-36.77z" style="fill-rule:evenodd;stroke:#000000;stroke-width:.75px;fill:#000000" sodipodi:nodetypes="ccccc"/>
    <path id="path14944" d="m68.86 224.26l349.73-84.05 0.12-0.9" style="fill-rule:evenodd;stroke:#ffffff;stroke-width:1.125;fill:#ffffff" sodipodi:nodetypes="ccc"/>
    <path id="path14946" d="m80.808 273.54l350.48-97.06 0.16-0.33" style="fill-rule:evenodd;stroke:#ffffff;stroke-width:1.125;fill:#ffffff" sodipodi:nodetypes="ccc"/>
    <path id="path14948" d="m96.672 336.4l350.48-115.52-0.06-1.03" style="fill-rule:evenodd;stroke:#ffffff;stroke-width:1.2689;fill:#ffffff" sodipodi:nodetypes="ccc"/>
    <path id="path14950" d="m224.98 294.44l36.24 128.58-0.04-0.81" style="stroke:#ffffff;stroke-width:1.5;fill:none" sodipodi:nodetypes="cccc"/>
    <path id="path14952" d="m348.38 253.39l32.27 112.79 0.2-0.83 0.26 0.23" style="stroke:#ffffff;stroke-width:1.5;fill:none" sodipodi:nodetypes="cccc"/>
    <g id="g14954" transform="matrix(.74910 -.036820 .036820 .74910 -43.559 -88.053)">
      <path id="path14956" style="fill-rule:evenodd;fill:#ffffff" d="m89.414 260.45l72.266 38.77 35.84-6.87-71.2-37.96-36.906 6.06z" sodipodi:nodetypes="ccccc"/>
      <path id="path14958" d="m166.19 247.83l70.36 36.29 38.69-7.17-72.07-34.97-36.98 5.85z" style="fill-rule:evenodd;fill:#ffffff" sodipodi:nodetypes="ccccc"/>
      <path id="path14960" style="fill-rule:evenodd;fill:#ffffff" d="m245.78 234.8l71.5 34.08 37.47-6.87-74.47-32.86-34.5 5.65z" sodipodi:nodetypes="ccccc"/>
      <path id="path14962" d="m322.94 222.35l71.34 31.43 39.96-6.86-76.25-29.8-35.05 5.23z" style="fill-rule:evenodd;fill:#ffffff" sodipodi:nodetypes="ccccc"/>
      <path id="path14964" style="fill-rule:evenodd;fill:#ffffff" d="m407.16 209.29l65.52 29.36 34.44-6.36-67.36-28.84-32.6 5.84z" sodipodi:nodetypes="ccccc"/>
      <path id="path14966" d="m480.64 197.1l59.63 28.59 30.2-5.55-60.28-28.07-29.55 5.03z" style="fill-rule:evenodd;fill:#ffffff" sodipodi:nodetypes="ccccc"/>
    </g>
    <path id="path14968" style="fill-rule:evenodd;fill:#ffffff" d="m58.025 180.03l34.23-45.59 24.215-3.55-33.205 43.8-25.24 5.34z" sodipodi:nodetypes="ccccc"/>
    <path id="path14970" d="m111.49 168.44l35.45-42.19 26.53-4.15-37.24 41.84-24.74 4.5z" style="fill-rule:evenodd;fill:#ffffff" sodipodi:nodetypes="ccccc"/>
    <path id="path14972" style="fill-rule:evenodd;fill:#ffffff" d="m166.95 156.3l44.01-40.87 28.52-4.73-43.3 39.67-29.23 5.93z" sodipodi:nodetypes="ccccc"/>
    <path id="path14974" d="m224.98 143.83l42.93-37.66 29.9-5.14-44.63 37.07-28.2 5.73z" style="fill-rule:evenodd;fill:#ffffff" sodipodi:nodetypes="ccccc"/>
    <path id="path14976" style="fill-rule:evenodd;fill:#ffffff" d="m291.71 130.06l38.35-33.575 25.86-4.286-39.77 33.691-24.44 4.17z" sodipodi:nodetypes="ccccc"/>
    <path id="path14978" d="m339.09 120.51l38.73-31.51 22.61-3.743-35.27 30.233-26.07 5.02z" style="fill-rule:evenodd;fill:#ffffff" sodipodi:nodetypes="ccccc"/>
    <path id="path5338" style="fill-rule:evenodd;stroke:#000000;stroke-width:.75px;fill:url(#linearGradient2240)" d="m47.616 141.61l-11.307 5.88 84.941 336.83 12.63-0.45" sodipodi:nodetypes="cccc"/>
    <path id="path5352" style="fill-rule:evenodd;stroke:#000000;stroke-width:.75px;fill:url(#linearGradient2237)" d="m33.661 103.95l-10.426 7.17 12.308 35.25 10.877-5.65-12.759-36.77z" sodipodi:nodetypes="ccccc"/>
    <text id="text2232" style="font-size:12px;font-family:Arial Black;text-align:justify;fill:#ffffff" xml:space="preserve" transform="translate(41.893 6.375)">
      <textPath id="textPath2418" xlink:href="#path14948">
        <tspan id="tspan2234">SCENE</tspan>
      </textPath>
    </text>
    <text id="text2421" xml:space="preserve" transform="translate(176.68 -38.25)" style="font-size:12px;font-family:Arial Black;text-align:justify;fill:#ffffff">
      <textPath id="textPath2429" xlink:href="#path14948">
        <tspan id="tspan2423">TAKE</tspan>
      </textPath>
    </text>
    <text id="text2425" xml:space="preserve" transform="translate(295.07 -78.321)" style="font-size:12px;font-family:Arial Black;text-align:justify;fill:#ffffff">
      <textPath id="textPath2432" xlink:href="#path14948">
        <tspan id="tspan2427">ROLL</tspan>
      </textPath>
    </text>
    <text id="text2435" xml:space="preserve" transform="translate(4,-4)" style="font-size:12px;font-family:Arial Black;text-align:justify;fill:#ffffff">
      <textPath id="textPath2447" xlink:href="#path14944">
        <tspan id="tspan2437">TITLE</tspan>
      </textPath>
    </text>
    <text id="text2439" xml:space="preserve" transform="translate(4,-4)" style="font-size:12px;font-family:Arial Black;text-align:justify;fill:#ffffff">
      <textPath id="textPath2450" xlink:href="#path14946">
        <tspan id="tspan2441">PRODUCER</tspan>
      </textPath>
    </text>
    <text id="text2443" xml:space="preserve" transform="translate(4,-4)" style="font-size:12px;font-family:Arial Black;text-align:justify;fill:#ffffff">
      <textPath id="textPath2453" xlink:href="#path14948">
        <tspan id="tspan2445">DIRECTOR</tspan>
      </textPath>
    </text>
  </g>
  <metadata>
    <rdf:RDF>
      <cc:Work>
        <dc:format>image/svg+xml</dc:format>
        <dc:type rdf:resource="http://purl.org/dc/dcmitype/StillImage"/>
        <cc:license rdf:resource="http://creativecommons.org/licenses/publicdomain/"/>
        <dc:publisher>
          <cc:Agent rdf:about="http://openclipart.org/">
            <dc:title>Openclipart</dc:title>
          </cc:Agent>
        </dc:publisher>
        <dc:title>Scene Slate</dc:title>
        <dc:date>2007-04-25T20:46:12</dc:date>
        <dc:description/>
        <dc:source>https://openclipart.org/detail/4075/scene-slate-by-dniezby</dc:source>
        <dc:creator>
          <cc:Agent>
            <dc:title>dniezby</dc:title>
          </cc:Agent>
        </dc:creator>
        <dc:subject>
          <rdf:Bag>
            <rdf:li>actor</rdf:li>
            <rdf:li>clapper</rdf:li>
            <rdf:li>director</rdf:li>
            <rdf:li>editorial pick</rdf:li>
            <rdf:li>film</rdf:li>
            <rdf:li>hollywood</rdf:li>
            <rdf:li>how i did it</rdf:li>
            <rdf:li>motion pictures</rdf:li>
            <rdf:li>movie</rdf:li>
            <rdf:li>scene</rdf:li>
            <rdf:li>slate</rdf:li>
          </rdf:Bag>
        </dc:subject>
      </cc:Work>
      <cc:License rdf:about="http://creativecommons.org/licenses/publicdomain/">
        <cc:permits rdf:resource="http://creativecommons.org/ns#Reproduction"/>
        <cc:permits rdf:resource="http://creativecommons.org/ns#Distribution"/>
        <cc:permits rdf:resource="http://creativecommons.org/ns#DerivativeWorks"/>
      </cc:License>
    </rdf:RDF>
  </metadata>
</svg>